Sl.No,Awb No,Flight,Origin,Dest.,Shipper,Agent,Awb Date,Prod Type,Rate Class,Commodity,Pkts,Act. Wt.,Charge Wt.,Rate,Freight,Awb DC,To pay,FSC,FAC,Val,Unit,Deunit,xray,Tsp in,Tsp out,Do charge,Docs,Service,Nform,Other charge,Other DC,Misc Chg.,Handling,Awb DA,Total,Tt tax,Grand tt,Addl. Tsp,,,
1,36840000,6E 136,CCU,IXA,CONSOL,AD North East Air Cargo Pvt. Ltd.,31/03/2017,PP,gcr,CONSOL,5,35.0,35.000,0.00,0.00,0.00,0.00,0.00,0.00,0.00,0.00,0.00,0.00,0.00,0.00,0.00,0.00,0.00,0.00,0.00,0.00,0.00,0.00,0.00,0.00,0.00,0.00,0.00,,,
2,38530505,6E 293,CCU,BOM,CONSOL,AD North East Air Cargo Pvt. Ltd.,21/03/2017,PP,gcr,CONSOL,27,361.0,435.000,35.00,15225.00,200.00,0.00,0.00,0.00,0.00,0.00,392.00,0.00,0.00,0.00,200.00,0.00,0.00,0.00,435.00,404.55,435.00,0.00,0.00,17292.00,2594.00,19885.00,405.00,,,
3,37970564,6E 958,AMD,BOM,CONSOL,INDEX LOGISTIC  PVT LTD,21/03/2017,PP,gcr,CONSOL,46,615.0,615.000,26.00,15990.00,200.00,0.00,0.00,0.00,0.00,529.00,554.00,0.00,1230.00,0.00,200.00,0.00,0.00,0.00,615.00,0.00,615.00,0.00,0.00,19933.00,2990.00,22923.00,443.00,,,
4,37970796,6E 958,AMD,BOM,CONSOL,INDEX LOGISTIC  PVT LTD,22/03/2017,PP,gcr,CONSOL,51,607.0,607.000,26.00,15782.00,200.00,0.00,0.00,0.00,0.00,522.00,546.00,0.00,1214.00,0.00,200.00,0.00,0.00,0.00,607.00,0.00,607.00,0.00,0.00,19678.00,2952.00,22630.00,437.00,,,
5,38530785,6E 293,CCU,BOM,CONSOL,AD North East Air Cargo Pvt. Ltd.,22/03/2017,PP,gcr,CONSOL,30,387.0,470.000,35.00,16450.00,200.00,0.00,0.00,0.00,0.00,0.00,423.00,0.00,0.00,0.00,200.00,0.00,0.00,0.00,470.00,437.10,470.00,0.00,0.00,18650.00,2798.00,21448.00,437.00,,,
6,38657124,6E 308,HYD,DEL,CONSOL,INDEX LOGISTIC  PVT LTD,22/03/2017,PP,gcr,CONSOL,23,152.0,188.500,21.00,3958.50,200.00,0.00,0.00,0.00,0.00,207.35,150.80,311.03,0.00,0.00,200.00,0.00,0.00,0.00,188.50,0.00,300.00,0.00,0.00,5516.00,827.00,6344.00,123.00,,,
7,37970822,6E 958,AMD,BOM,CONSOL,INDEX LOGISTIC  PVT LTD,23/03/2017,PP,gcr,CONSOL,39,478.0,478.000,26.00,12428.00,200.00,0.00,0.00,0.00,0.00,411.00,430.00,0.00,956.00,0.00,200.00,0.00,0.00,0.00,478.00,0.00,478.00,0.00,0.00,15581.00,2337.00,17918.00,344.00,,,
8,37942936,6E 254,BOM,HYD,CONSOL,INDEX LOGISTIC  PVT LTD,22/03/2017,PP,gcr,CONSOL,26,281.0,281.000,18.00,5058.00,200.00,0.00,0.00,0.00,0.00,252.90,309.10,421.50,0.00,0.00,200.00,0.00,0.00,0.00,281.00,0.00,300.00,0.00,0.00,7023.00,1053.00,8076.00,253.00,,,
9,38531080,6E 293,CCU,BOM,CONSOL,AD North East Air Cargo Pvt. Ltd.,23/03/2017,PP,gcr,CONSOL,22,306.0,363.500,35.00,12723.00,200.00,0.00,0.00,0.00,0.00,0.00,327.00,0.00,0.00,0.00,200.00,0.00,0.00,0.00,363.00,338.00,364.00,0.00,0.00,14515.00,2177.00,16692.00,338.00,,,
10,26820000,6E 139 ,CCU,IXA,CONSOL,AD North East Air Cargo Pvt. Ltd.,23/03/2017,PP,gcr,CONSOL,4,39.0,39.000,0.00,0.00,0.00,0.00,0.00,0.00,0.00,0.00,0.00,0.00,0.00,0.00,0.00,0.00,0.00,0.00,0.00,0.00,0.00,0.00,0.00,0.00,0.00,0.00,0.00,,,
11,26610000,6E 136,CCU,AMD,CONSOL,AD North East Air Cargo Pvt. Ltd.,23/03/2017,PP,gcr,CONSOL,3,26.0,26.000,0.00,0.00,0.00,0.00,0.00,0.00,0.00,0.00,0.00,0.00,0.00,0.00,0.00,0.00,0.00,0.00,0.00,0.00,0.00,0.00,0.00,0.00,0.00,0.00,0.00,,,
12,26660000,6E 348,CCU,HYD,CONSOL,AD North East Air Cargo Pvt. Ltd.,23/03/2017,PP,gcr,CONSOL,15,110.0,110.000,0.00,0.00,0.00,0.00,0.00,0.00,0.00,0.00,0.00,0.00,0.00,0.00,0.00,0.00,0.00,0.00,0.00,0.00,0.00,0.00,0.00,0.00,0.00,0.00,0.00,,,
13,38679395,6E 264,HYD,BBI,CONSOL,INDEX LOGISTIC  PVT LTD,23/03/2017,PP,gcr,CONSOL,9,90.0,150.000,32.00,4800.00,200.00,0.00,0.00,0.00,0.00,165.00,150.00,248.00,0.00,0.00,200.00,0.00,0.00,0.00,0.00,0.00,300.00,0.00,0.00,6063.00,927.16,7108.16,110.00,,,
14,38679373,6E 302,HYD,DEL,CONSOL,INDEX LOGISTIC  PVT LTD,23/03/2017,PP,gcr,CONSOL,12,145.0,200.000,21.00,4200.00,200.00,0.00,0.00,0.00,0.00,220.00,160.00,330.00,0.00,0.00,200.00,0.00,0.00,0.00,200.00,0.00,300.00,0.00,0.00,5810.00,872.00,6682.00,130.00,,,
15,38679325,6E 308,HYD,DEL,CONSOL,INDEX LOGISTIC  PVT LTD,23/03/2017,PP,gcr,CONSOL,15,120.0,145.000,21.00,3045.00,200.00,0.00,0.00,0.00,0.00,159.50,116.00,239.25,0.00,0.00,200.00,0.00,0.00,0.00,145.00,0.00,300.00,0.00,0.00,4405.00,661.00,5065.00,110.00,,,
16,38679421,6E 766,HYD,DEL,CONSOL,INDEX LOGISTIC  PVT LTD,23/03/2017,PP,gcr,CONSOL,77,543.0,770.000,21.00,16170.00,200.00,0.00,0.00,0.00,0.00,847.00,616.00,1270.50,0.00,0.00,200.00,0.00,0.00,0.00,770.00,0.00,770.00,0.00,0.00,20844.00,3127.00,23970.00,501.00,,,
17,30520000,6E 348,CCU,HYD,CONSOL,AD North East Air Cargo Pvt. Ltd.,24/03/2017,PP,gcr,CONSOL,19,103.0,103.000,20.00,2060.00,200.00,0.00,0.00,0.00,0.00,0.00,113.00,0.00,0.00,0.00,200.00,0.00,0.00,0.00,0.00,309.00,300.00,0.00,0.00,3182.00,477.00,3659.00,130.00,,,
18,37970936,6E 984,AMD,BOM,CONSOL,INDEX LOGISTIC  PVT LTD,24/03/2017,PP,gcr,CONSOL,38,541.0,541.000,26.00,14066.00,200.00,0.00,0.00,0.00,0.00,465.00,487.00,0.00,1082.00,0.00,200.00,0.00,0.00,0.00,541.00,0.00,541.00,0.00,0.00,17582.00,2637.00,20219.00,50.00,,,
19,37943345,6E 496,BOM,IDR,CONSOL,INDEX LOGISTIC  PVT LTD,24/03/2017,PP,gcr,CONSOL,39,570.0,570.000,33.00,18810.00,200.00,0.00,0.00,0.00,0.00,513.00,427.50,855.00,0.00,0.00,200.00,0.00,0.00,0.00,570.00,0.00,570.00,0.00,0.00,22146.00,3322.00,25467.00,100.00,,,
20,38679454,6E 846,HYD,DEL,CONSOL,INDEX LOGISTIC  PVT LTD,24/03/2017,PP,gcr,CONSOL,18,147.0,212.000,21.00,4452.00,200.00,0.00,0.00,0.00,0.00,233.20,169.60,349.80,0.00,0.00,200.00,0.00,0.00,0.00,212.00,0.00,300.00,0.00,0.00,6117.00,917.00,7034.00,138.00,,,
21,38127821,6E 273,DEL,BLR,CONSOL,INDEX LOGISTIC  PVT LTD,24/03/2017,PP,gcr,CONSOL,25,185.0,248.500,45.00,11182.50,200.00,0.00,0.00,0.00,0.00,248.00,274.00,472.00,0.00,0.00,200.00,0.00,0.00,0.00,0.00,249.00,300.00,0.00,0.00,13126.00,1969.00,15094.00,211.00,,,
22,38127832,6E 4999,DEL,RPR,CONSOL,INDEX LOGISTIC  PVT LTD,24/03/2017,PP,gcr,COMPUTER GOODS,34,248.0,248.000,38.00,9424.00,200.00,0.00,0.00,0.00,0.00,248.00,0.00,471.00,0.00,0.00,200.00,0.00,0.00,0.00,0.00,248.00,300.00,186.00,0.00,11277.00,1692.00,12969.00,211.00,,,
23,38127843,6E 519,DEL,MAA,CONSOL,INDEX LOGISTIC  PVT LTD,24/03/2017,PP,gcr,CONSOL,23,263.0,263.000,40.00,10520.00,200.00,0.00,0.00,0.00,0.00,263.00,198.00,500.00,0.00,0.00,200.00,0.00,0.00,0.00,0.00,263.00,300.00,331.00,0.00,12775.00,1916.00,14691.00,224.00,,,
24,37942962,6E 363,BOM,CJB,CONSOL,INDEX LOGISTIC  PVT LTD,23/03/2017,PP,gcr,CONSOL,10,350.0,350.000,35.00,12250.00,200.00,0.00,0.00,0.00,0.00,315.00,0.00,525.00,0.00,0.00,200.00,0.00,0.00,0.00,350.00,0.00,350.00,0.00,0.00,14190.00,2129.00,16319.00,315.00,,,
25,37942940,6E 5153,BOM,CCU,CONSOL,INDEX LOGISTIC  PVT LTD,23/03/2017,PP,gcr,CONSOL,36,340.0,340.000,35.00,11900.00,200.00,0.00,0.00,0.00,0.00,306.00,0.00,510.00,0.00,316.20,200.00,0.00,0.00,0.00,340.00,0.00,340.00,0.00,0.00,14112.00,2117.00,16229.00,306.00,,,
26,37943290,6E 533,BOM,BBI,CONSOL,INDEX LOGISTIC  PVT LTD,23/03/2017,PP,gcr,CONSOL,21,213.0,213.000,33.00,7029.00,200.00,0.00,0.00,0.00,0.00,191.70,0.00,319.50,0.00,168.27,200.00,0.00,0.00,0.00,213.00,0.00,300.00,0.00,0.00,8621.00,1293.00,9915.00,192.00,,,
27,37942973,6E 254,BOM,HYD,CONSOL,INDEX LOGISTIC  PVT LTD,23/03/2017,PP,gcr,CONSOL,37,573.0,573.000,18.00,10314.00,200.00,0.00,0.00,0.00,0.00,515.70,630.30,859.50,0.00,0.00,200.00,0.00,0.00,0.00,573.00,0.00,573.00,0.00,0.00,13866.00,2080.00,15945.00,516.00,,,
28,37971054,6E 958,AMD,BOM,CONSOL,INDEX LOGISTIC  PVT LTD,25/03/2017,PP,gcr,CONSOL,29,394.0,394.000,26.00,10244.00,200.00,0.00,0.00,0.00,0.00,339.00,355.00,0.00,788.00,0.00,200.00,0.00,0.00,0.00,394.00,0.00,394.00,0.00,0.00,12914.00,1937.00,14851.00,284.00,,,
29,37922614,6E 5153,BOM,CCU,CONSOL,INDEX LOGISTIC  PVT LTD,24/03/2017,PP,gcr,GENERAL ,34,262.0,323.500,35.00,11323.00,200.00,0.00,0.00,0.00,0.00,291.15,0.00,485.25,0.00,300.86,200.00,0.00,0.00,0.00,323.50,0.00,324.00,0.00,0.00,13448.00,2017.00,15465.00,291.00,,,
30,37922603,6E 628,BOM,HYD,CONSOL,INDEX LOGISTIC  PVT LTD,24/03/2017,PP,gcr,CONSOL,14,133.0,133.000,18.00,2394.00,200.00,0.00,0.00,0.00,0.00,119.70,146.30,199.50,0.00,0.00,200.00,0.00,0.00,0.00,133.00,0.00,300.00,0.00,0.00,3693.00,554.00,4246.00,120.00,,,
31,37922625,6E 363,BOM,CJB,CONSOL,INDEX LOGISTIC  PVT LTD,24/03/2017,PP,gcr,CONSOL,7,140.0,140.000,35.00,4900.00,200.00,0.00,0.00,0.00,0.00,126.00,0.00,210.00,0.00,0.00,200.00,0.00,0.00,0.00,140.00,0.00,300.00,0.00,0.00,6076.00,911.00,6987.00,126.00,,,
32,36820501,6E 591,BDQ,CCU,CONSOL,INDEX LOGISTIC  PVT LTD,21/03/2017,PP,gcr,CONSOL,7,103.0,103.000,35.00,3605.00,200.00,0.00,0.00,0.00,0.00,0.00,0.00,0.00,0.00,135.00,200.00,0.00,0.00,0.00,103.00,0.00,300.00,0.00,0.00,4543.00,681.00,5224.00,0.00,,,
33,36820512,6E 633,BDQ,PAT,CONSOL,INDEX LOGISTIC  PVT LTD,21/03/2017,PP,gcr,CONSOL,7,123.0,123.000,38.00,4674.00,200.00,0.00,0.00,0.00,0.00,0.00,0.00,0.00,0.00,0.00,200.00,0.00,0.00,0.00,123.00,0.00,300.00,0.00,0.00,5497.00,825.00,6322.00,0.00,,,
34,36820523,6E 493,BDQ,IXR,CONSOL,INDEX LOGISTIC  PVT LTD,21/03/2017,PP,gcr,CONSOL,6,71.0,71.000,50.00,3550.00,200.00,0.00,0.00,0.00,0.00,0.00,0.00,0.00,0.00,116.00,200.00,0.00,0.00,0.00,71.00,0.00,300.00,0.00,0.00,4437.00,666.00,5103.00,0.00,,,
35,36820534,6E 211,BDQ,BBI,CONSOL,INDEX LOGISTIC  PVT LTD,21/03/2017,PP,gcr,CONSOL,6,100.0,100.000,36.00,3600.00,200.00,0.00,0.00,0.00,0.00,0.00,0.00,0.00,0.00,116.00,200.00,0.00,0.00,0.00,100.00,0.00,300.00,0.00,0.00,4516.00,677.00,5193.00,0.00,,,
36,36820545,6E 591,BDQ,CCU,CONSOL,INDEX LOGISTIC  PVT LTD,22/03/2017,PP,gcr,CONSOL,14,188.0,188.000,35.00,6580.00,200.00,0.00,0.00,0.00,0.00,0.00,0.00,0.00,0.00,174.84,200.00,0.00,0.00,0.00,188.00,0.00,300.00,0.00,0.00,7643.00,1146.00,8789.00,0.00,,,
37,36820556,6E 633,BDQ,PAT,CONSOL,INDEX LOGISTIC  PVT LTD,22/03/2017,PP,gcr,CONSOL,8,129.0,129.000,38.00,4902.00,200.00,0.00,0.00,0.00,0.00,0.00,0.00,0.00,0.00,0.00,200.00,0.00,0.00,0.00,129.00,0.00,300.00,0.00,0.00,5731.00,860.00,6591.00,0.00,,,
38,36820560,6E 493,BDQ,IXR,CONSOL,INDEX LOGISTIC  PVT LTD,22/03/2017,PP,gcr,CONSOL,6,102.0,102.000,40.00,4080.00,200.00,0.00,0.00,0.00,0.00,0.00,0.00,0.00,0.00,116.00,200.00,0.00,0.00,0.00,102.00,0.00,300.00,0.00,0.00,4998.00,750.00,5748.00,0.00,,,
39,36820571,6E 211,BDQ,BBI,CONSOL,INDEX LOGISTIC  PVT LTD,22/03/2017,PP,gcr,CONSOL,9,151.0,151.000,36.00,5436.00,200.00,0.00,0.00,0.00,0.00,0.00,0.00,0.00,0.00,119.29,200.00,0.00,0.00,0.00,151.00,0.00,300.00,0.00,0.00,6406.00,961.00,7367.00,0.00,,,
40,38935934,6E 226,LKO,BLR,CONSOL,INDEX LOGISTIC  PVT LTD,21/03/2017,PP,gcr,CONSOL,38,335.0,335.000,34.00,11390.00,200.00,0.00,0.00,0.00,0.00,0.00,368.50,251.25,0.00,251.25,200.00,0.00,0.00,0.00,335.00,0.00,335.00,0.00,0.00,13331.00,2000.00,15331.00,0.00,,,
41,38935960,6E 226,LKO,BLR,CONSOL,INDEX LOGISTIC  PVT LTD,22/03/2017,PP,gcr,CONSOL,23,155.0,155.000,34.00,5270.00,200.00,0.00,0.00,0.00,0.00,0.00,170.50,116.25,0.00,116.25,200.00,0.00,0.00,0.00,155.00,0.00,300.00,0.00,0.00,6528.00,979.00,7507.00,0.00,,,
42,38523590,6E 348,CCU,HYD,CONSOL,INDEX LOGISTIC  PVT LTD,21/03/2017,PP,gcr,CONSOL,9,86.0,100.000,30.00,3000.00,200.00,0.00,0.00,0.00,0.00,0.00,110.00,0.00,0.00,0.00,200.00,0.00,0.00,0.00,100.00,135.00,300.00,0.00,0.00,4045.00,607.00,4652.00,130.00,,,
43,37943636,6E 395,BOM,CCU,CONSOL,INDEX LOGISTIC  PVT LTD,26/03/2017,PP,gcr,CONSOL,49,558.0,558.000,35.00,19530.00,200.00,0.00,0.00,0.00,0.00,502.20,0.00,837.00,0.00,518.94,200.00,0.00,0.00,0.00,558.00,0.00,558.00,0.00,0.00,22904.00,3436.00,26340.00,502.00,,,
44,37943640,6E 628,BOM,HYD,CONSOL,INDEX LOGISTIC  PVT LTD,26/03/2017,PP,gcr,CONSOL,22,230.0,230.000,18.00,4140.00,200.00,0.00,0.00,0.00,0.00,207.00,253.00,345.00,0.00,0.00,200.00,0.00,0.00,0.00,230.00,0.00,300.00,0.00,0.00,5875.00,881.00,6756.00,207.00,,,
45,37943382,6E 628,BOM,HYD,CONSOL,INDEX LOGISTIC  PVT LTD,25/03/2017,PP,gcr,CONSOL,24,275.0,275.000,18.00,4950.00,200.00,0.00,0.00,0.00,0.00,247.50,302.50,412.50,0.00,0.00,200.00,0.00,0.00,0.00,275.00,0.00,300.00,0.00,0.00,6888.00,1033.00,7921.00,248.00,,,
46,37971172,6E 958,AMD,BOM,CONSOL,INDEX LOGISTIC  PVT LTD,26/03/2017,PP,gcr,CONSOL,37,441.0,441.000,26.00,11466.00,200.00,0.00,0.00,0.00,0.00,379.00,397.00,0.00,882.00,0.00,200.00,0.00,0.00,0.00,441.00,0.00,441.00,0.00,0.00,14406.00,2161.00,16567.00,318.00,,,
47,38556066,6E 293,CCU,BOM,CONSOL,AD North East Air Cargo Pvt. Ltd.,25/03/2017,PP,gcr,CONSOL,25,276.0,352.000,35.00,12320.00,200.00,0.00,0.00,0.00,0.00,0.00,316.80,0.00,0.00,0.00,200.00,0.00,0.00,0.00,352.00,327.36,352.00,0.00,0.00,14068.00,2110.00,16178.00,327.00,,,
48,32340000,6E 136,CCU,IXA,CONSOL,AD North East Air Cargo Pvt. Ltd.,25/03/2017,PP,gcr,CONSOL,2,18.0,18.000,0.00,0.00,0.00,0.00,0.00,0.00,0.00,0.00,0.00,0.00,0.00,0.00,0.00,0.00,0.00,0.00,0.00,0.00,0.00,0.00,0.00,0.00,0.00,0.00,0.00,,,
49,32350000,6E 358,CCU,IMF,CONSOL,AD North East Air Cargo Pvt. Ltd.,25/03/2017,PP,gcr,CONSOL,2,11.0,11.000,0.00,0.00,0.00,0.00,0.00,0.00,0.00,0.00,0.00,0.00,0.00,0.00,0.00,0.00,0.00,0.00,0.00,0.00,0.00,0.00,0.00,0.00,0.00,0.00,0.00,,,
50,38556324,6E 293,CCU,BOM,CONSOL,AD North East Air Cargo Pvt. Ltd.,26/03/2017,PP,gcr,CONSOL,34,512.0,520.000,35.00,18200.00,200.00,0.00,0.00,0.00,0.00,0.00,468.00,0.00,0.00,0.00,200.00,0.00,0.00,0.00,520.00,483.60,520.00,0.00,0.00,20592.00,3089.00,23680.00,484.00,,,
51,38524135,6E 271,CCU,BLR,CONSOL,INDEX LOGISTIC  PVT LTD,28/03/2017,PP,gcr,CONSOL,29,169.0,225.000,31.00,6975.00,200.00,0.00,0.00,0.00,0.00,0.00,248.00,0.00,0.00,0.00,200.00,0.00,0.00,0.00,225.00,209.25,300.00,0.00,0.00,8357.00,1254.00,9611.00,209.00,,,
52,38556696,6E 293,CCU,BOM,CONSOL,AD North East Air Cargo Pvt. Ltd.,28/03/2017,PP,gcr,CONSOL,26,373.0,468.500,35.00,16398.00,200.00,0.00,0.00,0.00,0.00,0.00,422.00,0.00,0.00,0.00,200.00,0.00,0.00,0.00,468.50,435.00,469.00,0.00,0.00,18593.00,2789.00,21381.00,436.00,,,
53,39155966,6E 958,AMD,BOM,CONSOL,INDEX LOGISTIC  PVT LTD,28/03/2017,PP,gcr,CONSOL,37,661.0,661.000,26.00,17186.00,200.00,0.00,0.00,0.00,0.00,568.00,595.00,0.00,1322.00,0.00,200.00,0.00,0.00,0.00,661.00,0.00,661.00,0.00,0.00,21393.00,3209.00,24602.00,476.00,,,
54,39155933,6E 758,AMD,BLR,CONSOL,INDEX LOGISTIC  PVT LTD,28/03/2017,PP,gcr,CONSOL,39,212.0,212.000,30.00,6360.00,200.00,0.00,450.00,0.00,0.00,182.00,233.00,0.00,424.00,0.00,200.00,0.00,0.00,0.00,212.00,0.00,300.00,0.00,0.00,8561.00,1284.00,9845.00,153.00,,,
55,39155922,6E 238,AMD,MAA,CONSOL,INDEX LOGISTIC  PVT LTD,28/03/2017,PP,gcr,CONSOL,16,156.0,156.000,31.00,4836.00,200.00,0.00,0.00,0.00,0.00,135.00,312.00,0.00,117.00,0.00,200.00,0.00,0.00,0.00,156.00,312.00,300.00,196.00,0.00,6764.00,1015.00,7779.00,112.00,,,
56,37943625,6E 363,BOM,CJB,CONSOL,INDEX LOGISTIC  PVT LTD,26/03/2017,PP,gcr,CONSOL,11,106.0,106.000,35.00,3710.00,200.00,0.00,0.00,0.00,0.00,100.00,0.00,159.00,0.00,0.00,200.00,0.00,0.00,0.00,106.00,0.00,300.00,0.00,0.00,4775.00,716.00,5491.00,100.00,,,
57,36820582,6E 211,BDQ,BBI,CONSOL,INDEX LOGISTIC  PVT LTD,23/03/2017,PP,gcr,CONSOL,8,126.0,126.000,36.00,4536.00,200.00,0.00,0.00,0.00,0.00,0.00,0.00,0.00,0.00,116.00,200.00,0.00,0.00,0.00,126.00,0.00,300.00,0.00,0.00,5478.00,822.00,6300.00,0.00,,,
58,36820593,6E 493,BDQ,IXR,CONSOL,INDEX LOGISTIC  PVT LTD,23/03/2017,PP,gcr,CONSOL,4,73.0,73.000,50.00,3650.00,200.00,0.00,0.00,0.00,0.00,0.00,0.00,0.00,0.00,116.00,200.00,0.00,0.00,0.00,73.00,0.00,300.00,0.00,0.00,4539.00,681.00,5220.00,0.00,,,
59,36820604,6E 633,BDQ,PAT,CONSOL,INDEX LOGISTIC  PVT LTD,23/03/2017,PP,gcr,CONSOL,10,150.0,150.000,38.00,5700.00,200.00,0.00,0.00,0.00,0.00,0.00,0.00,0.00,0.00,0.00,200.00,0.00,0.00,150.00,0.00,0.00,300.00,0.00,0.00,6550.00,983.00,7533.00,0.00,,,
60,36820615,6E 591,BDQ,CCU,CONSOL,INDEX LOGISTIC  PVT LTD,23/03/2017,PP,gcr,CONSOL,13,183.0,183.000,35.00,6405.00,200.00,0.00,0.00,0.00,0.00,0.00,0.00,0.00,0.00,170.19,200.00,0.00,0.00,0.00,183.00,0.00,300.00,0.00,0.00,7458.00,1119.00,8577.00,0.00,,,
61,36820626,6E 633,BDQ,PAT,CONSOL,INDEX LOGISTIC  PVT LTD,24/03/2017,PP,gcr,CONSOL,9,137.0,137.000,38.00,5206.00,200.00,0.00,0.00,0.00,0.00,0.00,0.00,0.00,0.00,0.00,200.00,0.00,0.00,0.00,137.00,0.00,300.00,0.00,0.00,6043.00,906.00,6949.00,0.00,,,
62,36820630,6E 591,BDQ,CCU,CONSOL,INDEX LOGISTIC  PVT LTD,24/03/2017,PP,gcr,CONSOL,12,210.0,210.000,35.00,7350.00,200.00,0.00,0.00,0.00,0.00,0.00,0.00,0.00,0.00,195.30,200.00,0.00,0.00,0.00,210.00,0.00,300.00,0.00,0.00,8455.00,1268.00,9724.00,0.00,,,
63,36820641,6E 493,BDQ,IXR,CONSOL,INDEX LOGISTIC  PVT LTD,24/03/2017,PP,gcr,CONSOL,5,57.0,57.000,50.00,2850.00,200.00,0.00,0.00,0.00,0.00,0.00,0.00,0.00,0.00,116.00,200.00,0.00,0.00,0.00,57.00,0.00,300.00,0.00,0.00,3723.00,558.00,4281.00,0.00,,,
64,36820652,6E 211,BDQ,BBI,CONSOL,INDEX LOGISTIC  PVT LTD,24/03/2017,PP,gcr,CONSOL,6,106.0,106.000,36.00,3816.00,200.00,0.00,0.00,0.00,0.00,0.00,0.00,0.00,0.00,116.00,200.00,0.00,0.00,0.00,106.00,0.00,300.00,0.00,0.00,4738.00,711.00,5449.00,0.00,,,
65,36820722,6E 493,BDQ,IXR,CONSOL,INDEX LOGISTIC  PVT LTD,26/03/2017,PP,gcr,CONSOL,5,73.0,73.000,50.00,3650.00,200.00,0.00,0.00,0.00,0.00,0.00,0.00,0.00,0.00,116.00,200.00,0.00,0.00,0.00,73.00,0.00,300.00,0.00,0.00,4539.00,681.00,5220.00,0.00,,,
66,39156003,6E 958,AMD,BOM,CONSOL,INDEX LOGISTIC  PVT LTD,29/03/2017,PP,gcr,CONSOL,40,501.0,501.000,26.00,13026.00,200.00,0.00,0.00,0.00,0.00,431.00,451.00,0.00,1002.00,0.00,200.00,0.00,0.00,0.00,501.00,0.00,501.00,0.00,0.00,16312.00,2447.00,18759.00,361.00,,,
67,06796520,6E 801,BOM,RPR,CONSOL,MONOPOLY EXPRESS CARGO (MUMBAI) PVT LTD,25/03/2017,PP,gcr,CONSOL,1,4.0,4.000,52.00,1000.00,200.00,0.00,0.00,0.00,0.00,100.00,0.00,125.00,0.00,0.00,200.00,0.00,0.00,0.00,0.00,0.00,300.00,0.00,0.00,1925.00,289.00,2214.00,100.00,,,
68,06793120,6E 801,BOM,RPR,CONSOL,MONOPOLY EXPRESS CARGO (MUMBAI) PVT LTD,24/03/2017,PP,gcr,CONSOL,1,4.0,4.000,52.00,1000.00,200.00,0.00,0.00,0.00,0.00,100.00,0.00,125.00,0.00,0.00,200.00,0.00,0.00,0.00,0.00,0.00,300.00,0.00,0.00,1925.00,289.00,2214.00,100.00,,,
69,36820663,6E 633,BDQ,PAT,CONSOL,INDEX LOGISTIC  PVT LTD,25/03/2017,PP,gcr,CONSOL,18,207.0,207.000,38.00,7866.00,200.00,0.00,0.00,0.00,0.00,0.00,0.00,0.00,0.00,0.00,200.00,0.00,0.00,0.00,207.00,0.00,300.00,0.00,0.00,8773.00,1316.00,10089.00,0.00,,,
70,36820674,6E 591,BDQ,CCU,CONSOL,INDEX LOGISTIC  PVT LTD,25/03/2017,PP,gcr,CONSOL,16,230.0,230.000,35.00,8050.00,200.00,0.00,0.00,0.00,0.00,0.00,0.00,0.00,0.00,213.90,200.00,0.00,0.00,0.00,230.00,0.00,300.00,0.00,0.00,9194.00,1379.00,10573.00,0.00,,,
71,36820685,6E 493,BDQ,IXR,CONSOL,INDEX LOGISTIC  PVT LTD,25/03/2017,PP,gcr,CONSOL,5,71.0,71.000,50.00,3550.00,200.00,0.00,0.00,0.00,0.00,0.00,0.00,0.00,0.00,116.00,200.00,0.00,0.00,0.00,71.00,0.00,300.00,0.00,0.00,4437.00,666.00,5103.00,0.00,,,
72,36820696,6E 211,BDQ,BBI,CONSOL,INDEX LOGISTIC  PVT LTD,25/03/2017,PP,gcr,CONSOL,7,122.0,122.000,36.00,4392.00,200.00,0.00,0.00,0.00,0.00,0.00,0.00,0.00,0.00,116.00,200.00,0.00,0.00,0.00,122.00,0.00,300.00,0.00,0.00,5330.00,800.00,6130.00,0.00,,,
73,36820700,6E 3591,BDQ,PAT,CONSOL,INDEX LOGISTIC  PVT LTD,26/03/2017,PP,gcr,CONSOL,14,212.0,212.000,38.00,8056.00,200.00,0.00,0.00,0.00,0.00,0.00,0.00,0.00,0.00,0.00,200.00,0.00,0.00,0.00,212.00,0.00,300.00,0.00,0.00,8968.00,1345.00,10313.00,0.00,,,
74,36820711,6E 591,BDQ,CCU,CONSOL,INDEX LOGISTIC  PVT LTD,26/03/2017,PP,gcr,CONSOL,22,252.0,252.000,35.00,8820.00,200.00,0.00,0.00,0.00,0.00,0.00,0.00,0.00,0.00,234.36,200.00,0.00,0.00,0.00,252.00,0.00,300.00,0.00,0.00,10006.00,1501.00,11507.00,0.00,,,
75,36820733,6E 211,BDQ,BBI,CONSOL,INDEX LOGISTIC  PVT LTD,26/03/2017,PP,gcr,CONSOL,8,111.0,111.000,36.00,3996.00,200.00,0.00,0.00,0.00,0.00,0.00,0.00,0.00,0.00,116.00,200.00,0.00,0.00,0.00,111.00,0.00,300.00,0.00,0.00,4923.00,738.00,5661.00,0.00,,,
76,38935993,6E 226,LKO,BLR,CONSOL,INDEX LOGISTIC  PVT LTD,23/03/2017,PP,gcr,CONSOL,14,124.0,124.000,34.00,4216.00,200.00,0.00,0.00,0.00,0.00,0.00,136.40,100.00,0.00,110.00,200.00,0.00,0.00,0.00,124.00,0.00,300.00,0.00,0.00,5386.00,808.00,6194.00,0.00,,,
77,38936030,6E 226,LKO,BLR,CONSOL,INDEX LOGISTIC  PVT LTD,24/03/2017,PP,gcr,CONSOL,22,166.0,166.000,34.00,5644.00,200.00,0.00,0.00,0.00,0.00,0.00,182.60,124.50,0.00,124.50,200.00,0.00,0.00,0.00,166.00,0.00,300.00,0.00,0.00,6942.00,1041.00,7983.00,0.00,,,
78,38936063,6E 226,LKO,BLR,CONSOL,INDEX LOGISTIC  PVT LTD,25/03/2017,PP,gcr,CONSOL,28,201.0,201.000,34.00,6834.00,200.00,0.00,0.00,0.00,0.00,0.00,221.10,150.75,0.00,150.75,200.00,0.00,0.00,0.00,201.00,0.00,300.00,0.00,0.00,8258.00,1239.00,9496.00,0.00,,,
79,38556862,6E 293,CCU,BOM,CONSOL,AD North East Air Cargo Pvt. Ltd.,29/03/2017,PP,gcr,CONSOL,22,273.0,332.000,35.00,11620.00,200.00,0.00,0.00,0.00,0.00,0.00,299.00,0.00,0.00,0.00,200.00,0.00,0.00,0.00,332.00,308.76,332.00,0.00,0.00,13292.00,1994.00,15286.00,309.00,,,
80,06767850,6E 801,BOM,RPR,CONSOL,MONOPOLY EXPRESS CARGO (MUMBAI) PVT LTD,22/03/2017,PP,gcr,CONSOL,1,4.0,4.000,52.00,1000.00,200.00,0.00,0.00,0.00,0.00,100.00,0.00,125.00,0.00,0.00,200.00,0.00,0.00,0.00,0.00,0.00,300.00,0.00,0.00,1925.00,289.00,2214.00,100.00,,,
81,06764820,6E 801,BOM,RPR,CONSOL,MONOPOLY EXPRESS CARGO (MUMBAI) PVT LTD,21/03/2017,PP,gcr,CONSOL,1,4.0,4.000,52.00,1000.00,200.00,0.00,0.00,0.00,0.00,100.00,0.00,125.00,0.00,0.00,200.00,0.00,0.00,0.00,0.00,0.00,300.00,0.00,0.00,1925.00,289.00,2214.00,100.00,,,
82,06798940,6E 801,BOM,RPR,CONSOL,MONOPOLY EXPRESS CARGO (MUMBAI) PVT LTD,26/03/2017,PP,gcr,CONSOL,1,9.0,9.000,52.00,1000.00,200.00,0.00,0.00,0.00,0.00,100.00,0.00,125.00,0.00,0.00,200.00,0.00,0.00,0.00,0.00,0.00,300.00,0.00,0.00,1925.00,289.00,2214.00,100.00,,,
83,06790330,6E 801,BOM,RPR,CONSOL,MONOPOLY EXPRESS CARGO (MUMBAI) PVT LTD,23/03/2017,PP,gcr,CONSOL,1,4.0,4.000,52.00,1000.00,200.00,0.00,0.00,0.00,0.00,100.00,0.00,125.00,0.00,0.00,200.00,0.00,0.00,0.00,0.00,0.00,300.00,0.00,0.00,1925.00,289.00,2214.00,100.00,,,
84,37943592,6E 395,BOM,CCU,CONSOL,INDEX LOGISTIC  PVT LTD,27/03/2017,PP,gcr,CONSOL,2,14.0,27.000,55.00,1485.00,200.00,0.00,0.00,0.00,0.00,100.00,0.00,125.00,0.00,135.00,200.00,0.00,0.00,0.00,27.00,0.00,300.00,0.00,0.00,2572.00,386.00,2958.00,100.00,,,
85,38557050,6E 293,CCU,BOM,CONSOL,AD North East Air Cargo Pvt. Ltd.,30/03/2017,PP,gcr,CONSOL,16,197.0,250.000,35.00,8750.00,200.00,0.00,0.00,0.00,0.00,0.00,225.00,0.00,0.00,0.00,200.00,0.00,0.00,0.00,250.00,232.50,300.00,0.00,0.00,10158.00,1524.00,11681.00,233.00,,,
86,34910000,6E 136,CCU,AMD,CONSOL,AD North East Air Cargo Pvt. Ltd.,30/03/2017,PP,gcr,CONSOL,10,62.0,62.000,0.00,0.00,0.00,0.00,0.00,0.00,0.00,0.00,0.00,0.00,0.00,0.00,0.00,0.00,0.00,0.00,0.00,0.00,0.00,0.00,0.00,0.00,0.00,0.00,0.00,,,
87,38936096,6E 226,LKO,BLR,CONSOL,INDEX LOGISTIC  PVT LTD,26/03/2017,PP,gcr,CONSOL,27,134.0,134.000,34.00,4556.00,200.00,0.00,0.00,0.00,0.00,0.00,147.40,100.50,0.00,110.00,200.00,0.00,0.00,0.00,134.00,0.00,300.00,0.00,0.00,5748.00,862.00,6610.00,0.00,,,
88,39156143,6E 958,AMD,BOM,CONSOL,INDEX LOGISTIC  PVT LTD,30/03/2017,PP,gcr,CONSOL,34,428.0,428.000,26.00,11128.00,200.00,0.00,0.00,0.00,0.00,368.00,385.00,0.00,856.00,0.00,200.00,0.00,0.00,0.00,428.00,0.00,428.00,0.00,0.00,13993.00,2099.00,16092.00,308.00,,,
89,37943603,6E 628,BOM,HYD,CONSOL,INDEX LOGISTIC  PVT LTD,29/03/2017,PP,gcr,CONSOL,8,114.0,114.000,18.00,2052.00,200.00,0.00,0.00,0.00,0.00,102.60,125.40,171.00,0.00,0.00,200.00,0.00,0.00,0.00,114.00,0.00,300.00,0.00,0.00,3265.00,490.00,3755.00,103.00,,,
90,38936122,6E 226,LKO,BLR,CONSOL,INDEX LOGISTIC  PVT LTD,27/03/2017,PP,gcr,CONSOL,14,68.0,68.000,45.00,3060.00,200.00,0.00,0.00,0.00,0.00,0.00,74.80,100.00,0.00,110.00,200.00,0.00,0.00,0.00,68.00,0.00,300.00,0.00,0.00,4113.00,617.00,4730.00,0.00,,,
91,38936144,6E 226,LKO,BLR,CONSOL,INDEX LOGISTIC  PVT LTD,28/03/2017,PP,gcr,CONSOL,31,208.0,208.000,34.00,7072.00,200.00,0.00,0.00,0.00,0.00,0.00,228.80,156.00,0.00,156.00,200.00,0.00,0.00,0.00,208.00,0.00,300.00,0.00,0.00,8521.00,1278.00,9799.00,0.00,,,
92,38936166,6E 226,LKO,BLR,CONSOL,INDEX LOGISTIC  PVT LTD,29/03/2017,PP,gcr,CONSOL,37,291.0,291.000,34.00,9894.00,200.00,0.00,0.00,0.00,0.00,0.00,320.10,218.25,0.00,218.25,200.00,0.00,0.00,0.00,291.00,0.00,300.00,0.00,0.00,11642.00,1746.00,13388.00,0.00,,,
93,38936192,6E 226,LKO,BLR,CONSOL,INDEX LOGISTIC  PVT LTD,30/03/2017,PP,gcr,CONSOL,27,211.0,211.000,34.00,7174.00,200.00,0.00,0.00,0.00,0.00,0.00,232.10,158.25,0.00,158.25,200.00,0.00,0.00,0.00,211.00,0.00,300.00,0.00,0.00,8634.00,1295.00,9929.00,0.00,,,
94,37943393,6E 5153,BOM,CCU,CONSOL,INDEX LOGISTIC  PVT LTD,30/03/2017,PP,gcr,CONSOL,48,426.0,477.000,35.00,16695.00,200.00,0.00,0.00,0.00,0.00,429.30,0.00,715.50,0.00,443.61,200.00,0.00,0.00,0.00,477.00,0.00,477.00,0.00,0.00,19637.00,2946.00,22583.00,429.00,,,
95,37943522,6E 628,BOM,HYD,CONSOL,INDEX LOGISTIC  PVT LTD,30/03/2017,PP,gcr,CONSOL,25,383.0,383.000,18.00,6894.00,200.00,0.00,0.00,0.00,0.00,344.70,421.30,574.50,0.00,0.00,200.00,0.00,0.00,0.00,383.00,0.00,383.00,0.00,0.00,9401.00,1410.00,10811.00,345.00,,,
96,39156283,6E 3834,AMD,MAA,CONSOL,INDEX LOGISTIC  PVT LTD,31/03/2017,PP,gcr,CONSOL,13,112.0,112.000,31.00,3472.00,200.00,0.00,0.00,0.00,0.00,96.00,224.00,0.00,110.00,0.00,200.00,0.00,0.00,0.00,112.00,224.00,300.00,141.00,0.00,5079.00,762.00,5841.00,81.00,,,
97,39156235,6E 958,AMD,BOM,CONSOL,INDEX LOGISTIC  PVT LTD,31/03/2017,PP,gcr,CONSOL,37,486.0,486.000,26.00,12636.00,200.00,0.00,0.00,0.00,0.00,418.00,437.00,0.00,972.00,0.00,200.00,0.00,0.00,0.00,486.00,0.00,486.00,0.00,0.00,15835.00,2375.00,18210.00,350.00,,,
98,39068326,6E 273,DEL,BLR,CONSOL,INDEX LOGISTIC  PVT LTD,02/04/2017,PP,gcr,CONSOL,47,335.0,628.500,40.00,25140.00,200.00,0.00,0.00,0.00,0.00,629.00,691.00,1194.00,0.00,0.00,200.00,0.00,0.00,0.00,0.00,628.00,629.00,0.00,0.00,29311.00,4397.00,33708.00,534.00,,,
99,39156445,6E 958,AMD,BOM,CONSOL,INDEX LOGISTIC  PVT LTD,02/04/2017,PP,gcr,CONSOL,52,777.0,777.000,26.00,20202.00,200.00,0.00,0.00,0.00,0.00,668.00,699.00,0.00,1554.00,0.00,200.00,0.00,0.00,0.00,777.00,0.00,777.00,0.00,0.00,25077.00,3762.00,28839.00,559.00,,,
100,39156342,6E 958,AMD,BOM,CONSOL,INDEX LOGISTIC  PVT LTD,01/04/2017,PP,gcr,CONSOL,44,666.0,666.000,26.00,17316.00,200.00,0.00,0.00,0.00,0.00,573.00,599.00,0.00,1332.00,0.00,200.00,0.00,0.00,0.00,666.00,0.00,666.00,0.00,0.00,21552.00,3233.00,24785.00,480.00,,,
101,38988434,6E 395,BOM,CCU,CONSOL,INDEX LOGISTIC  PVT LTD,02/04/2017,PP,gcr,CONSOL,9,91.0,105.000,35.00,3675.00,200.00,0.00,0.00,0.00,0.00,100.00,0.00,157.50,0.00,135.00,200.00,0.00,0.00,0.00,105.00,0.00,300.00,0.00,0.00,4873.00,731.00,5603.00,100.00,,,
102,38988423,6E 628,BOM,HYD,CONSOL,INDEX LOGISTIC  PVT LTD,01/04/2017,PP,gcr,CONSOL,12,162.0,162.000,18.00,2916.00,200.00,0.00,0.00,0.00,0.00,145.80,178.20,243.00,0.00,0.00,200.00,0.00,0.00,0.00,162.00,0.00,300.00,0.00,0.00,4345.00,652.00,4997.00,146.00,,,
103,38988445,6E 363,BOM,CJB,CONSOL,INDEX LOGISTIC  PVT LTD,02/04/2017,PP,gcr,CONSOL,23,252.0,252.000,35.00,8820.00,200.00,0.00,0.00,0.00,0.00,226.80,0.00,378.00,0.00,0.00,200.00,0.00,0.00,0.00,252.00,0.00,300.00,0.00,0.00,10377.00,1557.00,11933.00,227.00,,,
104,36820873,6E 591,BDQ,CCU,CONSOL,INDEX LOGISTIC  PVT LTD,31/03/2017,PP,gcr,CONSOL,21,243.0,243.000,35.00,8505.00,200.00,0.00,0.00,0.00,0.00,0.00,0.00,0.00,0.00,225.99,200.00,0.00,0.00,0.00,243.00,0.00,300.00,0.00,0.00,9674.00,1451.00,11125.00,0.00,,,
105,36820895,6E 211,BDQ,BBI,CONSOL,INDEX LOGISTIC  PVT LTD,31/03/2017,PP,gcr,CONSOL,9,120.0,120.000,36.00,4320.00,200.00,0.00,0.00,0.00,0.00,0.00,0.00,0.00,0.00,116.00,200.00,0.00,0.00,0.00,120.00,0.00,300.00,0.00,0.00,5256.00,788.00,6044.00,0.00,,,
106,36820884,6E 6325,BDQ,IXR,CONSOL,INDEX LOGISTIC  PVT LTD,31/03/2017,PP,gcr,CONSOL,4,56.0,56.000,50.00,2800.00,200.00,0.00,0.00,0.00,0.00,0.00,0.00,0.00,0.00,116.00,200.00,0.00,0.00,0.00,56.00,0.00,300.00,0.00,0.00,3672.00,551.00,4223.00,0.00,,,
107,36820910,6E 591,BDQ,CCU,CONSOL,INDEX LOGISTIC  PVT LTD,01/04/2017,PP,gcr,CONSOL,7,108.0,108.000,35.00,3780.00,200.00,0.00,0.00,0.00,0.00,0.00,0.00,0.00,0.00,135.00,200.00,0.00,0.00,0.00,108.00,0.00,300.00,0.00,0.00,4723.00,708.00,5431.00,0.00,,,
108,36820906,6E 692,BDQ,PAT,CONSOL,INDEX LOGISTIC  PVT LTD,01/04/2017,PP,gcr,CONSOL,10,132.0,132.000,38.00,5016.00,200.00,0.00,0.00,0.00,0.00,0.00,0.00,0.00,0.00,0.00,200.00,0.00,0.00,0.00,132.00,0.00,300.00,0.00,0.00,5848.00,877.00,6725.00,0.00,,,
109,36820921,6E 6325,BDQ,IXR,CONSOL,INDEX LOGISTIC  PVT LTD,01/04/2017,PP,gcr,CONSOL,4,53.0,53.000,50.00,2650.00,200.00,0.00,0.00,0.00,0.00,0.00,0.00,0.00,0.00,116.00,200.00,0.00,0.00,0.00,53.00,0.00,300.00,0.00,0.00,3519.00,528.00,4047.00,0.00,,,
110,36820932,6E 211,BDQ,BBI,CONSOL,INDEX LOGISTIC  PVT LTD,01/04/2017,PP,gcr,CONSOL,5,77.0,77.000,45.00,3465.00,200.00,0.00,0.00,0.00,0.00,0.00,0.00,0.00,0.00,116.00,200.00,0.00,0.00,0.00,77.00,0.00,300.00,0.00,0.00,4358.00,654.00,5012.00,0.00,,,
111,36820744,6E 3591,BDQ,PAT,CONSOL,INDEX LOGISTIC  PVT LTD,28/03/2017,PP,gcr,CONSOL,7,95.0,95.000,48.00,4560.00,200.00,0.00,0.00,0.00,0.00,0.00,0.00,0.00,0.00,0.00,200.00,0.00,0.00,0.00,95.00,0.00,300.00,0.00,0.00,5355.00,803.00,6158.00,0.00,,,
112,36820755,6E 591,BDQ,CCU,CONSOL,INDEX LOGISTIC  PVT LTD,28/03/2017,PP,gcr,CONSOL,16,232.0,232.000,35.00,8120.00,200.00,0.00,0.00,0.00,0.00,0.00,0.00,0.00,0.00,215.76,200.00,0.00,0.00,0.00,232.00,0.00,300.00,0.00,0.00,9268.00,1390.00,10658.00,0.00,,,
113,36820766,6E 421,BDQ,IXR,CONSOL,INDEX LOGISTIC  PVT LTD,28/03/2017,PP,gcr,CONSOL,8,127.0,127.000,40.00,5080.00,200.00,0.00,0.00,0.00,0.00,0.00,0.00,0.00,0.00,116.00,200.00,0.00,0.00,0.00,127.00,0.00,300.00,0.00,0.00,6023.00,903.00,6926.00,0.00,,,
114,36820770,6E 211,BDQ,BBI,CONSOL,INDEX LOGISTIC  PVT LTD,28/03/2017,PP,gcr,CONSOL,5,78.0,78.000,45.00,3510.00,200.00,0.00,0.00,0.00,0.00,0.00,0.00,0.00,0.00,116.00,200.00,0.00,0.00,0.00,78.00,0.00,300.00,0.00,0.00,4404.00,661.00,5065.00,0.00,,,
115,36820781,6E 339,BDQ,PAT,CONSOL,INDEX LOGISTIC  PVT LTD,29/03/2017,PP,gcr,CONSOL,10,127.0,127.000,38.00,4826.00,200.00,0.00,0.00,0.00,0.00,0.00,0.00,0.00,0.00,0.00,200.00,0.00,0.00,0.00,127.00,0.00,300.00,0.00,0.00,5653.00,848.00,6501.00,0.00,,,
116,36820836,6E 211,BDQ,BBI,CONSOL,INDEX LOGISTIC  PVT LTD,30/03/2017,PP,gcr,CONSOL,11,129.0,129.000,36.00,4644.00,200.00,0.00,0.00,0.00,0.00,0.00,0.00,0.00,0.00,116.00,200.00,0.00,0.00,0.00,129.00,0.00,300.00,0.00,0.00,5589.00,838.00,6427.00,0.00,,,
117,36820825,6E 5126,BDQ,PAT,CONSOL,INDEX LOGISTIC  PVT LTD,30/03/2017,PP,gcr,CONSOL,10,142.0,142.000,38.00,5396.00,200.00,0.00,0.00,0.00,0.00,0.00,0.00,0.00,0.00,0.00,200.00,0.00,0.00,0.00,142.00,0.00,300.00,0.00,0.00,6238.00,936.00,7174.00,0.00,,,
118,36820803,6E 421,BDQ,IXR,CONSOL,INDEX LOGISTIC  PVT LTD,29/03/2017,PP,gcr,CONSOL,5,63.0,63.000,50.00,3150.00,200.00,0.00,0.00,0.00,0.00,0.00,0.00,0.00,0.00,116.00,200.00,0.00,0.00,0.00,63.00,0.00,300.00,0.00,0.00,4029.00,604.00,4633.00,0.00,,,
119,36820851,6E 591,BDQ,CCU,CONSOL,INDEX LOGISTIC  PVT LTD,30/03/2017,PP,gcr,CONSOL,13,136.0,136.000,35.00,4760.00,200.00,0.00,0.00,0.00,0.00,0.00,0.00,0.00,0.00,135.00,200.00,0.00,0.00,0.00,136.00,0.00,300.00,0.00,0.00,5731.00,860.00,6591.00,0.00,,,
120,36820862,6E 692,BDQ,PAT,CONSOL,INDEX LOGISTIC  PVT LTD,31/03/2017,PP,gcr,CONSOL,10,126.0,126.000,38.00,4788.00,200.00,0.00,0.00,0.00,0.00,0.00,0.00,0.00,0.00,0.00,200.00,0.00,0.00,0.00,126.00,0.00,300.00,0.00,0.00,5614.00,842.00,6456.00,0.00,,,
121,36820954,6E 3591,BDQ,PAT,CONSOL,INDEX LOGISTIC  PVT LTD,02/04/2017,PP,gcr,CONSOL,14,193.0,193.000,38.00,7334.00,200.00,0.00,0.00,0.00,0.00,0.00,0.00,0.00,0.00,0.00,200.00,0.00,0.00,0.00,193.00,0.00,300.00,0.00,0.00,8227.00,1234.00,9461.00,0.00,,,
122,36820840,6E 509,BDQ,IXR,CONSOL,INDEX LOGISTIC  PVT LTD,30/03/2017,PP,gcr,CONSOL,7,74.0,74.000,50.00,3700.00,200.00,0.00,0.00,0.00,0.00,0.00,0.00,0.00,0.00,116.00,200.00,0.00,0.00,0.00,74.00,0.00,300.00,0.00,0.00,4590.00,689.00,5279.00,0.00,,,
123,36820792,6E 437,BDQ,BBI,CONSOL,INDEX LOGISTIC  PVT LTD,29/03/2017,PP,gcr,CONSOL,8,100.0,100.000,36.00,3600.00,200.00,0.00,0.00,0.00,0.00,0.00,0.00,0.00,0.00,116.00,200.00,0.00,0.00,0.00,100.00,0.00,300.00,0.00,0.00,4516.00,677.00,5193.00,0.00,,,
124,36820814,6E 333,BDQ,CCU,CONSOL,INDEX LOGISTIC  PVT LTD,29/03/2017,PP,gcr,CONSOL,7,91.0,91.000,44.00,4004.00,200.00,0.00,0.00,0.00,0.00,0.00,0.00,0.00,0.00,135.00,200.00,0.00,0.00,0.00,91.00,0.00,300.00,0.00,0.00,4930.00,740.00,5670.00,0.00,,,
125,36820965,6E 591,BDQ,CCU,CONSOL,INDEX LOGISTIC  PVT LTD,02/04/2017,PP,gcr,CONSOL,11,168.0,168.000,35.00,5880.00,200.00,0.00,0.00,0.00,0.00,0.00,0.00,0.00,0.00,156.24,200.00,0.00,0.00,0.00,168.00,0.00,300.00,0.00,0.00,6904.00,1036.00,7940.00,0.00,,,
126,38936225,6E 226,LKO,BLR,CONSOL,INDEX LOGISTIC  PVT LTD,31/03/2017,PP,gcr,CONSOL,22,84.0,100.000,34.00,3400.00,200.00,0.00,0.00,0.00,0.00,0.00,110.00,100.00,0.00,110.00,200.00,0.00,0.00,0.00,100.00,0.00,300.00,0.00,0.00,4520.00,678.00,5198.00,0.00,,,
127,38557315,6E 293,CCU,BOM,CONSOL,AD North East Air Cargo Pvt. Ltd.,31/03/2017,PP,gcr,CONSOL,25,226.0,290.000,35.00,10150.00,200.00,0.00,0.00,0.00,0.00,0.00,261.00,0.00,0.00,0.00,200.00,0.00,0.00,0.00,269.70,290.00,300.00,0.00,0.00,11671.00,1751.00,13421.00,270.00,,,
128,39068444,6E 273,DEL,BLR,CONSOL,INDEX LOGISTIC  PVT LTD,03/04/2017,PP,gcr,CONSOL,30,187.0,355.000,40.00,14200.00,200.00,0.00,0.00,0.00,0.00,355.00,391.00,675.00,0.00,0.00,200.00,0.00,0.00,0.00,0.00,355.00,355.00,0.00,0.00,16731.00,2510.00,19241.00,302.00,,,
129,38555801,6E 293,CCU,BOM,CONSOL,AD North East Air Cargo Pvt. Ltd.,24/03/2017,PP,gcr,CONSOL,18,204.0,258.500,35.00,9048.00,200.00,0.00,0.00,0.00,0.00,0.00,233.00,0.00,0.00,0.00,200.00,0.00,0.00,0.00,258.00,240.41,300.00,0.00,0.00,10479.00,1572.00,12051.00,240.00,,,
130,40174000,6E 271,CCU,MAA,CONSOL,CAREX CARGO EXPRESS PVT LTD,23/03/2017,PP,gcr,CONSOL,11,72.0,72.000,0.00,0.00,0.00,0.00,0.00,0.00,0.00,0.00,0.00,0.00,0.00,0.00,0.00,0.00,0.00,0.00,0.00,0.00,0.00,0.00,0.00,0.00,0.00,0.00,0.00,,,
131,36820980,6E 211,BDQ,BBI,CONSOL,INDEX LOGISTIC  PVT LTD,02/04/2017,PP,gcr,CONSOL,7,123.0,123.000,36.00,4428.00,200.00,0.00,0.00,0.00,0.00,0.00,0.00,0.00,0.00,116.00,200.00,0.00,0.00,0.00,123.00,0.00,300.00,0.00,0.00,5367.00,805.00,6172.00,0.00,,,
132,36820976,6E 3591,BDQ,IXR,CONSOL,INDEX LOGISTIC  PVT LTD,02/04/2017,PP,gcr,CONSOL,4,56.0,56.000,50.00,2800.00,200.00,0.00,0.00,0.00,0.00,0.00,0.00,0.00,0.00,116.00,200.00,0.00,0.00,0.00,56.00,0.00,300.00,0.00,0.00,3672.00,551.00,4223.00,0.00,,,
133,38936310,6E 226,LKO,BLR,CONSOL,INDEX LOGISTIC  PVT LTD,03/04/2017,PP,gcr,CONSOL,26,187.0,187.000,34.00,6358.00,200.00,0.00,0.00,0.00,0.00,0.00,205.70,140.25,0.00,140.25,200.00,0.00,0.00,0.00,187.00,0.00,300.00,0.00,0.00,7731.00,1160.00,8891.00,0.00,,,
134,38936251,6E 226,LKO,BLR,CONSOL,INDEX LOGISTIC  PVT LTD,01/04/2017,PP,gcr,CONSOL,19,118.0,118.000,34.00,4012.00,200.00,0.00,0.00,0.00,0.00,0.00,129.80,100.00,0.00,110.00,200.00,0.00,0.00,0.00,118.00,0.00,300.00,0.00,0.00,5170.00,775.00,5945.00,0.00,,,
135,38936284,6E 226,LKO,BLR,CONSOL,INDEX LOGISTIC  PVT LTD,02/04/2017,PP,gcr,CONSOL,27,158.0,158.000,34.00,5372.00,200.00,0.00,0.00,0.00,0.00,0.00,173.80,118.50,0.00,118.50,200.00,0.00,0.00,0.00,158.00,0.00,300.00,0.00,0.00,6641.00,996.00,7637.00,0.00,,,
136,39156655,6E 958,AMD,BOM,CONSOL,INDEX LOGISTIC  PVT LTD,04/04/2017,PP,gcr,CONSOL,50,722.0,722.000,26.00,18772.00,200.00,0.00,0.00,0.00,0.00,621.00,650.00,0.00,1444.00,0.00,200.00,0.00,0.00,0.00,722.00,0.00,722.00,0.00,0.00,23331.00,3500.00,26831.00,520.00,,,
137,38558100,6E 293,CCU,BOM,CONSOL,AD North East Air Cargo Pvt. Ltd.,04/04/2017,PP,gcr,CONSOL,23,253.0,308.500,35.00,10798.00,200.00,0.00,0.00,0.00,0.00,0.00,278.00,0.00,0.00,0.00,200.00,0.00,0.00,0.00,308.50,286.00,309.00,0.00,0.00,12380.00,1857.00,14236.00,287.00,,,
138,38557525,6E 293,CCU,BOM,CONSOL,AD North East Air Cargo Pvt. Ltd.,01/04/2017,PP,gcr,CONSOL,23,324.0,457.000,35.00,15995.00,200.00,0.00,0.00,0.00,0.00,0.00,411.00,0.00,0.00,0.00,200.00,0.00,0.00,0.00,457.00,425.00,457.00,0.00,0.00,18145.00,2722.00,20867.00,425.00,,,
139,37023442,6E 218,JAI,BOM,CONSOL,INDEX LOGISTIC  PVT LTD,28/03/2017,PP,gcr,CONSOL,15,204.0,204.000,38.00,7752.00,200.00,0.00,0.00,0.00,0.00,0.00,183.60,153.00,0.00,153.00,200.00,0.00,0.00,0.00,204.00,0.00,300.00,0.00,0.00,9146.00,1372.00,10517.00,0.00,,,
140,39068234,6E 273,DEL,BLR,CONSOL,INDEX LOGISTIC  PVT LTD,04/04/2017,PP,gcr,CONSOL,38,248.0,407.000,40.00,16280.00,200.00,0.00,0.00,0.00,0.00,407.00,448.00,773.00,0.00,0.00,200.00,0.00,0.00,0.00,407.00,0.00,407.00,0.00,0.00,19122.00,2868.00,21990.00,346.00,,,
141,38557724,6E 293,CCU,BOM,CONSOL,AD North East Air Cargo Pvt. Ltd.,02/04/2017,PP,gcr,CONSOL,31,491.0,620.000,35.00,21700.00,200.00,0.00,0.00,0.00,0.00,0.00,558.00,0.00,0.00,0.00,200.00,0.00,0.00,0.00,576.60,620.00,620.00,0.00,0.00,24475.00,3671.00,28146.00,577.00,,,
142,37023604,6E 218,JAI,BOM,CONSOL,INDEX LOGISTIC  PVT LTD,01/04/2017,PP,gcr,CONSOL,18,226.0,226.000,38.00,8588.00,200.00,0.00,0.00,0.00,0.00,0.00,203.40,169.50,0.00,169.50,200.00,0.00,0.00,0.00,226.00,0.00,300.00,0.00,0.00,10056.00,1508.00,11565.00,0.00,,,
143,37023523,6E 218,JAI,BOM,CONSOL,INDEX LOGISTIC  PVT LTD,30/03/2017,PP,gcr,CONSOL,16,233.0,233.000,38.00,8854.00,200.00,0.00,0.00,0.00,0.00,0.00,209.70,174.75,0.00,174.75,200.00,0.00,0.00,0.00,233.00,0.00,300.00,0.00,0.00,10346.00,1552.00,11898.00,0.00,,,
144,37023486,6E 218,JAI,BOM,CONSOL,INDEX LOGISTIC  PVT LTD,28/03/2017,PP,gcr,CONSOL,17,235.0,235.000,38.00,8930.00,200.00,0.00,0.00,0.00,0.00,0.00,211.50,176.25,0.00,176.25,200.00,0.00,0.00,0.00,235.00,0.00,300.00,0.00,0.00,10429.00,1564.00,11993.00,0.00,,,
145,39156784,6E 958,AMD,BOM,CONSOL,INDEX LOGISTIC  PVT LTD,05/04/2017,PP,gcr,CONSOL,34,382.0,382.000,26.00,9932.00,200.00,0.00,0.00,0.00,0.00,329.00,344.00,0.00,764.00,0.00,200.00,0.00,0.00,0.00,382.00,0.00,382.00,0.00,0.00,12533.00,1880.00,14413.00,275.00,,,
146,37023383,6E 218,JAI,BOM,CONSOL,INDEX LOGISTIC  PVT LTD,26/03/2017,PP,gcr,CONSOL,28,362.0,420.000,38.00,15960.00,200.00,0.00,0.00,0.00,0.00,0.00,378.00,315.00,0.00,315.00,200.00,0.00,0.00,0.00,420.00,0.00,420.00,0.00,0.00,18208.00,2731.00,20939.00,0.00,,,
147,37023346,6E 218,JAI,BOM,CONSOL,INDEX LOGISTIC  PVT LTD,25/03/2017,PP,gcr,CONSOL,22,294.0,312.000,38.00,11856.00,200.00,0.00,0.00,0.00,0.00,0.00,280.80,234.00,0.00,234.00,200.00,0.00,0.00,0.00,312.00,0.00,312.00,0.00,0.00,13629.00,2044.00,15673.00,0.00,,,
148,37023302,6E 218,JAI,BOM,CONSOL,INDEX LOGISTIC  PVT LTD,24/03/2017,PP,gcr,CONSOL,18,251.0,251.000,38.00,9538.00,200.00,0.00,0.00,0.00,0.00,0.00,225.90,188.25,0.00,188.25,200.00,0.00,0.00,0.00,251.00,0.00,300.00,0.00,0.00,11091.00,1664.00,12755.00,0.00,,,
149,38680095,6E 235,HYD,BOM,CONSOL,INDEX LOGISTIC  PVT LTD,01/04/2017,PP,gcr,CONSOL,18,255.0,255.000,25.00,6375.00,200.00,0.00,0.00,0.00,0.00,281.00,230.00,421.00,0.00,0.00,200.00,0.00,0.00,0.00,0.00,0.00,300.00,0.00,0.00,8007.00,1201.00,9208.00,166.00,,,
150,38988740,6E 5153,BOM,CCU,CONSOL,INDEX LOGISTIC  PVT LTD,05/04/2017,PP,gcr,CONSOL,38,325.0,380.000,35.00,13300.00,200.00,0.00,0.00,0.00,0.00,342.00,0.00,570.00,0.00,353.40,200.00,0.00,0.00,0.00,380.00,0.00,380.00,0.00,0.00,15725.00,2359.00,18084.00,342.00,,,
151,38558380,6E 293,CCU,BOM,CONSOL,AD North East Air Cargo Pvt. Ltd.,05/04/2017,PP,gcr,CONSOL,23,290.0,345.000,35.00,12075.00,200.00,0.00,0.00,0.00,0.00,0.00,311.00,0.00,0.00,0.00,200.00,0.00,0.00,0.00,345.00,320.85,345.00,0.00,0.00,13797.00,2070.00,15866.00,321.00,,,
152,40126000,6E 271,CCU,MAA,CONSOL,CAREX CARGO EXPRESS PVT LTD,21/03/2017,PP,gcr,CONSOL,5,42.0,42.000,0.00,0.00,0.00,0.00,0.00,0.00,0.00,0.00,0.00,0.00,0.00,0.00,0.00,0.00,0.00,0.00,0.00,0.00,0.00,0.00,0.00,0.00,0.00,0.00,0.00,,,
153,32010000,6E 139 ,CCU,IXA,CONSOL,AD North East Air Cargo Pvt. Ltd.,24/03/2017,PP,gcr,CONSOL,5,38.0,38.000,0.00,0.00,0.00,0.00,0.00,0.00,0.00,0.00,0.00,0.00,0.00,0.00,0.00,0.00,0.00,0.00,0.00,0.00,0.00,0.00,0.00,0.00,0.00,0.00,0.00,,,
154,39156876,6E 958,AMD,BOM,CONSOL,INDEX LOGISTIC  PVT LTD,06/04/2017,PP,gcr,CONSOL,50,587.0,587.000,26.00,15262.00,200.00,0.00,0.00,0.00,0.00,505.00,528.00,0.00,1174.00,0.00,200.00,0.00,0.00,0.00,587.00,0.00,587.00,0.00,0.00,19043.00,2856.00,21899.00,423.00,,,
155,38571982,6E 207,CCU,GAU,CONSOL,INDEX LOGISTIC  PVT LTD,06/04/2017,PP,gcr,CONSOL,35,369.0,488.500,40.00,19540.00,200.00,0.00,0.00,0.00,0.00,0.00,0.00,0.00,0.00,0.00,200.00,0.00,0.00,0.00,488.50,454.31,489.00,0.00,0.00,21372.00,3206.00,24578.00,454.00,,,
156,38572004,6E 358,CCU,IMF,CONSOL,INDEX LOGISTIC  PVT LTD,06/04/2017,PP,gcr,CONSOL,15,117.0,153.500,45.00,6907.50,200.00,0.00,0.00,0.00,0.00,0.00,0.00,0.00,0.00,0.00,200.00,0.00,0.00,0.00,153.50,3212.76,300.00,0.00,0.00,10974.00,1646.00,12620.00,143.00,,,
157,38571993,6E 139 ,CCU,IXA,CONSOL,INDEX LOGISTIC  PVT LTD,06/04/2017,PP,gcr,CONSOL,18,140.0,183.500,58.00,10643.00,200.00,0.00,0.00,0.00,0.00,0.00,0.00,0.00,0.00,0.00,200.00,0.00,0.00,0.00,183.50,170.66,300.00,0.00,0.00,11697.00,1755.00,13452.00,171.00,,,
158,38571960,6E 271,CCU,MAA,CONSOL,INDEX LOGISTIC  PVT LTD,06/04/2017,PP,gcr,CONSOL,19,138.0,165.000,35.00,5775.00,200.00,0.00,0.00,0.00,0.00,0.00,0.00,0.00,0.00,0.00,200.00,0.00,0.00,0.00,165.00,485.10,300.00,0.00,0.00,7125.00,1069.00,8194.00,153.00,,,
159,38571971,6E 348,CCU,HYD,CONSOL,INDEX LOGISTIC  PVT LTD,06/04/2017,PP,gcr,CONSOL,36,267.0,345.000,30.00,10350.00,200.00,0.00,0.00,0.00,0.00,0.00,380.00,0.00,0.00,0.00,200.00,0.00,0.00,0.00,345.00,320.85,345.00,0.00,0.00,12141.00,1821.00,13962.00,321.00,,,
160,38558656,6E 293,CCU,BOM,CONSOL,AD North East Air Cargo Pvt. Ltd.,06/04/2017,PP,gcr,CONSOL,30,290.0,405.000,35.00,14175.00,200.00,0.00,0.00,0.00,0.00,0.00,365.00,0.00,0.00,0.00,200.00,0.00,0.00,0.00,405.00,376.65,405.00,0.00,0.00,16127.00,2419.00,18546.00,377.00,,,
161,38571956,6E 271,CCU,BLR,CONSOL,INDEX LOGISTIC  PVT LTD,06/04/2017,PP,gcr,CONSOL,31,182.0,293.500,31.00,9099.00,200.00,0.00,0.00,0.00,0.00,0.00,323.00,0.00,0.00,0.00,200.00,0.00,0.00,0.00,293.50,272.96,300.00,0.00,0.00,10688.00,1603.00,12292.00,273.00,,,
162,39156950,6E 958,AMD,BOM,CONSOL,INDEX LOGISTIC  PVT LTD,07/04/2017,PP,gcr,CONSOL,33,304.0,304.000,26.00,7904.00,200.00,0.00,0.00,0.00,0.00,261.00,274.00,0.00,608.00,0.00,200.00,0.00,0.00,0.00,304.00,0.00,304.00,0.00,0.00,10055.00,1508.00,11563.00,219.00,,,
163,36820991,6E 692,BDQ,PAT,CONSOL,INDEX LOGISTIC  PVT LTD,04/04/2017,PP,gcr,CONSOL,11,165.0,165.000,38.00,6270.00,200.00,0.00,0.00,0.00,0.00,0.00,0.00,0.00,0.00,0.00,200.00,0.00,0.00,0.00,165.00,0.00,300.00,0.00,0.00,7135.00,1070.00,8205.00,0.00,,,
164,38611860,6E 293,CCU,BOM,CONSOL,AD North East Air Cargo Pvt. Ltd.,07/04/2017,PP,gcr,CONSOL,19,274.0,328.500,35.00,11498.00,200.00,0.00,0.00,0.00,0.00,0.00,296.00,0.00,0.00,0.00,200.00,0.00,0.00,0.00,328.50,305.00,329.00,0.00,0.00,13157.00,1973.00,15130.00,306.00,,,
165,36821002,6E 6325,BDQ,IXR,CONSOL,INDEX LOGISTIC  PVT LTD,04/04/2017,PP,gcr,CONSOL,3,49.0,49.000,50.00,2450.00,200.00,0.00,0.00,0.00,0.00,0.00,0.00,0.00,0.00,116.00,200.00,0.00,0.00,0.00,49.00,0.00,300.00,0.00,0.00,3315.00,497.00,3812.00,0.00,,,
166,36821013,6E 211,BDQ,BBI,CONSOL,INDEX LOGISTIC  PVT LTD,04/04/2017,PP,gcr,CONSOL,6,106.0,106.000,36.00,3816.00,200.00,0.00,0.00,0.00,0.00,0.00,0.00,0.00,0.00,116.00,200.00,0.00,0.00,0.00,106.00,0.00,300.00,0.00,0.00,4738.00,711.00,5449.00,0.00,,,
167,36821035,6E 692,BDQ,PAT,CONSOL,INDEX LOGISTIC  PVT LTD,05/04/2017,PP,gcr,CONSOL,12,180.0,180.000,38.00,6840.00,200.00,0.00,0.00,0.00,0.00,0.00,0.00,0.00,0.00,0.00,200.00,0.00,0.00,0.00,180.00,0.00,300.00,0.00,0.00,7720.00,1158.00,8878.00,0.00,,,
168,36821046,6E 421,BDQ,IXR,CONSOL,INDEX LOGISTIC  PVT LTD,05/04/2017,PP,gcr,CONSOL,6,100.0,100.000,40.00,4000.00,200.00,0.00,0.00,0.00,0.00,0.00,0.00,0.00,0.00,116.00,200.00,0.00,0.00,0.00,100.00,0.00,300.00,0.00,0.00,4916.00,737.00,5653.00,0.00,,,
169,38612162,6E 293,CCU,BOM,CONSOL,AD North East Air Cargo Pvt. Ltd.,08/04/2017,PP,gcr,CONSOL,27,435.0,520.000,35.00,18200.00,200.00,0.00,0.00,0.00,0.00,0.00,468.00,0.00,0.00,0.00,200.00,0.00,0.00,0.00,520.00,483.60,520.00,0.00,0.00,20592.00,3089.00,23680.00,484.00,,,
170,36821050,6E 211,BDQ,BBI,CONSOL,INDEX LOGISTIC  PVT LTD,05/04/2017,PP,gcr,CONSOL,7,129.0,129.000,36.00,4644.00,200.00,0.00,0.00,0.00,0.00,0.00,0.00,0.00,0.00,116.00,200.00,0.00,0.00,0.00,129.00,0.00,300.00,0.00,0.00,5589.00,838.00,6427.00,0.00,,,
171,38572063,6E 271,CCU,MAA,CONSOL,INDEX LOGISTIC  PVT LTD,08/04/2017,PP,gcr,CONSOL,17,158.0,158.000,35.00,5530.00,200.00,0.00,0.00,0.00,0.00,0.00,0.00,0.00,0.00,0.00,200.00,0.00,0.00,0.00,158.00,464.52,300.00,0.00,0.00,6853.00,1028.00,7880.00,147.00,,,
172,36821061,6E 591,BDQ,CCU,CONSOL,INDEX LOGISTIC  PVT LTD,05/04/2017,PP,gcr,CONSOL,8,147.0,147.000,35.00,5145.00,200.00,0.00,0.00,0.00,0.00,0.00,0.00,0.00,0.00,136.71,200.00,0.00,0.00,0.00,147.00,0.00,300.00,0.00,0.00,6129.00,919.00,7048.00,0.00,,,
173,36821072,6E 692,BDQ,PAT,CONSOL,INDEX LOGISTIC  PVT LTD,06/04/2017,PP,gcr,CONSOL,14,235.0,235.000,38.00,8930.00,200.00,0.00,0.00,0.00,0.00,0.00,0.00,0.00,0.00,0.00,200.00,0.00,0.00,0.00,235.00,0.00,300.00,0.00,0.00,9865.00,1480.00,11345.00,0.00,,,
174,36821094,6E 6325,BDQ,IXR,CONSOL,INDEX LOGISTIC  PVT LTD,06/04/2017,PP,gcr,CONSOL,2,35.0,35.000,63.00,2205.00,200.00,0.00,0.00,0.00,0.00,0.00,0.00,0.00,0.00,116.00,200.00,0.00,0.00,0.00,35.00,0.00,300.00,0.00,0.00,3056.00,458.00,3514.00,0.00,,,
175,39157053,6E 958,AMD,BOM,CONSOL,INDEX LOGISTIC  PVT LTD,08/04/2017,PP,gcr,CONSOL,46,553.0,553.000,26.00,14378.00,200.00,0.00,0.00,0.00,0.00,476.00,498.00,0.00,1106.00,0.00,200.00,0.00,0.00,0.00,553.00,0.00,553.00,0.00,0.00,17964.00,2695.00,20659.00,398.00,,,
176,36821024,6E 921,BDQ,CCU,CONSOL,INDEX LOGISTIC  PVT LTD,04/04/2017,PP,gcr,CONSOL,9,109.0,109.000,35.00,3815.00,200.00,0.00,0.00,0.00,0.00,0.00,0.00,0.00,0.00,135.00,200.00,0.00,0.00,0.00,109.00,0.00,300.00,0.00,0.00,4759.00,714.00,5473.00,0.00,,,
177,36821083,6E 921,BDQ,CCU,CONSOL,INDEX LOGISTIC  PVT LTD,06/04/2017,PP,gcr,CONSOL,7,101.0,101.000,35.00,3535.00,200.00,0.00,0.00,0.00,0.00,0.00,0.00,0.00,0.00,135.00,200.00,0.00,0.00,0.00,101.00,0.00,300.00,0.00,0.00,4471.00,671.00,5142.00,0.00,,,
178,39068411,6E 6929,DEL,BLR,CONSOL,INDEX LOGISTIC  PVT LTD,08/04/2017,PP,gcr,CONSOL,7,288.0,288.000,40.00,11520.00,0.00,0.00,0.00,0.00,0.00,288.00,317.00,547.00,0.00,0.00,200.00,0.00,0.00,0.00,0.00,288.00,300.00,0.00,200.00,13660.00,2049.00,15709.00,245.00,,,
179,38936332,6e 226,LKO,BLR,CONSOL,INDEX LOGISTIC  PVT LTD,04/04/2017,PP,gcr,CONSOL,6,32.0,32.000,56.00,1792.00,200.00,0.00,0.00,0.00,0.00,0.00,35.20,100.00,0.00,110.00,200.00,0.00,0.00,0.00,32.00,0.00,300.00,0.00,0.00,2769.00,415.00,3185.00,0.00,,,
180,38888662,6E 713,BLR,CCU,CONSOL,INDEX LOGISTIC  PVT LTD,09/04/2017,PP,gcr,ELECTRONIC GOODS,22,173.0,185.000,50.00,9250.00,200.00,0.00,0.00,0.00,0.00,204.00,172.00,352.00,0.00,0.00,200.00,0.00,0.00,0.00,185.00,0.00,300.00,0.00,0.00,10863.00,1629.00,12492.00,133.00,,,
181,38936365,6e 226,LKO,BLR,CONSOL,INDEX LOGISTIC  PVT LTD,05/04/2017,PP,gcr,CONSOL,36,197.0,197.000,34.00,6698.00,200.00,0.00,0.00,0.00,0.00,0.00,216.70,147.75,0.00,147.75,200.00,0.00,0.00,0.00,197.00,0.00,300.00,0.00,0.00,8107.00,1216.00,9323.00,0.00,,,
182,39157204,6E 958,AMD,BOM,CONSOL,INDEX LOGISTIC  PVT LTD,09/04/2017,PP,gcr,CONSOL,46,622.0,622.000,26.00,16172.00,200.00,0.00,0.00,0.00,0.00,535.00,560.00,0.00,1244.00,0.00,200.00,0.00,0.00,0.00,622.00,0.00,622.00,0.00,0.00,20155.00,3023.00,23178.00,448.00,,,
,,,,,,,,,,,,,,,,,,,,,,,,,,,,,,,,,,,,,,,,,
,,,,,,,,,,,,,,,,,,,,,,,,,,,,,,,,,,,,,,,,,
