ORG,DEST,AIRLINE,FLT NO,eff date,,Type,MIN,N Rate,45,100,300,500,1000,SECTOR SURCHARGE,FLIGHT SURCHARGE
AMD,HYD,6E,6E 259,,,GCR,1000,47,38,30,30,30,30,,5
AMD,BLR,6E,6E 531,,,GCR,1000,44,35,30,30,30,30,,2
CCU,IMF,6E,,,,GCR,1000,78,63,45,45,45,45,20,
GAU,IMF,6E,,,,GCR,1000,78,63,27,27,27,27,20,
PNQ,BBI,6E,,,,GCR,1000,51,41,33,33,33,33,10,
PNQ,GAU,6E,,,,GCR,1000,70,56,45,45,45,45,10,
AMD,HYD,6E,,,,GCR,1000,47,38,30,30,30,30,2,
AMD,MAA,6E,,,,GCR,1000,48,39,31,31,31,31,2,
CCJ, IXA,6E,,,,GCR,1000,81,65,52,52,52,52,,
CCU, IXA,6E,,,,GCR,1000,89,71,58,58,58,58,,
ATQ,AMD,6E,,,,GCR,1000,59,54,45,45,45,45,,
BBI,AMD,6E,,,,GCR,1000,59,48,38,38,38,38,,
BDQ,AMD,6E,,,,GCR,1000,59,48,38,38,38,38,,
BLR,AMD,6E,,,,GCR,1000,70,55,50,50,50,50,,
BOM,AMD,6E,,,,GCR,1000,47,38,30,30,30,30,,
CCJ,AMD,6E,,,,GCR,1000,55,44,35,35,35,35,,
CCU,AMD,6E,,,,GCR,1000,58,50,40,40,40,40,,
CJB,AMD,6E,,,,GCR,1000,60,49,40,40,40,40,,
COK,AMD,6E,,,,GCR,1000,52,41,33,33,33,33,,
DED,AMD,6E,,,,GCR,1000,63,50,40,40,40,40,,
DEL,AMD,6E,,,,GCR,1000,63,50,40,35,30,27,,
DIB,AMD,6E,,,,GCR,1000,55,44,35,35,35,35,,
DMU,AMD,6E,,,,GCR,1000,100,100,100,100,100,100,,
GAU,AMD,6E,,,,GCR,1000,51,41,33,33,33,33,,
GOI,AMD,6E,,,,GCR,1000,55,44,35,35,35,35,,
HYD,AMD,6E,,,,GCR,1000,47,38,30,30,30,30,,
IDR,AMD,6E,,,,GCR,1000,55,44,35,35,35,35,,
IMF,AMD,6E,,,,GCR,1000,55,44,35,35,35,35,,
IXA,AMD,6E,,,,GCR,1000,55,44,35,35,35,35,,
IXB,AMD,6E,,,,GCR,1000,41,33,26,26,26,26,,
IXC,AMD,6E,,,,GCR,1000,59,54,45,45,45,45,,
IXJ,AMD,6E,,,,GCR,1000,59,48,38,38,38,38,,
IXM,AMD,6E,,,,GCR,1000,47,38,30,30,30,30,,
IXR,AMD,6E,,,,GCR,1000,55,44,35,35,35,35,,
IXZ,AMD,6E,,,,GCR,1000,65,55,45,45,45,45,,
JAI,AMD,6E,,,,GCR,1000,59,48,38,38,38,38,,
LKO,AMD,6E,,,,GCR,1000,59,48,38,38,38,38,,
MAA,AMD,6E,,,,GCR,1000,47,38,30,30,30,30,,
NAG,AMD,6E,,,,GCR,1000,58,46,37,37,37,37,,
PAT,AMD,6E,,,,GCR,1000,55,44,35,35,35,35,,
PNQ,AMD,6E,,,,GCR,1000,51,41,33,33,33,33,,
RPR,AMD,6E,,,,GCR,1000,55,44,35,35,35,35,,
SXR,AMD,6E,,,,GCR,1000,59,48,38,38,38,38,,
TRV,AMD,6E,,,,GCR,1000,55,44,35,35,35,35,,
UDR,AMD,6E,,,,GCR,1000,105,58,35,35,35,35,,
VNS,AMD,6E,,,,GCR,1000,59,48,38,38,38,38,,
VTZ,AMD,6E,,,,GCR,1000,55,44,35,35,35,35,,
AMD,ATQ,6E,,,,GCR,1000,63,50,40,40,40,40,,
BBI,ATQ,6E,,,,GCR,1000,63,50,40,40,40,40,,
BDQ,ATQ,6E,,,,GCR,1000,63,50,40,40,40,40,,
BLR,ATQ,6E,,,,GCR,1000,53,43,34,34,34,34,,
BOM,ATQ,6E,,,,GCR,1000,47,38,30,30,30,30,,
CCJ,ATQ,6E,,,,GCR,1000,55,44,35,35,35,35,,
CCU,ATQ,6E,,,,GCR,1000,55,44,35,35,35,35,,
CJB,ATQ,6E,,,,GCR,1000,59,48,38,38,38,38,,
COK,ATQ,6E,,,,GCR,1000,59,48,38,38,38,38,,
DED,ATQ,6E,,,,GCR,1000,47,38,30,30,30,30,,
DEL,ATQ,6E,,,,GCR,1000,47,38,30,30,30,30,,
DIB,ATQ,6E,,,,GCR,1000,55,44,35,35,35,35,,
DMU,ATQ,6E,,,,GCR,1000,100,100,100,100,100,100,,
GAU,ATQ,6E,,,,GCR,1000,55,44,35,35,35,35,,
GOI,ATQ,6E,,,,GCR,1000,55,44,32,32,32,32,,
HYD,ATQ,6E,,,,GCR,1000,47,38,30,30,30,30,,
IDR,ATQ,6E,,,,GCR,1000,55,44,35,35,35,35,,
IMF,ATQ,6E,,,,GCR,1000,55,44,35,35,35,35,,
IXA,ATQ,6E,,,,GCR,1000,51,41,33,33,33,33,,
IXB,ATQ,6E,,,,GCR,1000,51,41,33,33,33,33,,
IXC,ATQ,6E,,,,GCR,1000,39,31,25,25,25,25,,
IXJ,ATQ,6E,,,,GCR,1000,39,31,25,25,25,25,,
IXM,ATQ,6E,,,,GCR,1000,51,41,33,33,33,33,,
IXR,ATQ,6E,,,,GCR,1000,55,44,35,35,35,35,,
IXZ,ATQ,6E,,,,GCR,1000,65,55,45,45,45,45,,
JAI,ATQ,6E,,,,GCR,1000,39,31,25,25,25,25,,
LKO,ATQ,6E,,,,GCR,1000,55,44,35,35,35,35,,
MAA,ATQ,6E,,,,GCR,1000,51,41,33,33,33,33,,
NAG,ATQ,6E,,,,GCR,1000,51,41,33,33,33,33,,
PAT,ATQ,6E,,,,GCR,1000,55,44,35,35,35,35,,
PNQ,ATQ,6E,,,,GCR,1000,51,41,33,33,33,33,,
RPR,ATQ,6E,,,,GCR,1000,55,44,35,35,35,35,,
SXR,ATQ,6E,,,,GCR,1000,39,31,25,25,25,25,,
TRV,ATQ,6E,,,,GCR,1000,55,44,35,35,35,35,,
UDR,ATQ,6E,,,,GCR,1000,63,50,40,40,40,40,,
VNS,ATQ,6E,,,,GCR,1000,47,38,30,30,30,30,,
VTZ,ATQ,6E,,,,GCR,1000,51,41,33,33,33,33,,
AMD,BBI,6E,,,,GCR,1000,56,45,36,36,36,36,,
ATQ,BBI,6E,,,,GCR,1000,59,54,45,45,45,45,,
BDQ,BBI,6E,,,,GCR,1000,56,45,36,36,36,36,,
BLR,BBI,6E,,,,GCR,1000,70,55,45,45,45,45,,
BOM,BBI,6E,,,,GCR,1000,52,41,33,33,33,33,,
CCJ,BBI,6E,,,,GCR,1000,56,45,36,36,36,36,,
CCU,BBI,6E,,,,GCR,1000,47,38,30,30,30,30,,
CJB,BBI,6E,,,,GCR,1000,55,44,35,35,35,35,,
COK,BBI,6E,,,,GCR,1000,52,41,33,33,33,33,,
DED,BBI,6E,,,,GCR,1000,63,50,40,40,40,40,,
DEL,BBI,6E,,,,GCR,1000,63,50,40,40,40,40,,
DIB,BBI,6E,,,,GCR,1000,56,45,36,36,36,36,,
DMU,BBI,6E,,,,GCR,1000,100,100,100,100,100,100,,
GAU,BBI,6E,,,,GCR,1000,55,44,35,35,35,35,,
GOI,BBI,6E,,,,GCR,1000,55,44,35,35,35,35,,
HYD,BBI,6E,,,,GCR,1000,47,38,32,32,32,32,,
IDR,BBI,6E,,,,GCR,1000,55,44,35,35,35,35,,
IMF,BBI,6E,,,,GCR,1000,55,44,35,35,35,35,,
IXA,BBI,6E,,,,GCR,1000,51,41,33,33,33,33,,
IXB,BBI,6E,,,,GCR,1000,51,41,33,33,33,33,,
IXC,BBI,6E,,,,GCR,1000,59,54,45,45,45,45,,
IXJ,BBI,6E,,,,GCR,1000,59,48,38,38,38,38,,
IXM,BBI,6E,,,,GCR,1000,60,51,42,42,42,42,,
IXR,BBI,6E,,,,GCR,1000,51,41,33,33,33,33,,
IXZ,BBI,6E,,,,GCR,1000,65,55,45,45,45,45,,
JAI,BBI,6E,,,,GCR,1000,59,48,38,38,38,38,,
LKO,BBI,6E,,,,GCR,1000,59,48,38,38,38,38,,
MAA,BBI,6E,,,,GCR,1000,60,51,42,42,42,42,,
NAG,BBI,6E,,,,GCR,1000,51,41,33,33,33,33,,
PAT,BBI,6E,,,,GCR,1000,51,41,33,33,33,33,,
RPR,BBI,6E,,,,GCR,1000,55,44,35,35,35,35,,
SXR,BBI,6E,,,,GCR,1000,59,48,38,38,38,38,,
TRV,BBI,6E,,,,GCR,1000,55,44,35,35,35,35,,
UDR,BBI,6E,,,,GCR,1000,63,50,40,40,40,40,,
VNS,BBI,6E,,,,GCR,1000,59,48,38,38,38,38,,
VTZ,BBI,6E,,,,GCR,1000,53,43,34,34,34,34,,
AMD,BDQ,6E,,,,GCR,1000,59,48,38,38,38,38,,
ATQ,BDQ,6E,,,,GCR,1000,63,50,40,40,40,40,,
BBI,BDQ,6E,,,,GCR,1000,59,48,38,38,38,38,,
BLR,BDQ,6E,,,,GCR,1000,59,48,38,38,38,38,,
BOM,BDQ,6E,,,,GCR,1000,47,38,30,30,30,30,,
CCJ,BDQ,6E,,,,GCR,1000,55,44,35,35,35,35,,
CCU,BDQ,6E,,,,GCR,1000,51,41,33,33,33,33,,
CJB,BDQ,6E,,,,GCR,1000,55,44,35,35,35,35,,
COK,BDQ,6E,,,,GCR,1000,52,41,33,33,33,33,,
DED,BDQ,6E,,,,GCR,1000,66,53,42,42,42,42,,
DEL,BDQ,6E,6E 702,,,GCR,1000,66,53,53,53,53,53,,
DEL,BDQ,6E,,,,GCR,1000,66,53,42,42,42,42,,
DIB,BDQ,6E,,,,GCR,1000,53,43,34,34,34,34,,
DMU,BDQ,6E,,,,GCR,1000,100,100,100,100,100,100,,
GAU,BDQ,6E,,,,GCR,1000,55,44,35,35,35,35,,
GOI,BDQ,6E,,,,GCR,1000,55,44,35,35,35,35,,
HYD,BDQ,6E,,,,GCR,1000,55,44,35,35,35,35,,
IDR,BDQ,6E,,,,GCR,1000,51,41,33,33,33,33,,
IMF,BDQ,6E,,,,GCR,1000,56,45,36,36,36,36,,
IXA,BDQ,6E,,,,GCR,1000,53,43,34,34,34,34,,
IXB,BDQ,6E,,,,GCR,1000,51,41,33,33,33,33,,
IXC,BDQ,6E,,,,GCR,1000,63,50,40,40,40,40,,
IXJ,BDQ,6E,,,,GCR,1000,63,50,40,40,40,40,,
IXM,BDQ,6E,,,,GCR,1000,55,44,35,35,35,35,,
IXR,BDQ,6E,,,,GCR,1000,55,44,35,35,35,35,,
IXZ,BDQ,6E,,,,GCR,1000,65,55,45,45,45,45,,
JAI,BDQ,6E,,,,GCR,1000,63,50,40,40,40,40,,
LKO,BDQ,6E,,,,GCR,1000,63,50,40,40,40,40,,
MAA,BDQ,6E,,,,GCR,1000,55,44,35,35,35,35,,
NAG,BDQ,6E,,,,GCR,1000,51,41,33,33,33,33,,
PAT,BDQ,6E,,,,GCR,1000,51,41,33,33,33,33,,
PNQ,BDQ,6E,,,,GCR,1000,51,41,33,33,33,33,,
RPR,BDQ,6E,,,,GCR,1000,51,41,33,33,33,33,,
SXR,BDQ,6E,,,,GCR,1000,63,50,40,40,40,40,,
TRV,BDQ,6E,,,,GCR,1000,56,45,36,36,36,36,,
UDR,BDQ,6E,,,,GCR,1000,55,44,35,35,35,35,,
VNS,BDQ,6E,,,,GCR,1000,63,50,40,40,40,40,,
VTZ,BDQ,6E,,,,GCR,1000,51,41,33,33,33,33,,
AMD,BLR,6E,,,,GCR,1000,44,35,30,30,30,30,,
ATQ,BLR,6E,,,,GCR,1000,52,41,30,30,30,30,,
BBI,BLR,6E,,,,GCR,1000,42,34,27,27,27,27,,
BDQ,BLR,6E,,,,GCR,1000,44,35,28,28,28,28,,
BOM,BLR,6E,,,,GCR,1000,50,40,32,32,32,32,,
CCJ,BLR,6E,,,,GCR,1000,55,44,35,35,35,35,,
CCU,BLR,6E,,,,GCR,1000,48,39,31,31,31,31,,
CJB,BLR,6E,,,,GCR,1000,52,41,33,33,33,33,,
COK,BLR,6E,,,,GCR,1000,42,34,24,24,24,24,,
DED,BLR,6E,,,,GCR,1000,63,50,36,36,36,36,,
DEL,BLR,6E,6E 133,,,GCR,1000,63,50,45,45,45,45,,
DEL,BLR,6E,6E 458,,,GCR,1000,63,50,45,45,45,45,,
DEL,BLR,6E,6E 6929,,,GCR,1000,63,50,45,45,45,45,,
DEL,BLR,6E,,,,GCR,1000,63,50,45,40,40,40,,
DIB,BLR,6E,,,,GCR,1000,55,44,35,35,35,35,,
DMU,BLR,6E,,,,GCR,1000,100,100,100,100,100,100,,
GAU,BLR,6E,,,,GCR,1000,41,33,26,26,26,26,,
GOI,BLR,6E,6E 617,,,GCR,1000,55,44,40,40,40,40,,
GOI,BLR,6E,,,,GCR,1000,55,44,30,30,30,30,,
HYD,BLR,6E,,,,GCR,1000,42,34,27,27,27,27,,
IDR,BLR,6E,,,,GCR,1000,51,41,33,33,33,33,,
IMF,BLR,6E,,,,GCR,1000,55,44,35,35,35,35,,
IXA,BLR,6E,,,,GCR,1000,51,41,33,33,33,33,,
IXB,BLR,6E,,,,GCR,1000,41,33,26,26,26,26,,
IXC,BLR,6E,,,,GCR,1000,52,41,30,30,30,30,,
IXJ,BLR,6E,,,,GCR,1000,59,48,38,38,38,38,,
IXM,BLR,6E,,,,GCR,1000,44,35,28,28,28,28,,
IXR,BLR,6E,,,,GCR,1000,41,33,21,21,21,21,,
IXZ,BLR,6E,,,,GCR,1000,65,55,45,45,45,45,,
JAI,BLR,6E,,,,GCR,1000,55,44,36,36,36,36,,
LKO,BLR,6E,,,,GCR,1000,56,45,34,34,30,30,,
MAA,BLR,6E,,,,GCR,1000,44,35,28,28,28,28,,
NAG,BLR,6E,,,,GCR,1000,48,39,31,31,31,31,,
PAT,BLR,6E,,,,GCR,1000,48,39,31,31,31,31,,
PNQ,BLR,6E,,,,GCR,1000,42,34,22,22,22,22,,
RPR,BLR,6E,,,,GCR,1000,41,33,26,26,26,26,,
SXR,BLR,6E,,,,GCR,1000,59,48,38,38,38,38,,
TRV,BLR,6E,,,,GCR,1000,51,41,33,33,33,33,,
UDR,BLR,6E,,,,GCR,1000,100,65,45,45,45,45,,
VNS,BLR,6E,,,,GCR,1000,59,48,25,25,25,25,,
VTZ,BLR,6E,,,,GCR,1000,47,38,30,30,30,30,,
AMD,BOM,6E,,,,GCR,1000,45,36,26,26,26,26,,
ATQ,BOM,6E,,,,GCR,1000,44,35,24,24,24,24,,
BBI,BOM,6E,,,,GCR,1000,41,33,26,26,26,26,,
BDQ,BOM,6E,,,,GCR,1000,45,36,29,29,29,29,,
BLR,BOM,6E,,,,GCR,1000,41,33,26,26,26,26,,
CCJ,BOM,6E,,,,GCR,1000,55,44,35,35,35,35,,
CCU,BOM,6E,,,,GCR,1000,55,44,35,35,35,35,,
CJB,BOM,6E,,,,GCR,1000,44,35,28,28,28,28,,
COK,BOM,6E,,,,GCR,1000,42,34,24,24,24,24,,
DED,BOM,6E,,,,GCR,1000,59,48,30,30,30,30,,
DEL,BOM,6E,6E 171,,,GCR,1000,59,48,48,48,48,48,,
DEL,BOM,6E,6E 993,,,GCR,1000,59,48,48,48,48,48,,
DEL,BOM,6E,6E 167,,,GCR,1000,59,48,48,48,48,48,,
DEL,BOM,6E,,,,GCR,1000,59,48,26,26,26,26,,
DIB,BOM,6E,,,,GCR,1000,52,41,33,33,33,33,,
DMU,BOM,6E,,,,GCR,1000,78,63,50,50,50,50,,
GAU,BOM,6E,,,,GCR,1000,41,33,26,26,26,26,,
GOI,BOM,6E,,,,GCR,1000,39,31,20,20,20,20,,
HYD,BOM,6E,,,,GCR,1000,41,33,21,21,21,21,,
IDR,BOM,6E,,,,GCR,1000,51,41,33,33,33,33,,
IMF,BOM,6E,,,,GCR,1000,55,44,35,35,35,35,,
IXA,BOM,6E,,,,GCR,1000,51,41,33,33,33,33,,
IXB,BOM,6E,,,,GCR,1000,41,33,26,26,26,26,,
IXC,BOM,6E,,,,GCR,1000,44,35,24,24,24,24,,
IXJ,BOM,6E,,,,GCR,1000,52,41,33,33,33,33,,
IXM,BOM,6E,,,,GCR,1000,44,35,28,28,28,28,,
IXR,BOM,6E,,,,GCR,1000,41,33,22,22,22,22,,
IXZ,BOM,6E,,,,GCR,1000,65,55,45,45,45,45,,
JAI,BOM,6E,,,,GCR,1000,56,45,38,38,38,38,,
LKO,BOM,6E,,,,GCR,1000,47,38,27,27,27,27,,
MAA,BOM,6E,,,,GCR,1000,44,35,28,28,28,28,,
NAG,BOM,6E,,,,GCR,1000,44,35,26,26,26,26,,
PAT,BOM,6E,,,,GCR,1000,47,38,30,30,30,30,,
PNQ,BOM,6E,,,,GCR,1000,51,41,33,33,33,33,,
RPR,BOM,6E,,,,GCR,1000,41,33,26,26,26,26,,
SXR,BOM,6E,,,,GCR,1000,39,31,25,25,25,25,,
TRV,BOM,6E,,,,GCR,1000,53,43,34,34,34,34,,
UDR,BOM,6E,,,,GCR,1000,80,48,40,40,40,40,,
VNS,BOM,6E,,,,GCR,1000,39,31,25,18,15,15,,
VTZ,BOM,6E,,,,GCR,1000,51,41,33,33,33,33,,
AMD,CCJ,6E,,,,GCR,1000,59,48,38,38,38,38,,
ATQ,CCJ,6E,,,,GCR,1000,59,48,38,38,38,38,,
BBI,CCJ,6E,,,,GCR,1000,63,50,40,40,40,40,,
BDQ,CCJ,6E,,,,GCR,1000,59,48,38,38,38,38,,
BLR,CCJ,6E,,,,GCR,1000,63,50,40,40,40,40,,
BOM,CCJ,6E,,,,GCR,1000,52,41,33,33,33,33,,
CCU,CCJ,6E,,,,GCR,1000,55,44,35,35,35,35,,
CJB,CCJ,6E,,,,GCR,1000,52,41,33,33,33,33,,
COK,CCJ,6E,,,,GCR,1000,52,41,33,33,33,33,,
DED,CCJ,6E,,,,GCR,1000,59,48,38,38,38,38,,
DEL,CCJ,6E,,,,GCR,1000,59,48,38,38,38,38,,
DIB,CCJ,6E,,,,GCR,1000,55,44,35,35,35,35,,
DMU,CCJ,6E,,,,GCR,1000,100,100,100,100,100,100,,
GAU,CCJ,6E,,,,GCR,1000,55,44,35,35,35,35,,
GOI,CCJ,6E,,,,GCR,1000,55,44,35,35,35,35,,
HYD,CCJ,6E,,,,GCR,1000,55,44,35,35,35,35,,
IDR,CCJ,6E,,,,GCR,1000,56,45,36,36,36,36,,
IMF,CCJ,6E,,,,GCR,1000,55,44,35,35,35,35,,
IXA,CCJ,6E,,,,GCR,1000,51,41,33,33,33,33,,
IXB,CCJ,6E,,,,GCR,1000,51,41,33,33,33,33,,
IXC,CCJ,6E,,,,GCR,1000,59,48,38,38,38,38,,
IXJ,CCJ,6E,,,,GCR,1000,59,48,38,38,38,38,,
IXM,CCJ,6E,,,,GCR,1000,44,35,28,28,28,28,,
IXR,CCJ,6E,,,,GCR,1000,55,44,35,35,35,35,,
IXZ,CCJ,6E,,,,GCR,1000,65,55,45,45,45,45,,
JAI,CCJ,6E,,,,GCR,1000,63,50,40,40,40,40,,
LKO,CCJ,6E,,,,GCR,1000,63,50,40,40,40,40,,
MAA,CCJ,6E,,,,GCR,1000,51,41,33,33,33,33,,
NAG,CCJ,6E,,,,GCR,1000,51,41,33,33,33,33,,
PAT,CCJ,6E,,,,GCR,1000,51,41,33,33,33,33,,
PNQ,CCJ,6E,,,,GCR,1000,51,41,33,33,33,33,,
RPR,CCJ,6E,,,,GCR,1000,51,41,33,33,33,33,,
SXR,CCJ,6E,,,,GCR,1000,59,48,38,38,38,38,,
TRV,CCJ,6E,,,,GCR,1000,56,45,36,36,36,36,,
UDR,CCJ,6E,,,,GCR,1000,78,63,50,50,50,50,,
VNS,CCJ,6E,,,,GCR,1000,59,48,38,38,38,38,,
VTZ,CCJ,6E,,,,GCR,1000,55,44,35,35,35,35,,
AMD,CCU,6E,,,,GCR,1000,55,44,35,35,35,35,,
ATQ,CCU,6E,,,,GCR,1000,59,54,48,48,48,48,,
BBI,CCU,6E,6E 557,,,GCR,1000,50,45,40,40,40,40,,
BBI,CCU,6E,,,,GCR,1000,47,38,30,30,30,30,,
BDQ,CCU,6E,,,,GCR,1000,55,44,35,35,35,35,,
BLR,CCU,6E,6E 723,,,GCR,1000,63,50,50,50,50,50,,
BLR,CCU,6E,6E 339,,,GCR,1000,63,50,50,50,50,50,,
BLR,CCU,6E,6E 344,,,GCR,1000,63,50,50,50,50,50,,
BLR,CCU,6E,6E 874,,,GCR,1000,63,50,50,50,50,50,,
BLR,CCU,6E,6E 433,,,GCR,1000,63,50,50,50,50,50,,
BLR,CCU,6E,,,,GCR,1000,63,50,40,40,40,40,,
BOM,CCU,6E,,,,GCR,1000,55,44,35,35,35,35,,
CCJ,CCU,6E,,,,GCR,1000,55,44,35,35,35,35,,
CJB,CCU,6E,,,,GCR,1000,52,43,35,35,35,35,,
COK,CCU,6E,,,,GCR,1000,47,38,30,30,30,30,,
DED,CCU,6E,,,,GCR,1000,63,50,36,36,36,36,,
DEL,CCU,6E,,,,GCR,1000,63,50,40,40,40,40,,
DIB,CCU,6E,,,,GCR,1000,52,41,33,33,33,33,,
DMU,CCU,6E,,,,GCR,1000,56,38,30,30,30,30,,
GAU,CCU,6E,,,,GCR,1000,40,32,16,16,16,16,,
GOI,CCU,6E,,,,GCR,1000,55,44,30,30,30,30,,
HYD,CCU,6E,,,,GCR,1000,44,35,28,28,28,28,,
IDR,CCU,6E,,,,GCR,1000,53,43,34,34,34,34,,
IMF,CCU,6E,,,,GCR,1000,55,44,35,35,35,35,,
IXA,CCU,6E,,,,GCR,1000,41,33,26,26,26,26,,
IXB,CCU,6E,,,,GCR,1000,38,30,24,24,24,24,,
IXC,CCU,6E,,,,GCR,1000,59,54,48,48,48,48,,
IXJ,CCU,6E,,,,GCR,1000,59,48,38,38,38,38,,
IXM,CCU,6E,,,,GCR,1000,45,38,30,30,30,30,,
IXR,CCU,6E,,,,GCR,1000,39,31,25,25,25,25,,
IXZ,CCU,6E,,,,GCR,1000,55,45,30,30,30,30,,
JAI,CCU,6E,,,,GCR,1000,56,45,38,38,38,38,,
LKO,CCU,6E,,,,GCR,1000,56,45,36,36,30,30,,
MAA,CCU,6E,,,,GCR,1000,45,38,30,30,30,30,,
NAG,CCU,6E,,,,GCR,1000,51,41,33,33,33,33,,
PAT,CCU,6E,,,,GCR,1000,41,33,26,26,26,26,,
PNQ,CCU,6E,,,,GCR,1000,56,45,36,36,36,36,,
RPR,CCU,6E,,,,GCR,1000,39,31,25,25,25,25,,
SXR,CCU,6E,,,,GCR,1000,59,48,38,38,38,38,,
TRV,CCU,6E,,,,GCR,1000,51,41,33,33,33,33,,
UDR,CCU,6E,,,,GCR,1000,105,65,48,48,48,48,,
VNS,CCU,6E,,,,GCR,1000,59,48,22,22,22,22,,
VTZ,CCU,6E,,,,GCR,1000,53,43,34,34,34,34,,
AMD,CJB,6E,,,,GCR,1000,59,48,38,38,38,38,,
ATQ,CJB,6E,,,,GCR,1000,81,65,52,52,52,52,,
BBI,CJB,6E,,,,GCR,1000,63,50,40,40,40,40,,
BDQ,CJB,6E,,,,GCR,1000,59,48,38,38,38,38,,
BLR,CJB,6E,,,,GCR,1000,63,50,40,40,40,40,,
BOM,CJB,6E,,,,GCR,1000,55,44,35,35,35,35,,
CCJ,CJB,6E,,,,GCR,1000,56,45,36,36,36,36,,
CCU,CJB,6E,,,,GCR,1000,55,44,35,35,35,35,,
COK,CJB,6E,,,,GCR,1000,52,41,33,33,33,33,,
DED,CJB,6E,,,,GCR,1000,81,65,52,52,52,52,,
DEL,CJB,6E,,,,GCR,1000,81,65,52,52,52,52,,
DIB,CJB,6E,,,,GCR,1000,55,44,35,35,35,35,,
DMU,CJB,6E,,,,GCR,1000,100,100,100,100,100,100,,
GAU,CJB,6E,,,,GCR,1000,55,44,35,35,35,35,,
GOI,CJB,6E,,,,GCR,1000,55,44,35,35,35,35,,
HYD,CJB,6E,,,,GCR,1000,47,38,30,30,30,30,,
IDR,CJB,6E,,,,GCR,1000,51,41,33,33,33,33,,
IMF,CJB,6E,,,,GCR,1000,55,44,35,35,35,35,,
IXA,CJB,6E,,,,GCR,1000,51,41,33,33,33,33,,
IXB,CJB,6E,,,,GCR,1000,51,41,33,33,33,33,,
IXC,CJB,6E,,,,GCR,1000,81,65,52,52,52,52,,
IXJ,CJB,6E,,,,GCR,1000,81,65,52,52,52,52,,
IXM,CJB,6E,,,,GCR,1000,55,44,35,35,35,35,,
IXR,CJB,6E,,,,GCR,1000,51,41,33,33,33,33,,
IXZ,CJB,6E,,,,GCR,1000,65,55,45,45,45,45,,
JAI,CJB,6E,,,,GCR,1000,81,65,48,48,48,48,,
LKO,CJB,6E,,,,GCR,1000,81,65,52,52,52,52,,
MAA,CJB,6E,,,,GCR,1000,55,44,35,35,35,35,,
NAG,CJB,6E,,,,GCR,1000,51,41,33,33,33,33,,
PAT,CJB,6E,,,,GCR,1000,51,41,33,33,33,33,,
PNQ,CJB,6E,,,,GCR,1000,51,41,33,33,33,33,,
RPR,CJB,6E,,,,GCR,1000,51,41,33,33,33,33,,
SXR,CJB,6E,,,,GCR,1000,81,65,52,52,52,52,,
TRV,CJB,6E,,,,GCR,1000,55,44,35,35,35,35,,
UDR,CJB,6E,,,,GCR,1000,115,75,62,62,62,62,,
VNS,CJB,6E,,,,GCR,1000,81,65,50,50,50,50,,
VTZ,CJB,6E,,,,GCR,1000,55,44,35,35,35,35,,
AMD,COK,6E,,,,GCR,1000,59,48,38,38,38,38,,
ATQ,COK,6E,,,,GCR,1000,66,55,46,46,46,46,,
BBI,COK,6E,,,,GCR,1000,63,50,40,40,40,40,,
BDQ,COK,6E,,,,GCR,1000,59,48,38,38,38,38,,
BLR,COK,6E,,,,GCR,1000,47,38,30,30,30,30,,
BOM,COK,6E,,,,GCR,1000,52,41,33,33,33,33,,
CCJ,COK,6E,,,,GCR,1000,55,44,35,35,35,35,,
CCU,COK,6E,,,,GCR,1000,55,44,35,35,35,35,,
CJB,COK,6E,,,,GCR,1000,52,41,33,33,33,33,,
DED,COK,6E,,,,GCR,1000,66,53,42,42,42,42,,
DEL,COK,6E,,,,GCR,1000,66,53,42,42,42,42,,
DIB,COK,6E,,,,GCR,1000,56,45,36,36,36,36,,
DMU,COK,6E,,,,GCR,1000,100,100,100,100,100,100,,
GAU,COK,6E,,,,GCR,1000,55,44,35,35,35,35,,
GOI,COK,6E,,,,GCR,1000,55,44,35,35,35,35,,
HYD,COK,6E,,,,GCR,1000,44,35,28,28,28,28,,
IDR,COK,6E,,,,GCR,1000,51,41,33,33,33,33,,
IMF,COK,6E,,,,GCR,1000,55,44,35,35,35,35,,
IXA,COK,6E,,,,GCR,1000,51,41,33,33,33,33,,
IXB,COK,6E,,,,GCR,1000,51,41,33,33,33,33,,
IXC,COK,6E,,,,GCR,1000,66,55,46,46,46,46,,
IXJ,COK,6E,,,,GCR,1000,66,53,42,42,42,42,,
IXM,COK,6E,,,,GCR,1000,42,34,27,27,27,27,,
IXR,COK,6E,,,,GCR,1000,51,41,33,33,33,33,,
IXZ,COK,6E,,,,GCR,1000,65,55,45,45,45,45,,
JAI,COK,6E,,,,GCR,1000,66,53,38,38,38,38,,
LKO,COK,6E,,,,GCR,1000,66,53,42,42,42,42,,
MAA,COK,6E,,,,GCR,1000,42,34,27,27,27,27,,
NAG,COK,6E,,,,GCR,1000,51,41,33,33,33,33,,
PAT,COK,6E,,,,GCR,1000,51,41,33,33,33,33,,
PNQ,COK,6E,,,,GCR,1000,51,41,33,33,33,33,,
RPR,COK,6E,,,,GCR,1000,51,41,33,33,33,33,,
SXR,COK,6E,,,,GCR,1000,66,53,42,42,42,42,,
TRV,COK,6E,,,,GCR,1000,51,41,33,33,33,33,,
UDR,COK,6E,,,,GCR,1000,78,63,50,50,50,50,,
VNS,COK,6E,,,,GCR,1000,66,53,42,42,42,42,,
VTZ,COK,6E,,,,GCR,1000,56,45,36,36,36,36,,
AMD,DED,6E,,,,GCR,1000,55,45,38,38,38,38,,
ATQ,DED,6E,,,,GCR,1000,45,36,30,30,30,30,,
BBI,DED,6E,,,,GCR,1000,50,40,30,30,30,30,,
BDQ,DED,6E,,,,GCR,1000,55,45,38,38,38,38,,
BLR,DED,6E,,,,GCR,1000,60,50,40,40,40,40,,
BOM,DED,6E,,,,GCR,1000,50,40,33,33,33,33,,
CCJ,DED,6E,,,,GCR,1000,60,50,40,40,40,40,,
CCU,DED,6E,,,,GCR,1000,50,40,32,32,32,32,,
CJB,DED,6E,,,,GCR,1000,50,42,35,35,35,35,,
COK,DED,6E,,,,GCR,1000,43,35,30,30,30,30,,
DEL,DED,6E,,,,GCR,1000,40,30,20,20,20,20,,
DIB,DED,6E,,,,GCR,1000,60,50,40,40,40,40,,
DMU,DED,6E,,,,GCR,1000,100,100,100,100,100,100,,
GAU,DED,6E,,,,GCR,1000,45,35,20,20,20,20,,
GOI,DED,6E,,,,GCR,1000,60,50,40,40,40,40,,
HYD,DED,6E,,,,GCR,1000,45,35,30,30,30,30,,
IDR,DED,6E,,,,GCR,1000,58,48,38,38,38,38,,
IMF,DED,6E,,,,GCR,1000,60,50,40,40,40,40,,
IXA,DED,6E,,,,GCR,1000,45,38,31,31,31,31,,
IXB,DED,6E,,,,GCR,1000,46,38,31,31,31,31,,
IXC,DED,6E,,,,GCR,1000,45,36,30,30,30,30,,
IXJ,DED,6E,,,,GCR,1000,38,30,26,26,26,26,,
IXM,DED,6E,,,,GCR,1000,58,48,38,38,38,38,,
IXR,DED,6E,,,,GCR,1000,45,38,25,25,25,25,,
IXZ,DED,6E,,,,GCR,1000,65,55,45,45,45,45,,
JAI,DED,6E,,,,GCR,1000,40,32,27,27,27,27,,
LKO,DED,6E,,,,GCR,1000,45,35,30,30,30,30,,
MAA,DED,6E,,,,GCR,1000,58,48,38,38,38,38,,
NAG,DED,6E,,,,GCR,1000,52,41,33,33,33,33,,
PAT,DED,6E,,,,GCR,1000,51,41,33,33,33,33,,
PNQ,DED,6E,,,,GCR,1000,50,40,33,33,33,33,,
RPR,DED,6E,,,,GCR,1000,48,38,33,33,33,33,,
SXR,DED,6E,,,,GCR,1000,38,30,23,23,23,23,,
TRV,DED,6E,,,,GCR,1000,58,48,38,38,38,38,,
UDR,DED,6E,,,,GCR,1000,80,52,42,42,42,42,,
VNS,DED,6E,,,,GCR,1000,40,33,28,28,28,28,,
VTZ,DED,6E,,,,GCR,1000,58,48,38,38,38,38,,
AMD,DEL,6E,,,,GCR,1000,50,40,32,32,32,32,,
ATQ,DEL,6E,,,,GCR,1000,39,31,25,25,25,25,,
BBI,DEL,6E,,,,GCR,1000,42,34,22,22,22,22,,
BDQ,DEL,6E,,,,GCR,1000,50,40,32,32,32,32,,
BLR,DEL,6E,,,,GCR,1000,56,45,36,36,36,36,,
BOM,DEL,6E,,,,GCR,1000,45,36,29,29,29,29,,
CCJ,DEL,6E,,,,GCR,1000,55,44,35,35,35,35,,
CCU,DEL,6E,,,,GCR,1000,44,35,22,22,22,22,,
CJB,DEL,6E,,,,GCR,1000,47,38,30,30,30,30,,
COK,DEL,6E,,,,GCR,1000,39,31,22,22,22,22,,
DED,DEL,6E,,,,GCR,1000,40,30,20,20,20,20,,
DIB,DEL,6E,,,,GCR,1000,55,44,35,35,35,35,,
DMU,DEL,6E,,,,GCR,1000,78,63,50,50,50,50,,
GAU,DEL,6E,,,,GCR,1000,39,31,16,16,16,16,,
GOI,DEL,6E,,,,GCR,1000,55,44,30,30,30,30,,
HYD,DEL,6E,,,,GCR,1000,41,33,21,21,21,21,,
IDR,DEL,6E,,,,GCR,1000,53,43,34,34,34,34,,
IMF,DEL,6E,,,,GCR,1000,55,44,35,35,35,35,,
IXA,DEL,6E,,,,GCR,1000,41,33,26,26,26,26,,
IXB,DEL,6E,,,,GCR,1000,41,33,26,26,26,26,,
IXC,DEL,6E,,,,GCR,1000,39,31,25,21.5,21.5,21.5,,
IXJ,DEL,6E,,,,GCR,1000,33,26,21,21,21,21,,
IXM,DEL,6E,,,,GCR,1000,53,43,34,34,34,34,,
IXR,DEL,6E,,,,GCR,1000,41,33,21,21,21,21,,
IXZ,DEL,6E,,,,GCR,1000,65,55,45,45,45,45,,
JAI,DEL,6E,,,,GCR,1000,34,28,22,22,22,22,,
LKO,DEL,6E,,,,GCR,1000,39,31,25,17,15,15,,
MAA,DEL,6E,,,,GCR,1000,53,43,34,34,34,34,,
NAG,DEL,6E,,,,GCR,1000,48,38,28,28,28,28,,
PAT,DEL,6E,,,,GCR,1000,42,34,27,27,27,27,,
PNQ,DEL,6E,,,,GCR,1000,45,36,29,29,29,29,,
RPR,DEL,6E,,,,GCR,1000,41,33,26,26,26,26,,
SXR,DEL,6E,,,,GCR,1000,31,25,18,18,18,18,,
TRV,DEL,6E,,,,GCR,1000,53,43,34,34,34,34,,
UDR,DEL,6E,,,,GCR,1000,75,45,38,38,38,38,,
VNS,DEL,6E,,,,GCR,1000,34,28,22,12,10,10,,
VTZ,DEL,6E,,,,GCR,1000,51,41,33,33,33,33,,
AMD,DIB,6E,,,,GCR,1000,63,50,40,40,40,40,,
ATQ,DIB,6E,,,,GCR,1000,86,69,55,55,55,55,,
BBI,DIB,6E,,,,GCR,1000,63,50,40,40,40,40,,
BDQ,DIB,6E,,,,GCR,1000,63,50,40,40,40,40,,
BLR,DIB,6E,,,,GCR,1000,63,50,40,40,40,40,,
BOM,DIB,6E,,,,GCR,1000,63,50,40,40,40,40,,
CCJ,DIB,6E,,,,GCR,1000,56,45,36,36,36,36,,
CCU,DIB,6E,,,,GCR,1000,51,41,33,33,33,33,,
CJB,DIB,6E,,,,GCR,1000,59,48,38,38,38,38,,
COK,DIB,6E,,,,GCR,1000,63,50,40,40,40,40,,
DED,DIB,6E,,,,GCR,1000,59,48,38,38,38,38,,
DEL,DIB,6E,,,,GCR,1000,59,48,38,38,38,38,,
DMU,DIB,6E,,,,GCR,1000,46,42,42,42,42,42,,
GAU,DIB,6E,,,,GCR,1000,51,41,33,33,33,33,,
GOI,DIB,6E,,,,GCR,1000,81,65,52,52,52,52,,
HYD,DIB,6E,,,,GCR,1000,59,48,38,38,38,38,,
IDR,DIB,6E,,,,GCR,1000,56,45,36,36,36,36,,
IMF,DIB,6E,,,,GCR,1000,51,41,33,33,33,33,,
IXA,DIB,6E,,,,GCR,1000,51,41,33,33,33,33,,
IXB,DIB,6E,,,,GCR,1000,51,41,33,33,33,33,,
IXC,DIB,6E,,,,GCR,1000,86,69,55,55,55,55,,
IXJ,DIB,6E,,,,GCR,1000,86,69,55,55,55,55,,
IXM,DIB,6E,,,,GCR,1000,55,44,35,35,35,35,,
IXR,DIB,6E,,,,GCR,1000,55,44,35,35,35,35,,
IXZ,DIB,6E,,,,GCR,1000,80,70,60,60,60,60,,
JAI,DIB,6E,,,,GCR,1000,86,69,55,55,55,55,,
LKO,DIB,6E,,,,GCR,1000,86,69,55,55,55,55,,
MAA,DIB,6E,,,,GCR,1000,55,44,35,35,35,35,,
NAG,DIB,6E,,,,GCR,1000,51,41,33,33,33,33,,
PAT,DIB,6E,,,,GCR,1000,51,41,33,33,33,33,,
PNQ,DIB,6E,,,,GCR,1000,51,41,33,33,33,33,,
RPR,DIB,6E,,,,GCR,1000,51,41,33,33,33,33,,
SXR,DIB,6E,,,,GCR,1000,86,69,55,55,55,55,,
TRV,DIB,6E,,,,GCR,1000,55,44,35,35,35,35,,
UDR,DIB,6E,,,,GCR,1000,78,63,50,50,50,50,,
VNS,DIB,6E,,,,GCR,1000,86,69,55,55,55,55,,
VTZ,DIB,6E,,,,GCR,1000,56,45,36,36,36,36,,
AMD,DMU,6E,,,,GCR,1000,63,50,40,40,40,40,,
ATQ,DMU,6E,,,,GCR,1000,86,69,55,55,55,55,,
BBI,DMU,6E,,,,GCR,1000,63,50,40,40,40,40,,
BDQ,DMU,6E,,,,GCR,1000,63,50,40,40,40,40,,
BLR,DMU,6E,,,,GCR,1000,63,50,40,40,40,40,,
BOM,DMU,6E,,,,GCR,1000,63,50,40,40,40,40,,
CCJ,DMU,6E,,,,GCR,1000,56,45,36,36,36,36,,
CCU,DMU,6E,,,,GCR,1000,56,41,36,36,36,36,,
CJB,DMU,6E,,,,GCR,1000,59,48,38,38,38,38,,
COK,DMU,6E,,,,GCR,1000,63,50,40,40,40,40,,
DED,DMU,6E,,,,GCR,1000,94,75,60,60,60,60,,
DEL,DMU,6E,,,,GCR,1000,94,75,60,60,60,60,,
DIB,DMU,6E,,,,GCR,1000,63,50,40,40,40,40,,
GAU,DMU,6E,,,,GCR,1000,59,46,32,32,32,32,,
GOI,DMU,6E,,,,GCR,1000,81,65,52,52,52,52,,
HYD,DMU,6E,,,,GCR,1000,59,48,38,38,38,38,,
IDR,DMU,6E,,,,GCR,1000,56,45,36,36,36,36,,
IMF,DMU,6E,,,,GCR,1000,59,48,38,38,38,38,,
IXA,DMU,6E,,,,GCR,1000,51,41,33,33,33,33,,
IXB,DMU,6E,,,,GCR,1000,51,41,33,33,33,33,,
IXC,DMU,6E,,,,GCR,1000,86,69,55,55,55,55,,
IXJ,DMU,6E,,,,GCR,1000,86,69,55,55,55,55,,
IXM,DMU,6E,,,,GCR,1000,55,44,35,35,35,35,,
IXR,DMU,6E,,,,GCR,1000,55,44,35,35,35,35,,
IXZ,DMU,6E,,,,GCR,1000,80,70,60,60,60,60,,
JAI,DMU,6E,,,,GCR,1000,86,69,55,55,55,55,,
LKO,DMU,6E,,,,GCR,1000,86,69,55,55,55,55,,
MAA,DMU,6E,,,,GCR,1000,55,44,35,35,35,35,,
NAG,DMU,6E,,,,GCR,1000,51,41,33,33,33,33,,
PAT,DMU,6E,,,,GCR,1000,51,41,33,33,33,33,,
PNQ,DMU,6E,,,,GCR,1000,51,41,33,33,33,33,,
RPR,DMU,6E,,,,GCR,1000,51,41,33,33,33,33,,
SXR,DMU,6E,,,,GCR,1000,86,69,55,55,55,55,,
TRV,DMU,6E,,,,GCR,1000,55,44,35,35,35,35,,
UDR,DMU,6E,,,,GCR,1000,78,63,50,50,50,50,,
VNS,DMU,6E,,,,GCR,1000,86,69,55,55,55,55,,
VTZ,DMU,6E,,,,GCR,1000,56,45,36,36,36,36,,
AMD,GAU,6E,,,,GCR,1000,81,65,52,52,52,52,,
ATQ,GAU,6E,,,,GCR,1000,86,69,55,55,55,55,,
BBI,GAU,6E,,,,GCR,1000,81,65,52,52,52,52,,
BDQ,GAU,6E,,,,GCR,1000,81,65,52,52,52,52,,
BLR,GAU,6E,,,,GCR,1000,100,80,65,65,65,65,,
BOM,GAU,6E,,,,GCR,1000,81,65,52,52,52,52,,
CCJ,GAU,6E,,,,GCR,1000,81,65,52,52,52,52,,
CCU,GAU,6E,,,,GCR,1000,86,69,40,40,40,40,,
CJB,GAU,6E,,,,GCR,1000,91,75,62,62,62,62,,
COK,GAU,6E,,,,GCR,1000,81,65,52,52,52,52,,
DED,GAU,6E,,,,GCR,1000,94,75,60,60,60,60,,
DEL,GAU,6E,,,,GCR,1000,94,75,60,60,60,60,,
DIB,GAU,6E,,,,GCR,1000,81,65,52,52,52,52,,
DMU,GAU,6E,,,,GCR,1000,56,38,30,30,30,30,,
GOI,GAU,6E,,,,GCR,1000,81,65,52,52,52,52,,
HYD,GAU,6E,,,,GCR,1000,70,56,50,50,50,50,,
IDR,GAU,6E,,,,GCR,1000,70,56,45,45,45,45,,
IMF,GAU,6E,,,,GCR,1000,55,44,35,35,35,35,,
IXA,GAU,6E,,,,GCR,1000,70,56,45,45,45,45,,
IXB,GAU,6E,,,,GCR,1000,55,44,35,35,35,35,,
IXC,GAU,6E,,,,GCR,1000,86,69,55,55,55,55,,
IXJ,GAU,6E,,,,GCR,1000,86,69,55,55,55,55,,
IXM,GAU,6E,,,,GCR,1000,75,63,53,53,53,53,,
IXR,GAU,6E,,,,GCR,1000,70,56,45,45,45,45,,
IXZ,GAU,6E,,,,GCR,1000,80,70,60,60,60,60,,
JAI,GAU,6E,,,,GCR,1000,86,69,55,55,55,55,,
LKO,GAU,6E,,,,GCR,1000,86,69,55,55,55,55,,
MAA,GAU,6E,,,,GCR,1000,75,63,53,53,53,53,,
NAG,GAU,6E,,,,GCR,1000,70,56,45,45,45,45,,
PAT,GAU,6E,,,,GCR,1000,70,56,45,45,45,45,,
RPR,GAU,6E,,,,GCR,1000,70,56,45,45,45,45,,
SXR,GAU,6E,,,,GCR,1000,105,84,67,67,67,67,,
TRV,GAU,6E,,,,GCR,1000,70,56,45,45,45,45,,
UDR,GAU,6E,,,,GCR,1000,78,63,50,50,50,50,,
VNS,GAU,6E,,,,GCR,1000,86,69,45,45,45,45,,
VTZ,GAU,6E,,,,GCR,1000,70,56,45,45,45,45,,
AMD,GOI,6E,,,,GCR,1000,59,48,38,38,38,38,,
ATQ,GOI,6E,,,,GCR,1000,63,50,40,40,40,40,,
BBI,GOI,6E,,,,GCR,1000,59,48,38,38,38,38,,
BDQ,GOI,6E,,,,GCR,1000,59,48,38,38,38,38,,
BLR,GOI,6E,,,,GCR,1000,47,38,30,30,30,30,,
BOM,GOI,6E,,,,GCR,1000,34,28,22,22,22,22,,
CCJ,GOI,6E,,,,GCR,1000,55,44,35,35,35,35,,
CCU,GOI,6E,,,,GCR,1000,52,41,33,33,33,33,,
CJB,GOI,6E,,,,GCR,1000,55,44,35,35,35,35,,
COK,GOI,6E,,,,GCR,1000,52,41,33,33,33,33,,
DED,GOI,6E,,,,GCR,1000,44,35,28,28,28,28,,
DEL,GOI,6E,,,,GCR,1000,44,35,28,28,28,28,,
DIB,GOI,6E,,,,GCR,1000,55,44,35,35,35,35,,
DMU,GOI,6E,,,,GCR,1000,100,100,100,100,100,100,,
GAU,GOI,6E,,,,GCR,1000,55,44,35,35,35,35,,
HYD,GOI,6E,,,,GCR,1000,55,44,35,35,35,35,,
IDR,GOI,6E,,,,GCR,1000,51,41,33,33,33,33,,
IMF,GOI,6E,,,,GCR,1000,55,44,35,35,35,35,,
IXA,GOI,6E,,,,GCR,1000,51,41,33,33,33,33,,
IXB,GOI,6E,,,,GCR,1000,51,41,33,33,33,33,,
IXC,GOI,6E,,,,GCR,1000,63,50,40,40,40,40,,
IXJ,GOI,6E,,,,GCR,1000,63,50,40,40,40,40,,
IXM,GOI,6E,,,,GCR,1000,51,41,33,33,33,33,,
IXR,GOI,6E,,,,GCR,1000,55,44,35,35,35,35,,
IXZ,GOI,6E,,,,GCR,1000,65,55,45,45,45,45,,
JAI,GOI,6E,,,,GCR,1000,63,50,40,40,40,40,,
LKO,GOI,6E,,,,GCR,1000,63,50,40,40,40,40,,
MAA,GOI,6E,,,,GCR,1000,51,41,33,33,33,33,,
NAG,GOI,6E,,,,GCR,1000,51,41,33,33,33,33,,
PAT,GOI,6E,,,,GCR,1000,51,41,33,33,33,33,,
PNQ,GOI,6E,,,,GCR,1000,51,41,33,33,33,33,,
RPR,GOI,6E,,,,GCR,1000,51,41,33,33,33,33,,
SXR,GOI,6E,,,,GCR,1000,63,50,40,40,40,40,,
TRV,GOI,6E,,,,GCR,1000,51,41,33,33,33,33,,
UDR,GOI,6E,,,,GCR,1000,78,63,50,50,50,50,,
VNS,GOI,6E,,,,GCR,1000,63,50,40,40,40,40,,
VTZ,GOI,6E,,,,GCR,1000,51,41,33,33,33,33,,
ATQ,HYD,6E,,,,GCR,1000,56,54,45,45,45,45,,
BBI,HYD,6E,,,,GCR,1000,59,48,38,38,38,38,,
BDQ,HYD,6E,,,,GCR,1000,47,38,30,30,30,30,,
BLR,HYD,6E,,,,GCR,1000,44,35,28,28,28,28,,
BOM,HYD,6E,,,,GCR,1000,42,34,27,27,27,27,,
CCJ,HYD,6E,,,,GCR,1000,55,44,35,35,35,35,,
CCU,HYD,6E,,,,GCR,1000,55,44,30,30,30,30,,
CJB,HYD,6E,,,,GCR,1000,50,41,34,34,34,34,,
COK,HYD,6E,,,,GCR,1000,42,34,24,24,24,24,,
DED,HYD,6E,,,,GCR,1000,63,50,36,36,36,36,,
DEL,HYD,6E,,,,GCR,1000,63,50,40,40,40,40,,
DIB,HYD,6E,,,,GCR,1000,56,45,36,36,36,36,,
DMU,HYD,6E,,,,GCR,1000,100,100,100,100,100,100,,
GAU,HYD,6E,,,,GCR,1000,51,41,33,33,33,33,,
GOI,HYD,6E,,,,GCR,1000,55,44,35,35,35,35,,
IDR,HYD,6E,,,,GCR,1000,51,41,33,33,33,33,,
IMF,HYD,6E,,,,GCR,1000,51,41,33,33,33,33,,
IXA,HYD,6E,,,,GCR,1000,55,44,35,35,35,35,,
IXB,HYD,6E,,,,GCR,1000,41,33,26,26,26,26,,
IXC,HYD,6E,,,,GCR,1000,56,54,45,45,45,45,,
IXJ,HYD,6E,,,,GCR,1000,56,45,36,36,36,36,,
IXM,HYD,6E,,,,GCR,1000,42,34,27,27,27,27,,
IXR,HYD,6E,,,,GCR,1000,51,41,33,33,33,33,,
IXZ,HYD,6E,,,,GCR,1000,55,45,38,38,38,38,,
JAI,HYD,6E,,,,GCR,1000,56,45,38,38,38,38,,
LKO,HYD,6E,,,,GCR,1000,59,48,34,34,30,30,,
MAA,HYD,6E,,,,GCR,1000,42,34,27,27,27,27,,
NAG,HYD,6E,,,,GCR,1000,51,41,33,33,33,33,,
PAT,HYD,6E,,,,GCR,1000,51,41,33,33,33,33,,
PNQ,HYD,6E,,,,GCR,1000,51,41,33,33,33,33,,
RPR,HYD,6E,,,,GCR,1000,47,38,30,30,30,30,,
SXR,HYD,6E,,,,GCR,1000,56,45,36,36,36,36,,
TRV,HYD,6E,,,,GCR,1000,51,41,33,33,33,33,,
UDR,HYD,6E,,,,GCR,1000,105,60,40,40,40,40,,
VNS,HYD,6E,,,,GCR,1000,56,45,36,36,36,36,,
VTZ,HYD,6E,,,,GCR,1000,51,41,33,33,33,33,,
AMD,IDR,6E,,,,GCR,1000,59,48,38,38,38,38,,
ATQ,IDR,6E,,,,GCR,1000,86,69,55,55,55,55,,
BBI,IDR,6E,,,,GCR,1000,59,48,38,38,38,38,,
BDQ,IDR,6E,,,,GCR,1000,59,48,38,38,38,38,,
BLR,IDR,6E,,,,GCR,1000,75,61,50,50,50,50,,
BOM,IDR,6E,,,,GCR,1000,52,41,33,33,33,33,,
CCJ,IDR,6E,,,,GCR,1000,55,44,35,35,35,35,,
CCU,IDR,6E,,,,GCR,1000,51,41,33,33,33,33,,
CJB,IDR,6E,,,,GCR,1000,57,46,38,38,38,38,,
COK,IDR,6E,,,,GCR,1000,52,41,33,33,33,33,,
DED,IDR,6E,,,,GCR,1000,63,50,42,42,42,42,,
DEL,IDR,6E,,,,GCR,1000,63,50,42,42,42,42,,
DIB,IDR,6E,,,,GCR,1000,55,44,35,35,35,35,,
DMU,IDR,6E,,,,GCR,1000,100,100,100,100,100,100,,
GAU,IDR,6E,,,,GCR,1000,55,44,35,35,35,35,,
GOI,IDR,6E,,,,GCR,1000,63,50,40,40,40,40,,
HYD,IDR,6E,,,,GCR,1000,47,38,30,30,30,30,,
IMF,IDR,6E,,,,GCR,1000,51,41,33,33,33,33,,
IXA,IDR,6E,,,,GCR,1000,51,41,33,33,33,33,,
IXB,IDR,6E,,,,GCR,1000,51,41,33,33,33,33,,
IXC,IDR,6E,,,,GCR,1000,86,69,55,55,55,55,,
IXJ,IDR,6E,,,,GCR,1000,86,69,55,55,55,55,,
IXM,IDR,6E,,,,GCR,1000,60,50,42,42,42,42,,
IXR,IDR,6E,,,,GCR,1000,51,41,33,33,33,33,,
IXZ,IDR,6E,,,,GCR,1000,65,55,45,45,45,45,,
JAI,IDR,6E,,,,GCR,1000,86,69,55,55,55,55,,
LKO,IDR,6E,,,,GCR,1000,86,69,55,55,55,55,,
MAA,IDR,6E,,,,GCR,1000,60,50,42,42,42,42,,
NAG,IDR,6E,,,,GCR,1000,51,41,33,33,33,33,,
PAT,IDR,6E,,,,GCR,1000,55,44,35,35,35,35,,
PNQ,IDR,6E,,,,GCR,1000,51,41,33,33,33,33,,
RPR,IDR,6E,,,,GCR,1000,51,41,33,33,33,33,,
SXR,IDR,6E,,,,GCR,1000,86,69,55,55,55,55,,
TRV,IDR,6E,,,,GCR,1000,55,44,35,35,35,35,,
UDR,IDR,6E,,,,GCR,1000,55,44,35,35,35,35,,
VNS,IDR,6E,,,,GCR,1000,86,69,55,55,55,55,,
VTZ,IDR,6E,,,,GCR,1000,51,41,33,33,33,33,,
AMD,IMF,6E,,,,GCR,1000,91,73,58,58,58,58,,
ATQ,IMF,6E,,,,GCR,1000,109,88,70,70,70,70,,
BBI,IMF,6E,,,,GCR,1000,91,73,58,58,58,58,,
BDQ,IMF,6E,,,,GCR,1000,91,73,58,58,58,58,,
BLR,IMF,6E,,,,GCR,1000,91,73,58,58,58,58,,
BOM,IMF,6E,,,,GCR,1000,81,65,52,52,52,52,,
CCJ,IMF,6E,,,,GCR,1000,91,73,58,58,58,58,,
CJB,IMF,6E,,,,GCR,1000,101,83,68,68,68,68,,
COK,IMF,6E,,,,GCR,1000,91,73,58,58,58,58,,
DED,IMF,6E,,,,GCR,1000,116,93,74,74,74,74,,
DEL,IMF,6E,,,,GCR,1000,116,93,74,74,74,74,,
DIB,IMF,6E,,,,GCR,1000,91,73,58,58,58,58,,
DMU,IMF,6E,,,,GCR,1000,46,38,38,38,38,38,,
GOI,IMF,6E,,,,GCR,1000,91,73,60,60,60,60,,
HYD,IMF,6E,,,,GCR,1000,91,73,60,60,60,60,,
IDR,IMF,6E,,,,GCR,1000,78,63,50,50,50,50,,
IXA,IMF,6E,,,,GCR,1000,78,63,50,50,50,50,,
IXB,IMF,6E,,,,GCR,1000,78,63,50,50,50,50,,
IXC,IMF,6E,,,,GCR,1000,109,88,70,70,70,70,,
IXJ,IMF,6E,,,,GCR,1000,109,88,70,70,70,70,,
IXM,IMF,6E,,,,GCR,1000,78,63,50,50,50,50,,
IXR,IMF,6E,,,,GCR,1000,75,60,48,48,48,48,,
IXZ,IMF,6E,,,,GCR,1000,80,70,60,60,60,60,,
JAI,IMF,6E,,,,GCR,1000,109,88,70,70,70,70,,
LKO,IMF,6E,,,,GCR,1000,109,88,70,70,70,70,,
MAA,IMF,6E,,,,GCR,1000,78,63,50,50,50,50,,
NAG,IMF,6E,,,,GCR,1000,98,79,63,63,63,63,,
PAT,IMF,6E,,,,GCR,1000,78,63,50,50,50,50,,
PNQ,IMF,6E,,,,GCR,1000,70,56,45,45,45,45,,
RPR,IMF,6E,,,,GCR,1000,78,63,50,50,50,50,,
SXR,IMF,6E,,,,GCR,1000,136,109,87,87,87,87,,
TRV,IMF,6E,,,,GCR,1000,78,63,50,50,50,50,,
UDR,IMF,6E,,,,GCR,1000,78,63,50,50,50,50,,
VNS,IMF,6E,,,,GCR,1000,109,88,70,70,70,70,,
VTZ,IMF,6E,,,,GCR,1000,78,63,50,50,50,50,,
AMD,IXA,6E,,,,GCR,1000,78,63,50,50,50,50,,
ATQ,IXA,6E,,,,GCR,1000,109,88,70,70,70,70,,
BBI,IXA,6E,,,,GCR,1000,78,63,50,50,50,50,,
BDQ,IXA,6E,,,,GCR,1000,78,63,50,50,50,50,,
BLR,IXA,6E,,,,GCR,1000,94,75,60,60,60,60,,
BOM,IXA,6E,,,,GCR,1000,78,63,50,50,50,50,,
CJB,IXA,6E,,,,GCR,1000,88,73,60,60,60,60,,
COK,IXA,6E,,,,GCR,1000,78,63,50,50,50,50,,
DED,IXA,6E,,,,GCR,1000,109,88,70,70,70,70,,
DEL,IXA,6E,,,,GCR,1000,109,88,70,70,70,70,,
DIB,IXA,6E,,,,GCR,1000,91,73,58,58,58,58,,
DMU,IXA,6E,,,,GCR,1000,100,100,100,100,100,100,,
GAU,IXA,6E,,,,GCR,1000,86,69,45,45,45,45,,
GOI,IXA,6E,,,,GCR,1000,78,63,55,55,55,55,,
HYD,IXA,6E,,,,GCR,1000,78,63,50,50,50,50,,
IDR,IXA,6E,,,,GCR,1000,78,63,50,50,50,50,,
IMF,IXA,6E,,,,GCR,1000,78,63,50,50,50,50,,
IXB,IXA,6E,,,,GCR,1000,70,56,45,45,45,45,,
IXC,IXA,6E,,,,GCR,1000,109,88,70,70,70,70,,
IXJ,IXA,6E,,,,GCR,1000,109,88,70,70,70,70,,
IXM,IXA,6E,,,,GCR,1000,86,69,55,55,55,55,,
IXR,IXA,6E,,,,GCR,1000,86,69,55,55,55,55,,
IXZ,IXA,6E,,,,GCR,1000,80,70,60,60,60,60,,
JAI,IXA,6E,,,,GCR,1000,109,88,70,70,70,70,,
LKO,IXA,6E,,,,GCR,1000,109,88,70,70,70,70,,
MAA,IXA,6E,,,,GCR,1000,86,69,55,55,55,55,,
NAG,IXA,6E,,,,GCR,1000,102,81,65,65,65,65,,
PAT,IXA,6E,,,,GCR,1000,86,69,55,55,55,55,,
PNQ,IXA,6E,,,,GCR,1000,70,56,45,45,45,45,,
RPR,IXA,6E,,,,GCR,1000,86,69,55,55,55,55,,
SXR,IXA,6E,,,,GCR,1000,109,88,70,70,70,70,,
TRV,IXA,6E,,,,GCR,1000,70,56,45,45,45,45,,
UDR,IXA,6E,,,,GCR,1000,78,63,50,50,50,50,,
VNS,IXA,6E,,,,GCR,1000,94,75,60,60,60,60,,
VTZ,IXA,6E,,,,GCR,1000,86,69,55,55,55,55,,
AMD,IXB,6E,,,,GCR,1000,63,50,40,40,40,40,,
ATQ,IXB,6E,,,,GCR,1000,56,45,36,36,36,36,,
BBI,IXB,6E,,,,GCR,1000,63,50,40,40,40,40,,
BDQ,IXB,6E,,,,GCR,1000,63,50,40,40,40,40,,
BLR,IXB,6E,,,,GCR,1000,63,50,40,40,40,40,,
BOM,IXB,6E,,,,GCR,1000,55,44,35,35,35,35,,
CCJ,IXB,6E,,,,GCR,1000,63,50,40,40,40,40,,
CCU,IXB,6E,,,,GCR,1000,42,34,27,27,27,27,,
CJB,IXB,6E,,,,GCR,1000,59,48,38,38,38,38,,
COK,IXB,6E,,,,GCR,1000,63,50,40,40,40,40,,
DED,IXB,6E,,,,GCR,1000,55,44,35,35,35,35,,
DEL,IXB,6E,,,,GCR,1000,55,44,35,35,35,35,,
DIB,IXB,6E,,,,GCR,1000,63,50,40,40,40,40,,
DMU,IXB,6E,,,,GCR,1000,100,100,100,100,100,100,,
GAU,IXB,6E,,,,GCR,1000,51,41,33,33,33,33,,
GOI,IXB,6E,,,,GCR,1000,55,44,32,32,32,32,,
HYD,IXB,6E,,,,GCR,1000,55,44,40,40,40,40,,
IDR,IXB,6E,,,,GCR,1000,51,41,33,33,33,33,,
IMF,IXB,6E,,,,GCR,1000,51,41,33,33,33,33,,
IXA,IXB,6E,,,,GCR,1000,51,41,33,33,33,33,,
IXC,IXB,6E,,,,GCR,1000,56,45,36,36,36,36,,
IXJ,IXB,6E,,,,GCR,1000,56,45,36,36,36,36,,
IXM,IXB,6E,,,,GCR,1000,51,41,33,33,33,33,,
IXR,IXB,6E,,,,GCR,1000,51,41,33,33,33,33,,
IXZ,IXB,6E,,,,GCR,1000,80,70,60,60,60,60,,
JAI,IXB,6E,,,,GCR,1000,56,45,36,36,36,36,,
LKO,IXB,6E,,,,GCR,1000,56,45,36,36,36,36,,
MAA,IXB,6E,,,,GCR,1000,51,41,33,33,33,33,,
NAG,IXB,6E,,,,GCR,1000,51,41,33,33,33,33,,
PAT,IXB,6E,,,,GCR,1000,51,41,33,33,33,33,,
PNQ,IXB,6E,,,,GCR,1000,51,41,33,33,33,33,,
RPR,IXB,6E,,,,GCR,1000,51,41,33,33,33,33,,
SXR,IXB,6E,,,,GCR,1000,56,45,36,36,36,36,,
TRV,IXB,6E,,,,GCR,1000,51,41,33,33,33,33,,
UDR,IXB,6E,,,,GCR,1000,78,63,50,50,50,50,,
VNS,IXB,6E,,,,GCR,1000,56,45,36,36,36,36,,
VTZ,IXB,6E,,,,GCR,1000,51,41,33,33,33,33,,
AMD,IXC,6E,,,,GCR,1000,63,50,40,40,40,40,,
ATQ,IXC,6E,,,,GCR,1000,39,31,25,25,25,25,,
BBI,IXC,6E,,,,GCR,1000,63,50,40,40,40,40,,
BDQ,IXC,6E,,,,GCR,1000,63,50,40,40,40,40,,
BLR,IXC,6E,,,,GCR,1000,53,43,34,34,34,34,,
BOM,IXC,6E,,,,GCR,1000,47,38,30,30,30,30,,
CCJ,IXC,6E,,,,GCR,1000,55,44,35,35,35,35,,
CCU,IXC,6E,,,,GCR,1000,55,44,35,35,35,35,,
CJB,IXC,6E,,,,GCR,1000,59,48,38,38,38,38,,
COK,IXC,6E,,,,GCR,1000,59,48,38,38,38,38,,
DED,IXC,6E,,,,GCR,1000,47,38,30,30,30,30,,
DEL,IXC,6E,,,,GCR,1000,47,38,30,30,30,30,,
DIB,IXC,6E,,,,GCR,1000,55,44,35,35,35,35,,
DMU,IXC,6E,,,,GCR,1000,100,100,100,100,100,100,,
GAU,IXC,6E,,,,GCR,1000,55,44,35,35,35,35,,
GOI,IXC,6E,,,,GCR,1000,55,44,32,32,32,32,,
HYD,IXC,6E,,,,GCR,1000,47,38,30,30,30,30,,
IDR,IXC,6E,,,,GCR,1000,55,44,35,35,35,35,,
IMF,IXC,6E,,,,GCR,1000,55,44,35,35,35,35,,
IXA,IXC,6E,,,,GCR,1000,51,41,33,33,33,33,,
IXB,IXC,6E,,,,GCR,1000,51,41,33,33,33,33,,
IXJ,IXC,6E,,,,GCR,1000,39,31,25,25,25,25,,
IXM,IXC,6E,,,,GCR,1000,51,41,33,33,33,33,,
IXR,IXC,6E,,,,GCR,1000,55,44,35,35,35,35,,
IXZ,IXC,6E,,,,GCR,1000,65,55,45,45,45,45,,
JAI,IXC,6E,,,,GCR,1000,39,31,25,25,25,25,,
LKO,IXC,6E,,,,GCR,1000,55,44,35,35,35,35,,
MAA,IXC,6E,,,,GCR,1000,51,41,33,33,33,33,,
NAG,IXC,6E,,,,GCR,1000,51,41,33,33,33,33,,
PAT,IXC,6E,,,,GCR,1000,55,44,35,35,35,35,,
PNQ,IXC,6E,,,,GCR,1000,51,41,33,33,33,33,,
RPR,IXC,6E,,,,GCR,1000,55,44,35,35,35,35,,
SXR,IXC,6E,,,,GCR,1000,39,31,25,25,25,25,,
TRV,IXC,6E,,,,GCR,1000,55,44,35,35,35,35,,
UDR,IXC,6E,,,,GCR,1000,63,50,40,40,40,40,,
VNS,IXC,6E,,,,GCR,1000,47,38,30,30,30,30,,
VTZ,IXC,6E,,,,GCR,1000,51,41,33,33,33,33,,
AMD,IXJ,6E,,,,GCR,1000,63,50,40,40,40,40,,
ATQ,IXJ,6E,,,,GCR,1000,39,31,25,25,25,25,,
BBI,IXJ,6E,,,,GCR,1000,63,50,40,40,40,40,,
BDQ,IXJ,6E,,,,GCR,1000,63,50,40,40,40,40,,
BLR,IXJ,6E,,,,GCR,1000,63,50,40,40,40,40,,
BOM,IXJ,6E,,,,GCR,1000,55,44,35,35,35,35,,
CCJ,IXJ,6E,,,,GCR,1000,55,44,35,35,35,35,,
CCU,IXJ,6E,,,,GCR,1000,55,44,35,35,35,35,,
CJB,IXJ,6E,,,,GCR,1000,63,50,40,40,40,40,,
COK,IXJ,6E,,,,GCR,1000,63,50,40,40,40,40,,
DED,IXJ,6E,,,,GCR,1000,40,35,28,28,28,28,,
DEL,IXJ,6E,,,,GCR,1000,39,31,25,25,25,25,,
DIB,IXJ,6E,,,,GCR,1000,55,44,35,35,35,35,,
DMU,IXJ,6E,,,,GCR,1000,100,100,100,100,100,100,,
GAU,IXJ,6E,,,,GCR,1000,55,44,35,35,35,35,,
GOI,IXJ,6E,,,,GCR,1000,55,44,35,35,35,35,,
HYD,IXJ,6E,,,,GCR,1000,59,48,38,38,38,38,,
IDR,IXJ,6E,,,,GCR,1000,51,41,33,33,33,33,,
IMF,IXJ,6E,,,,GCR,1000,55,44,35,35,35,35,,
IXA,IXJ,6E,,,,GCR,1000,51,41,33,33,33,33,,
IXB,IXJ,6E,,,,GCR,1000,51,41,33,33,33,33,,
IXC,IXJ,6E,,,,GCR,1000,39,31,25,25,25,25,,
IXM,IXJ,6E,,,,GCR,1000,55,44,35,35,35,35,,
IXR,IXJ,6E,,,,GCR,1000,51,41,33,33,33,33,,
IXZ,IXJ,6E,,,,GCR,1000,65,55,45,45,45,45,,
JAI,IXJ,6E,,,,GCR,1000,56,45,36,36,36,36,,
LKO,IXJ,6E,,,,GCR,1000,56,45,36,36,36,36,,
MAA,IXJ,6E,,,,GCR,1000,55,44,35,35,35,35,,
NAG,IXJ,6E,,,,GCR,1000,51,41,33,33,33,33,,
PAT,IXJ,6E,,,,GCR,1000,55,44,35,35,35,35,,
PNQ,IXJ,6E,,,,GCR,1000,51,41,33,33,33,33,,
RPR,IXJ,6E,,,,GCR,1000,51,41,33,33,33,33,,
SXR,IXJ,6E,,,,GCR,1000,31,25,20,20,20,20,,
TRV,IXJ,6E,,,,GCR,1000,55,44,35,35,35,35,,
UDR,IXJ,6E,,,,GCR,1000,78,63,50,50,50,50,,
VNS,IXJ,6E,,,,GCR,1000,47,38,30,30,30,30,,
VTZ,IXJ,6E,,,,GCR,1000,51,41,33,33,33,33,,
AMD,IXM,6E,,,,GCR,1000,59,48,38,38,38,38,,
ATQ,IXM,6E,,,,GCR,1000,59,48,38,38,38,38,,
BBI,IXM,6E,,,,GCR,1000,63,50,40,40,40,40,,
BDQ,IXM,6E,,,,GCR,1000,59,48,38,38,38,38,,
BLR,IXM,6E,,,,GCR,1000,63,50,40,40,40,40,,
BOM,IXM,6E,,,,GCR,1000,52,41,33,33,33,33,,
CCJ,IXM,6E,,,,GCR,1000,55,44,35,35,35,35,,
CCU,IXM,6E,,,,GCR,1000,55,44,35,35,35,35,,
CJB,IXM,6E,,,,GCR,1000,52,41,33,33,33,33,,
COK,IXM,6E,,,,GCR,1000,52,41,33,33,33,33,,
DED,IXM,6E,,,,GCR,1000,59,48,38,38,38,38,,
DEL,IXM,6E,,,,GCR,1000,59,48,38,38,38,38,,
DIB,IXM,6E,,,,GCR,1000,55,44,35,35,35,35,,
DMU,IXM,6E,,,,GCR,1000,100,100,100,100,100,100,,
GAU,IXM,6E,,,,GCR,1000,55,44,35,35,35,35,,
GOI,IXM,6E,,,,GCR,1000,55,44,35,35,35,35,,
HYD,IXM,6E,,,,GCR,1000,55,44,35,35,35,35,,
IDR,IXM,6E,,,,GCR,1000,56,45,36,36,36,36,,
IMF,IXM,6E,,,,GCR,1000,55,44,35,35,35,35,,
IXA,IXM,6E,,,,GCR,1000,51,41,33,33,33,33,,
IXB,IXM,6E,,,,GCR,1000,51,41,33,33,33,33,,
IXC,IXM,6E,,,,GCR,1000,59,48,38,38,38,38,,
IXJ,IXM,6E,,,,GCR,1000,59,48,38,38,38,38,,
IXR,IXM,6E,,,,GCR,1000,55,44,35,35,35,35,,
IXZ,IXM,6E,,,,GCR,1000,65,55,45,45,45,45,,
JAI,IXM,6E,,,,GCR,1000,63,50,40,40,40,40,,
LKO,IXM,6E,,,,GCR,1000,63,50,40,40,40,40,,
MAA,IXM,6E,,,,GCR,1000,51,41,33,33,33,33,,
NAG,IXM,6E,,,,GCR,1000,51,41,33,33,33,33,,
PAT,IXM,6E,,,,GCR,1000,51,41,33,33,33,33,,
PNQ,IXM,6E,,,,GCR,1000,51,41,33,33,33,33,,
RPR,IXM,6E,,,,GCR,1000,51,41,33,33,33,33,,
SXR,IXM,6E,,,,GCR,1000,59,48,38,38,38,38,,
TRV,IXM,6E,,,,GCR,1000,56,45,36,36,36,36,,
UDR,IXM,6E,,,,GCR,1000,78,63,50,50,50,50,,
VNS,IXM,6E,,,,GCR,1000,59,48,38,38,38,38,,
VTZ,IXM,6E,,,,GCR,1000,55,44,35,35,35,35,,
AMD,IXR,6E,,,,GCR,1000,63,50,40,40,40,40,,
ATQ,IXR,6E,,,,GCR,1000,56,51,45,45,45,45,,
BBI,IXR,6E,,,,GCR,1000,63,50,40,40,40,40,,
BDQ,IXR,6E,,,,GCR,1000,63,50,40,40,40,40,,
BLR,IXR,6E,,,,GCR,1000,75,61,50,50,50,50,,
BOM,IXR,6E,,,,GCR,1000,55,44,35,35,35,35,,
CCJ,IXR,6E,,,,GCR,1000,55,44,35,35,35,35,,
CCU,IXR,6E,,,,GCR,1000,48,39,31,31,31,31,,
CJB,IXR,6E,,,,GCR,1000,59,48,38,38,38,38,,
COK,IXR,6E,,,,GCR,1000,59,48,38,38,38,38,,
DED,IXR,6E,,,,GCR,1000,52,41,33,33,33,33,,
DEL,IXR,6E,,,,GCR,1000,52,41,33,33,33,33,,
DIB,IXR,6E,,,,GCR,1000,55,44,35,35,35,35,,
DMU,IXR,6E,,,,GCR,1000,100,100,100,100,100,100,,
GAU,IXR,6E,,,,GCR,1000,55,44,35,35,35,35,,
GOI,IXR,6E,,,,GCR,1000,55,44,35,35,35,35,,
HYD,IXR,6E,,,,GCR,1000,55,44,37,37,37,37,,
IDR,IXR,6E,,,,GCR,1000,56,45,36,36,36,36,,
IMF,IXR,6E,,,,GCR,1000,55,44,35,35,35,35,,
IXA,IXR,6E,,,,GCR,1000,51,41,33,33,33,33,,
IXB,IXR,6E,,,,GCR,1000,51,41,33,33,33,33,,
IXC,IXR,6E,,,,GCR,1000,56,51,45,45,45,45,,
IXJ,IXR,6E,,,,GCR,1000,56,45,36,36,36,36,,
IXM,IXR,6E,,,,GCR,1000,56,46,38,38,38,38,,
IXZ,IXR,6E,,,,GCR,1000,65,55,45,45,45,45,,
JAI,IXR,6E,,,,GCR,1000,59,48,38,38,38,38,,
LKO,IXR,6E,,,,GCR,1000,59,48,38,38,38,38,,
MAA,IXR,6E,,,,GCR,1000,56,46,38,38,38,38,,
NAG,IXR,6E,,,,GCR,1000,51,41,33,33,33,33,,
PAT,IXR,6E,,,,GCR,1000,51,41,33,33,33,33,,
PNQ,IXR,6E,,,,GCR,1000,51,41,33,33,33,33,,
RPR,IXR,6E,,,,GCR,1000,51,41,33,33,33,33,,
SXR,IXR,6E,,,,GCR,1000,55,44,35,35,35,35,,
TRV,IXR,6E,,,,GCR,1000,55,44,35,35,35,35,,
UDR,IXR,6E,,,,GCR,1000,78,63,50,50,50,50,,
VNS,IXR,6E,,,,GCR,1000,55,44,35,35,35,35,,
VTZ,IXR,6E,,,,GCR,1000,51,41,33,33,33,33,,
AMD,IXZ,6E,,,,GCR,1000,63,50,40,40,40,40,,
ATQ,IXZ,6E,,,,GCR,1000,70,55,45,45,45,45,,
BBI,IXZ,6E,,,,GCR,1000,63,50,40,40,40,40,,
BDQ,IXZ,6E,,,,GCR,1000,63,50,40,40,40,40,,
BLR,IXZ,6E,,,,GCR,1000,63,50,40,40,40,40,,
BOM,IXZ,6E,,,,GCR,1000,63,50,40,40,40,40,,
CCJ,IXZ,6E,,,,GCR,1000,63,50,40,40,40,40,,
CCU,IXZ,6E,,,,GCR,1000,62,50,34,30,30,30,,
CJB,IXZ,6E,,,,GCR,1000,55,44,35,35,35,35,,
COK,IXZ,6E,,,,GCR,1000,55,44,35,35,35,35,,
DED,IXZ,6E,,,,GCR,1000,70,55,45,45,45,45,,
DEL,IXZ,6E,,,,GCR,1000,70,55,45,45,45,45,,
DIB,IXZ,6E,,,,GCR,1000,63,50,40,40,40,40,,
DMU,IXZ,6E,,,,GCR,1000,63,50,40,40,40,40,,
GAU,IXZ,6E,,,,GCR,1000,63,50,40,40,40,40,,
GOI,IXZ,6E,,,,GCR,1000,63,50,40,40,40,40,,
HYD,IXZ,6E,,,,GCR,1000,63,50,40,40,40,40,,
IDR,IXZ,6E,,,,GCR,1000,63,50,40,40,40,40,,
IMF,IXZ,6E,,,,GCR,1000,63,50,40,40,40,40,,
IXA,IXZ,6E,,,,GCR,1000,63,50,40,40,40,40,,
IXB,IXZ,6E,,,,GCR,1000,63,50,40,40,40,40,,
IXC,IXZ,6E,,,,GCR,1000,70,55,45,45,45,45,,
IXJ,IXZ,6E,,,,GCR,1000,70,55,45,45,45,45,,
IXM,IXZ,6E,,,,GCR,1000,55,44,35,35,35,35,,
IXR,IXZ,6E,,,,GCR,1000,63,50,40,40,40,40,,
JAI,IXZ,6E,,,,GCR,1000,70,55,45,45,45,45,,
LKO,IXZ,6E,,,,GCR,1000,70,55,45,45,45,45,,
MAA,IXZ,6E,,,,GCR,1000,55,44,35,35,35,35,,
NAG,IXZ,6E,,,,GCR,1000,63,50,40,40,40,40,,
PAT,IXZ,6E,,,,GCR,1000,63,50,40,40,40,40,,
PNQ,IXZ,6E,,,,GCR,1000,63,50,40,40,40,40,,
RPR,IXZ,6E,,,,GCR,1000,63,50,40,40,40,40,,
SXR,IXZ,6E,,,,GCR,1000,70,55,45,45,45,45,,
TRV,IXZ,6E,,,,GCR,1000,55,44,35,35,35,35,,
UDR,IXZ,6E,,,,GCR,1000,70,55,45,45,45,45,,
VNS,IXZ,6E,,,,GCR,1000,70,55,45,45,45,45,,
VTZ,IXZ,6E,,,,GCR,1000,63,50,40,40,40,40,,
AMD,JAI,6E,,,,GCR,1000,59,48,38,38,38,38,,
ATQ,JAI,6E,,,,GCR,1000,47,38,30,30,30,30,,
BBI,JAI,6E,,,,GCR,1000,63,50,40,40,40,40,,
BDQ,JAI,6E,,,,GCR,1000,59,48,38,38,38,38,,
BLR,JAI,6E,,,,GCR,1000,52,41,33,33,33,33,,
BOM,JAI,6E,,,,GCR,1000,55,44,35,35,35,35,,
CCJ,JAI,6E,,,,GCR,1000,55,44,35,35,35,35,,
CCU,JAI,6E,,,,GCR,1000,59,48,41,41,41,41,,
CJB,JAI,6E,,,,GCR,1000,55,44,35,35,35,35,,
COK,JAI,6E,,,,GCR,1000,59,48,38,38,38,38,,
DED,JAI,6E,,,,GCR,1000,40,35,30,30,30,30,,
DEL,JAI,6E,,,,GCR,1000,39,31,25,25,25,25,,
DIB,JAI,6E,,,,GCR,1000,56,45,36,36,36,36,,
DMU,JAI,6E,,,,GCR,1000,100,100,100,100,100,100,,
GAU,JAI,6E,,,,GCR,1000,55,44,35,35,35,35,,
GOI,JAI,6E,,,,GCR,1000,55,44,32,32,32,32,,
HYD,JAI,6E,,,,GCR,1000,55,44,35,35,35,35,,
IDR,JAI,6E,,,,GCR,1000,51,41,33,33,33,33,,
IMF,JAI,6E,,,,GCR,1000,51,41,33,33,33,33,,
IXA,JAI,6E,,,,GCR,1000,55,44,35,35,35,35,,
IXB,JAI,6E,,,,GCR,1000,51,41,33,33,33,33,,
IXC,JAI,6E,,,,GCR,1000,47,38,30,30,30,30,,
IXJ,JAI,6E,,,,GCR,1000,47,38,30,30,30,30,,
IXM,JAI,6E,,,,GCR,1000,48,39,31,31,31,31,,
IXR,JAI,6E,,,,GCR,1000,51,41,33,33,33,33,,
IXZ,JAI,6E,,,,GCR,1000,65,55,45,45,45,45,,
LKO,JAI,6E,,,,GCR,1000,55,44,35,35,35,35,,
MAA,JAI,6E,,,,GCR,1000,48,39,31,31,31,31,,
NAG,JAI,6E,,,,GCR,1000,51,41,33,33,33,33,,
PAT,JAI,6E,,,,GCR,1000,51,41,33,33,33,33,,
PNQ,JAI,6E,,,,GCR,1000,51,41,33,33,33,33,,
RPR,JAI,6E,,,,GCR,1000,51,41,33,33,33,33,,
SXR,JAI,6E,,,,GCR,1000,55,44,35,35,35,35,,
TRV,JAI,6E,,,,GCR,1000,51,41,33,33,33,33,,
UDR,JAI,6E,,,,GCR,1000,59,48,38,38,38,38,,
VNS,JAI,6E,,,,GCR,1000,55,44,35,35,35,35,,
VTZ,JAI,6E,,,,GCR,1000,55,44,35,35,35,35,,
AMD,LKO,6E,,,,GCR,1000,59,48,38,38,38,38,,
ATQ,LKO,6E,,,,GCR,1000,47,38,30,30,30,30,,
BBI,LKO,6E,,,,GCR,1000,59,48,38,38,38,38,,
BDQ,LKO,6E,,,,GCR,1000,59,48,38,38,38,38,,
BLR,LKO,6E,,,,GCR,1000,70,56,45,45,45,45,,
BOM,LKO,6E,,,,GCR,1000,52,41,33,33,33,33,,
CCJ,LKO,6E,,,,GCR,1000,55,44,35,35,35,35,,
CCU,LKO,6E,,,,GCR,1000,51,41,33,33,33,33,,
CJB,LKO,6E,,,,GCR,1000,60,49,40,40,40,40,,
COK,LKO,6E,,,,GCR,1000,63,50,40,40,40,40,,
DED,LKO,6E,,,,GCR,1000,40,35,30,30,30,30,,
DEL,LKO,6E,,,,GCR,1000,39,31,25,25,25,25,,
DIB,LKO,6E,,,,GCR,1000,55,44,35,35,35,35,,
DMU,LKO,6E,,,,GCR,1000,100,100,100,100,100,100,,
GAU,LKO,6E,,,,GCR,1000,55,44,35,35,35,35,,
GOI,LKO,6E,,,,GCR,1000,55,44,35,35,35,35,,
HYD,LKO,6E,,,,GCR,1000,47,38,30,30,30,30,,
IDR,LKO,6E,,,,GCR,1000,53,43,34,34,34,34,,
IMF,LKO,6E,,,,GCR,1000,55,44,35,35,35,35,,
IXA,LKO,6E,,,,GCR,1000,55,44,35,35,35,35,,
IXB,LKO,6E,,,,GCR,1000,55,44,35,35,35,35,,
IXC,LKO,6E,,,,GCR,1000,47,38,30,30,30,30,,
IXJ,LKO,6E,,,,GCR,1000,47,38,30,30,30,30,,
IXM,LKO,6E,,,,GCR,1000,56,48,40,40,40,40,,
IXR,LKO,6E,,,,GCR,1000,55,44,35,35,35,35,,
IXZ,LKO,6E,,,,GCR,1000,65,55,45,45,45,45,,
JAI,LKO,6E,,,,GCR,1000,47,38,30,30,30,30,,
MAA,LKO,6E,,,,GCR,1000,56,48,40,40,40,40,,
NAG,LKO,6E,,,,GCR,1000,51,41,33,33,33,33,,
PAT,LKO,6E,,,,GCR,1000,51,41,33,33,33,33,,
PNQ,LKO,6E,,,,GCR,1000,51,41,33,33,33,33,,
RPR,LKO,6E,,,,GCR,1000,51,41,33,33,33,33,,
SXR,LKO,6E,,,,GCR,1000,59,48,38,38,38,38,,
TRV,LKO,6E,,,,GCR,1000,51,41,33,33,33,33,,
UDR,LKO,6E,,,,GCR,1000,78,63,50,50,50,50,,
VNS,LKO,6E,,,,GCR,1000,59,48,38,38,38,38,,
VTZ,LKO,6E,,,,GCR,1000,51,41,33,33,33,33,,
ATQ,MAA,6E,,,,GCR,1000,59,54,45,45,45,45,,
BBI,MAA,6E,,,,GCR,1000,59,48,38,38,38,38,,
BDQ,MAA,6E,,,,GCR,1000,48,39,31,31,31,31,,
BLR,MAA,6E,,,,GCR,1000,39,31,25,25,25,25,,
BOM,MAA,6E,,,,GCR,1000,47,38,30,30,30,30,,
CCJ,MAA,6E,,,,GCR,1000,55,44,35,35,35,35,,
CCU,MAA,6E,,,,GCR,1000,55,44,35,35,35,35,,
CJB,MAA,6E,,,,GCR,1000,47,38,30,30,30,30,,
COK,MAA,6E,,,,GCR,1000,42,34,24,24,24,24,,
DED,MAA,6E,,,,GCR,1000,69,55,36,36,36,36,,
DEL,MAA,6E,6E 985,,,GCR,1000,69,50,50,50,50,50,,
DEL,MAA,6E,6E 606,,,GCR,1000,69,50,50,50,50,50,,
DEL,MAA,6E,6E 4296,,,GCR,1000,69,50,50,50,50,50,,
DEL,MAA,6E,,,,GCR,1000,69,50,40,40,40,40,,
DIB,MAA,6E,,,,GCR,1000,53,43,34,34,34,34,,
DMU,MAA,6E,,,,GCR,1000,100,100,100,100,100,100,,
GAU,MAA,6E,,,,GCR,1000,41,33,26,26,26,26,,
GOI,MAA,6E,,,,GCR,1000,55,44,32,32,32,32,,
HYD,MAA,6E,,,,GCR,1000,42,34,27,27,27,27,,
IDR,MAA,6E,,,,GCR,1000,51,41,33,33,33,33,,
IMF,MAA,6E,,,,GCR,1000,55,44,35,35,35,35,,
IXA,MAA,6E,,,,GCR,1000,51,41,33,33,33,33,,
IXB,MAA,6E,,,,GCR,1000,41,33,26,26,26,26,,
IXC,MAA,6E,,,,GCR,1000,59,54,45,45,45,45,,
IXJ,MAA,6E,,,,GCR,1000,59,48,38,38,38,38,,
IXM,MAA,6E,,,,GCR,1000,42,34,27,27,27,27,,
IXR,MAA,6E,,,,GCR,1000,51,41,33,33,33,33,,
IXZ,MAA,6E,,,,GCR,1000,55,45,34,34,34,34,,
JAI,MAA,6E,6E 606,,,GCR,1000,68,55,55,55,55,55,,
JAI,MAA,6E,,,,GCR,1000,68,55,38,38,38,38,,
LKO,MAA,6E,,,,GCR,1000,59,48,34,34,30,30,,
NAG,MAA,6E,,,,GCR,1000,51,41,33,33,33,33,,
PAT,MAA,6E,,,,GCR,1000,51,41,33,33,33,33,,
PNQ,MAA,6E,,,,GCR,1000,56,45,36,36,36,36,,
RPR,MAA,6E,,,,GCR,1000,51,41,33,33,33,33,,
SXR,MAA,6E,,,,GCR,1000,59,48,38,38,38,38,,
TRV,MAA,6E,,,,GCR,1000,51,41,33,33,33,33,,
UDR,MAA,6E,,,,GCR,1000,95,70,50,50,50,50,,
VNS,MAA,6E,,,,GCR,1000,59,48,38,38,38,38,,
VTZ,MAA,6E,,,,GCR,1000,51,41,33,33,33,33,,
AMD,NAG,6E,,,,GCR,1000,55,44,35,35,35,35,,
ATQ,NAG,6E,,,,GCR,1000,59,48,38,38,38,38,,
BBI,NAG,6E,,,,GCR,1000,59,48,38,38,38,38,,
BDQ,NAG,6E,,,,GCR,1000,55,44,35,35,35,35,,
BLR,NAG,6E,,,,GCR,1000,75,61,50,50,50,50,,
BOM,NAG,6E,,,,GCR,1000,52,41,33,33,33,33,,
CCJ,NAG,6E,,,,GCR,1000,55,44,35,35,35,35,,
CCU,NAG,6E,,,,GCR,1000,48,39,31,31,31,31,,
CJB,NAG,6E,,,,GCR,1000,52,41,33,33,33,33,,
COK,NAG,6E,,,,GCR,1000,52,41,33,33,33,33,,
DED,NAG,6E,,,,GCR,1000,59,48,38,38,38,38,,
DEL,NAG,6E,,,,GCR,1000,59,48,38,38,38,38,,
DIB,NAG,6E,,,,GCR,1000,55,44,35,35,35,35,,
DMU,NAG,6E,,,,GCR,1000,100,100,100,100,100,100,,
GAU,NAG,6E,,,,GCR,1000,55,44,35,35,35,35,,
GOI,NAG,6E,,,,GCR,1000,55,44,35,35,35,35,,
HYD,NAG,6E,,,,GCR,1000,55,44,35,35,35,35,,
IDR,NAG,6E,,,,GCR,1000,51,41,33,33,33,33,,
IMF,NAG,6E,,,,GCR,1000,55,44,35,35,35,35,,
IXA,NAG,6E,,,,GCR,1000,51,41,33,33,33,33,,
IXB,NAG,6E,,,,GCR,1000,44,35,28,28,28,28,,
IXC,NAG,6E,,,,GCR,1000,59,48,38,38,38,38,,
IXJ,NAG,6E,,,,GCR,1000,59,48,38,38,38,38,,
IXM,NAG,6E,,,,GCR,1000,51,41,33,33,33,33,,
IXR,NAG,6E,,,,GCR,1000,55,44,35,35,35,35,,
IXZ,NAG,6E,,,,GCR,1000,65,55,45,45,45,45,,
JAI,NAG,6E,,,,GCR,1000,59,48,38,38,38,38,,
LKO,NAG,6E,,,,GCR,1000,59,48,38,38,38,38,,
MAA,NAG,6E,,,,GCR,1000,51,41,33,33,33,33,,
PAT,NAG,6E,,,,GCR,1000,51,41,33,33,33,33,,
PNQ,NAG,6E,,,,GCR,1000,51,41,33,33,33,33,,
RPR,NAG,6E,,,,GCR,1000,47,38,30,30,30,30,,
SXR,NAG,6E,,,,GCR,1000,59,48,38,38,38,38,,
TRV,NAG,6E,,,,GCR,1000,55,44,35,35,35,35,,
UDR,NAG,6E,,,,GCR,1000,59,48,38,38,38,38,,
VNS,NAG,6E,,,,GCR,1000,59,48,38,38,38,38,,
VTZ,NAG,6E,,,,GCR,1000,51,41,33,33,33,33,,
AMD,PAT,6E,,,,GCR,1000,59,48,38,38,38,38,,
ATQ,PAT,6E,,,,GCR,1000,59,54,45,45,45,45,,
BBI,PAT,6E,,,,GCR,1000,59,48,38,38,38,38,,
BDQ,PAT,6E,,,,GCR,1000,59,48,38,38,38,38,,
BLR,PAT,6E,,,,GCR,1000,70,56,45,45,45,45,,
BOM,PAT,6E,,,,GCR,1000,52,41,33,33,33,33,,
CCJ,PAT,6E,,,,GCR,1000,55,44,35,35,35,35,,
CCU,PAT,6E,,,,GCR,1000,48,39,31,31,31,31,,
CJB,PAT,6E,,,,GCR,1000,55,44,35,35,35,35,,
COK,PAT,6E,,,,GCR,1000,55,44,35,35,35,35,,
DED,PAT,6E,,,,GCR,1000,59,48,38,38,38,38,,
DEL,PAT,6E,,,,GCR,1000,59,48,38,38,38,38,,
DIB,PAT,6E,,,,GCR,1000,55,44,35,35,35,35,,
DMU,PAT,6E,,,,GCR,1000,100,100,100,100,100,100,,
GAU,PAT,6E,,,,GCR,1000,55,44,35,35,35,35,,
GOI,PAT,6E,,,,GCR,1000,55,44,40,40,40,40,,
HYD,PAT,6E,,,,GCR,1000,47,38,32,32,32,32,,
IDR,PAT,6E,,,,GCR,1000,51,41,33,33,33,33,,
IMF,PAT,6E,,,,GCR,1000,55,44,35,35,35,35,,
IXA,PAT,6E,,,,GCR,1000,51,41,33,33,33,33,,
IXB,PAT,6E,,,,GCR,1000,51,41,33,33,33,33,,
IXC,PAT,6E,,,,GCR,1000,59,54,45,45,45,45,,
IXJ,PAT,6E,,,,GCR,1000,59,48,38,38,38,38,,
IXM,PAT,6E,,,,GCR,1000,56,46,38,38,38,38,,
IXR,PAT,6E,,,,GCR,1000,51,41,33,33,33,33,,
IXZ,PAT,6E,,,,GCR,1000,65,55,45,45,45,45,,
JAI,PAT,6E,,,,GCR,1000,59,48,38,38,38,38,,
LKO,PAT,6E,,,,GCR,1000,59,48,38,38,38,38,,
MAA,PAT,6E,,,,GCR,1000,56,46,38,38,38,38,,
NAG,PAT,6E,,,,GCR,1000,51,41,33,33,33,33,,
PNQ,PAT,6E,,,,GCR,1000,51,41,33,33,33,33,,
RPR,PAT,6E,,,,GCR,1000,51,41,33,33,33,33,,
SXR,PAT,6E,,,,GCR,1000,59,48,38,38,38,38,,
TRV,PAT,6E,,,,GCR,1000,51,41,33,33,33,33,,
UDR,PAT,6E,,,,GCR,1000,78,63,50,50,50,50,,
VNS,PAT,6E,,,,GCR,1000,59,48,38,38,38,38,,
VTZ,PAT,6E,,,,GCR,1000,51,41,33,33,33,33,,
AMD,PNQ,6E,,,,GCR,1000,55,44,35,35,35,35,,
ATQ,PNQ,6E,,,,GCR,1000,59,50,45,45,45,45,,
BBI,PNQ,6E,,,,GCR,1000,59,48,38,38,38,38,,
BDQ,PNQ,6E,,,,GCR,1000,55,44,35,35,35,35,,
BLR,PNQ,6E,,,,GCR,1000,47,38,30,30,30,30,,
BOM,PNQ,6E,,,,GCR,1000,52,41,33,33,33,33,,
CCJ,PNQ,6E,,,,GCR,1000,55,44,35,35,35,35,,
CCU,PNQ,6E,,,,GCR,1000,50,40,35,35,35,35,,
CJB,PNQ,6E,,,,GCR,1000,57,46,38,38,38,38,,
COK,PNQ,6E,,,,GCR,1000,55,44,35,35,35,35,,
DED,PNQ,6E,,,,GCR,1000,59,48,38,38,38,38,,
DEL,PNQ,6E,,,,GCR,1000,59,48,38,38,38,38,,
DIB,PNQ,6E,,,,GCR,1000,55,44,35,35,35,35,,
DMU,PNQ,6E,,,,GCR,1000,100,100,100,100,100,100,,
GAU,PNQ,6E,,,,GCR,1000,55,44,35,35,35,35,,
GOI,PNQ,6E,,,,GCR,1000,55,44,35,35,35,35,,
HYD,PNQ,6E,,,,GCR,1000,47,38,30,30,30,30,,
IDR,PNQ,6E,,,,GCR,1000,51,41,33,33,33,33,,
IMF,PNQ,6E,,,,GCR,1000,55,44,35,35,35,35,,
IXA,PNQ,6E,,,,GCR,1000,51,41,33,33,33,33,,
IXB,PNQ,6E,,,,GCR,1000,44,35,28,28,28,28,,
IXC,PNQ,6E,,,,GCR,1000,59,50,45,45,45,45,,
IXJ,PNQ,6E,,,,GCR,1000,59,48,38,38,38,38,,
IXM,PNQ,6E,,,,GCR,1000,44,35,28,28,28,28,,
IXR,PNQ,6E,,,,GCR,1000,51,41,33,33,33,33,,
IXZ,PNQ,6E,,,,GCR,1000,65,55,45,45,45,45,,
JAI,PNQ,6E,,,,GCR,1000,55,44,38,38,38,38,,
LKO,PNQ,6E,,,,GCR,1000,55,44,35,35,35,35,,
MAA,PNQ,6E,,,,GCR,1000,44,35,28,28,28,28,,
NAG,PNQ,6E,,,,GCR,1000,37,29,24,24,24,24,,
PAT,PNQ,6E,,,,GCR,1000,51,41,33,33,33,33,,
RPR,PNQ,6E,,,,GCR,1000,51,41,33,33,33,33,,
SXR,PNQ,6E,,,,GCR,1000,55,44,35,35,35,35,,
TRV,PNQ,6E,,,,GCR,1000,51,41,33,33,33,33,,
UDR,PNQ,6E,,,,GCR,1000,59,48,38,38,38,38,,
VNS,PNQ,6E,,,,GCR,1000,55,44,35,35,35,35,,
VTZ,PNQ,6E,,,,GCR,1000,51,41,33,33,33,33,,
AMD,RPR,6E,,,,GCR,1000,59,48,38,38,38,38,,
ATQ,RPR,6E,,,,GCR,1000,55,50,45,45,45,45,,
BBI,RPR,6E,,,,GCR,1000,56,45,36,36,36,36,,
BDQ,RPR,6E,,,,GCR,1000,59,48,38,38,38,38,,
BLR,RPR,6E,,,,GCR,1000,52,41,33,33,33,33,,
BOM,RPR,6E,,,,GCR,1000,52,41,33,33,33,33,,
CCJ,RPR,6E,,,,GCR,1000,55,44,35,35,35,35,,
CCU,RPR,6E,,,,GCR,1000,51,41,33,33,33,33,,
CJB,RPR,6E,,,,GCR,1000,52,41,33,33,33,33,,
COK,RPR,6E,,,,GCR,1000,55,44,35,35,35,35,,
DED,RPR,6E,,,,GCR,1000,39,31,20,20,20,20,,
DEL,RPR,6E,,,,GCR,1000,59,48,38,38,38,38,,
DIB,RPR,6E,,,,GCR,1000,56,45,36,36,36,36,,
DMU,RPR,6E,,,,GCR,1000,100,100,100,100,100,100,,
GAU,RPR,6E,,,,GCR,1000,55,44,35,35,35,35,,
GOI,RPR,6E,,,,GCR,1000,55,44,35,35,35,35,,
HYD,RPR,6E,,,,GCR,1000,47,38,30,30,30,30,,
IDR,RPR,6E,,,,GCR,1000,51,41,33,33,33,33,,
IMF,RPR,6E,,,,GCR,1000,55,44,35,35,35,35,,
IXA,RPR,6E,,,,GCR,1000,51,41,33,33,33,33,,
IXB,RPR,6E,,,,GCR,1000,55,44,35,35,35,35,,
IXC,RPR,6E,,,,GCR,1000,55,50,45,45,45,45,,
IXJ,RPR,6E,,,,GCR,1000,55,44,35,35,35,35,,
IXM,RPR,6E,,,,GCR,1000,51,41,33,33,33,33,,
IXR,RPR,6E,,,,GCR,1000,51,41,33,33,33,33,,
IXZ,RPR,6E,,,,GCR,1000,65,55,45,45,45,45,,
JAI,RPR,6E,,,,GCR,1000,55,44,35,35,35,35,,
LKO,RPR,6E,,,,GCR,1000,55,44,35,35,35,35,,
MAA,RPR,6E,,,,GCR,1000,51,41,33,33,33,33,,
NAG,RPR,6E,,,,GCR,1000,51,41,33,33,33,33,,
PAT,RPR,6E,,,,GCR,1000,51,41,33,33,33,33,,
PNQ,RPR,6E,,,,GCR,1000,51,41,33,33,33,33,,
SXR,RPR,6E,,,,GCR,1000,55,44,35,35,35,35,,
TRV,RPR,6E,,,,GCR,1000,51,41,33,33,33,33,,
UDR,RPR,6E,,,,GCR,1000,78,63,50,50,50,50,,
VNS,RPR,6E,,,,GCR,1000,55,44,35,35,35,35,,
VTZ,RPR,6E,,,,GCR,1000,51,41,33,33,33,33,,
AMD,SXR,6E,,,,GCR,1000,63,50,40,40,40,40,,
ATQ,SXR,6E,,,,GCR,1000,45,38,31,31,31,31,,
BBI,SXR,6E,,,,GCR,1000,63,50,40,40,40,40,,
BDQ,SXR,6E,,,,GCR,1000,63,50,40,40,40,40,,
BLR,SXR,6E,,,,GCR,1000,94,75,60,60,60,60,,
BOM,SXR,6E,,,,GCR,1000,47,38,30,30,30,30,,
CCJ,SXR,6E,,,,GCR,1000,55,44,35,35,35,35,,
CCU,SXR,6E,,,,GCR,1000,55,44,35,35,35,35,,
CJB,SXR,6E,,,,GCR,1000,59,48,38,38,38,38,,
COK,SXR,6E,,,,GCR,1000,63,50,40,40,40,40,,
DED,SXR,6E,,,,GCR,1000,59,48,38,38,38,38,,
DEL,SXR,6E,,,,GCR,1000,39,31,20,20,20,20,,
DIB,SXR,6E,,,,GCR,1000,56,45,36,36,36,36,,
DMU,SXR,6E,,,,GCR,1000,100,100,100,100,100,100,,
GAU,SXR,6E,,,,GCR,1000,55,44,35,35,35,35,,
GOI,SXR,6E,,,,GCR,1000,55,44,35,35,35,35,,
HYD,SXR,6E,,,,GCR,1000,59,48,38,38,38,38,,
IDR,SXR,6E,,,,GCR,1000,50,40,32,32,32,32,,
IMF,SXR,6E,,,,GCR,1000,55,44,35,35,35,35,,
IXA,SXR,6E,,,,GCR,1000,55,44,35,35,35,35,,
IXB,SXR,6E,,,,GCR,1000,51,41,33,33,33,33,,
IXC,SXR,6E,,,,GCR,1000,45,38,31,31,31,31,,
IXJ,SXR,6E,,,,GCR,1000,33,26,21,21,21,21,,
IXM,SXR,6E,,,,GCR,1000,55,44,35,35,35,35,,
IXR,SXR,6E,,,,GCR,1000,55,44,35,35,35,35,,
IXZ,SXR,6E,,,,GCR,1000,65,55,45,45,45,45,,
JAI,SXR,6E,,,,GCR,1000,55,44,35,35,35,35,,
LKO,SXR,6E,,,,GCR,1000,55,44,35,35,35,35,,
MAA,SXR,6E,,,,GCR,1000,55,44,35,35,35,35,,
NAG,SXR,6E,,,,GCR,1000,51,41,33,33,33,33,,
PAT,SXR,6E,,,,GCR,1000,55,44,35,35,35,35,,
PNQ,SXR,6E,,,,GCR,1000,51,41,33,33,33,33,,
RPR,SXR,6E,,,,GCR,1000,55,44,35,35,35,35,,
TRV,SXR,6E,,,,GCR,1000,56,45,36,36,36,36,,
UDR,SXR,6E,,,,GCR,1000,78,63,50,50,50,50,,
VNS,SXR,6E,,,,GCR,1000,55,44,35,35,35,35,,
VTZ,SXR,6E,,,,GCR,1000,55,44,35,35,35,35,,
AMD,TRV,6E,,,,GCR,1000,63,50,40,40,40,40,,
ATQ,TRV,6E,,,,GCR,1000,70,56,45,45,45,45,,
BBI,TRV,6E,,,,GCR,1000,63,50,40,40,40,40,,
BDQ,TRV,6E,,,,GCR,1000,63,50,40,40,40,40,,
BLR,TRV,6E,,,,GCR,1000,47,38,30,30,30,30,,
BOM,TRV,6E,,,,GCR,1000,52,41,33,33,33,33,,
CCJ,TRV,6E,,,,GCR,1000,55,44,35,35,35,35,,
CCU,TRV,6E,,,,GCR,1000,55,44,35,35,35,35,,
CJB,TRV,6E,,,,GCR,1000,52,41,33,33,33,33,,
COK,TRV,6E,,,,GCR,1000,52,41,33,33,33,33,,
DED,TRV,6E,,,,GCR,1000,70,56,45,45,45,45,,
DEL,TRV,6E,,,,GCR,1000,70,56,45,45,45,45,,
DIB,TRV,6E,,,,GCR,1000,55,44,35,35,35,35,,
DMU,TRV,6E,,,,GCR,1000,100,100,100,100,100,100,,
GAU,TRV,6E,,,,GCR,1000,55,44,35,35,35,35,,
GOI,TRV,6E,,,,GCR,1000,55,44,35,35,35,35,,
HYD,TRV,6E,,,,GCR,1000,47,38,30,30,30,30,,
IDR,TRV,6E,,,,GCR,1000,51,41,33,33,33,33,,
IMF,TRV,6E,,,,GCR,1000,55,44,35,35,35,35,,
IXA,TRV,6E,,,,GCR,1000,51,41,33,33,33,33,,
IXB,TRV,6E,,,,GCR,1000,51,41,33,33,33,33,,
IXC,TRV,6E,,,,GCR,1000,70,56,45,45,45,45,,
IXJ,TRV,6E,,,,GCR,1000,70,56,45,45,45,45,,
IXM,TRV,6E,,,,GCR,1000,42,34,27,27,27,27,,
IXR,TRV,6E,,,,GCR,1000,55,44,35,35,35,35,,
IXZ,TRV,6E,,,,GCR,1000,55,45,38,38,38,38,,
JAI,TRV,6E,,,,GCR,1000,70,56,40,40,40,40,,
LKO,TRV,6E,,,,GCR,1000,70,56,45,45,45,45,,
MAA,TRV,6E,,,,GCR,1000,42,34,27,27,27,27,,
NAG,TRV,6E,,,,GCR,1000,51,41,33,33,33,33,,
PAT,TRV,6E,,,,GCR,1000,55,44,35,35,35,35,,
PNQ,TRV,6E,,,,GCR,1000,51,41,33,33,33,33,,
RPR,TRV,6E,,,,GCR,1000,55,44,35,35,35,35,,
SXR,TRV,6E,,,,GCR,1000,70,56,45,45,45,45,,
UDR,TRV,6E,,,,GCR,1000,78,63,50,50,50,50,,
VNS,TRV,6E,,,,GCR,1000,55,44,35,35,35,35,,
VTZ,TRV,6E,,,,GCR,1000,55,44,35,35,35,35,,
AMD,UDR,6E,,,,GCR,1000,105,80,68,68,68,68,,
ATQ,UDR,6E,,,,GCR,1000,70,56,45,45,45,45,,
BBI,UDR,6E,,,,GCR,1000,63,50,40,40,40,40,,
BDQ,UDR,6E,,,,GCR,1000,63,50,40,40,40,40,,
BLR,UDR,6E,,,,GCR,1000,63,50,40,40,40,40,,
BOM,UDR,6E,,,,GCR,1000,75,55,40,40,40,40,,
CCJ,UDR,6E,,,,GCR,1000,70,56,45,45,45,45,,
CCU,UDR,6E,,,,GCR,1000,70,56,45,45,45,45,,
CJB,UDR,6E,,,,GCR,1000,66,53,42,42,42,42,,
COK,UDR,6E,,,,GCR,1000,66,53,42,42,42,42,,
DED,UDR,6E,,,,GCR,1000,70,56,45,45,45,45,,
DEL,UDR,6E,,,,GCR,1000,70,56,45,45,45,45,,
DIB,UDR,6E,,,,GCR,1000,63,50,40,40,40,40,,
DMU,UDR,6E,,,,GCR,1000,100,100,100,100,100,100,,
GAU,UDR,6E,,,,GCR,1000,70,56,45,45,45,45,,
GOI,UDR,6E,,,,GCR,1000,63,50,40,40,40,40,,
HYD,UDR,6E,,,,GCR,1000,66,53,42,42,42,42,,
IDR,UDR,6E,,,,GCR,1000,55,44,35,35,35,35,,
IMF,UDR,6E,,,,GCR,1000,78,63,50,50,50,50,,
IXA,UDR,6E,,,,GCR,1000,70,56,45,45,45,45,,
IXB,UDR,6E,,,,GCR,1000,70,56,45,45,45,45,,
IXC,UDR,6E,,,,GCR,1000,70,56,45,45,45,45,,
IXJ,UDR,6E,,,,GCR,1000,70,56,45,45,45,45,,
IXM,UDR,6E,,,,GCR,1000,63,50,40,40,40,40,,
IXR,UDR,6E,,,,GCR,1000,70,56,45,45,45,45,,
IXZ,UDR,6E,,,,GCR,1000,65,55,45,45,45,45,,
JAI,UDR,6E,,,,GCR,1000,55,44,35,35,35,35,,
LKO,UDR,6E,,,,GCR,1000,70,56,45,45,45,45,,
MAA,UDR,6E,,,,GCR,1000,63,50,40,40,40,40,,
NAG,UDR,6E,,,,GCR,1000,55,44,35,35,35,35,,
PAT,UDR,6E,,,,GCR,1000,66,53,42,42,42,42,,
PNQ,UDR,6E,,,,GCR,1000,70,56,45,45,45,45,,
RPR,UDR,6E,,,,GCR,1000,63,50,40,40,40,40,,
SXR,UDR,6E,,,,GCR,1000,70,56,45,45,45,45,,
TRV,UDR,6E,,,,GCR,1000,70,56,45,45,45,45,,
VNS,UDR,6E,,,,GCR,1000,63,50,40,40,40,40,,
VTZ,UDR,6E,,,,GCR,1000,66,53,42,42,42,42,,
AMD,VNS,6E,,,,GCR,1000,63,50,40,40,40,40,,
ATQ,VNS,6E,,,,GCR,1000,55,44,35,35,35,35,,
BBI,VNS,6E,,,,GCR,1000,63,50,40,40,40,40,,
BDQ,VNS,6E,,,,GCR,1000,63,50,40,40,40,40,,
BLR,VNS,6E,,,,GCR,1000,55,44,35,35,35,35,,
BOM,VNS,6E,,,,GCR,1000,52,41,33,33,33,33,,
CCJ,VNS,6E,,,,GCR,1000,55,44,35,35,35,35,,
CCU,VNS,6E,,,,GCR,1000,55,44,35,35,35,35,,
CJB,VNS,6E,,,,GCR,1000,63,50,40,40,40,40,,
COK,VNS,6E,,,,GCR,1000,63,50,40,40,40,40,,
DED,VNS,6E,,,,GCR,1000,39,25,18,18,18,18,,
DEL,VNS,6E,,,,GCR,1000,39,20,10,10,10,10,,
DIB,VNS,6E,,,,GCR,1000,53,43,34,34,34,34,,
DMU,VNS,6E,,,,GCR,1000,100,100,100,100,100,100,,
GAU,VNS,6E,,,,GCR,1000,55,44,35,35,35,35,,
GOI,VNS,6E,,,,GCR,1000,55,44,35,35,35,35,,
HYD,VNS,6E,,,,GCR,1000,59,48,38,38,38,38,,
IDR,VNS,6E,,,,GCR,1000,56,45,36,36,36,36,,
IMF,VNS,6E,,,,GCR,1000,55,44,35,35,35,35,,
IXA,VNS,6E,,,,GCR,1000,55,44,35,35,35,35,,
IXB,VNS,6E,,,,GCR,1000,55,44,35,35,35,35,,
IXC,VNS,6E,,,,GCR,1000,55,44,35,35,35,35,,
IXJ,VNS,6E,,,,GCR,1000,55,44,35,35,35,35,,
IXM,VNS,6E,,,,GCR,1000,55,44,35,35,35,35,,
IXR,VNS,6E,,,,GCR,1000,55,44,35,35,35,35,,
IXZ,VNS,6E,,,,GCR,1000,65,55,45,45,45,45,,
JAI,VNS,6E,,,,GCR,1000,55,44,35,35,35,35,,
LKO,VNS,6E,,,,GCR,1000,55,44,35,35,35,35,,
MAA,VNS,6E,,,,GCR,1000,55,44,35,35,35,35,,
NAG,VNS,6E,,,,GCR,1000,51,41,33,33,33,33,,
PAT,VNS,6E,,,,GCR,1000,51,41,33,33,33,33,,
PNQ,VNS,6E,,,,GCR,1000,51,41,33,33,33,33,,
RPR,VNS,6E,,,,GCR,1000,52,41,33,33,33,33,,
SXR,VNS,6E,,,,GCR,1000,55,44,35,35,35,35,,
TRV,VNS,6E,,,,GCR,1000,51,41,33,33,33,33,,
UDR,VNS,6E,,,,GCR,1000,78,63,50,50,50,50,,
VTZ,VNS,6E,,,,GCR,1000,51,41,33,33,33,33,,
AMD,VTZ,6E,,,,GCR,1000,63,50,40,40,40,40,,
ATQ,VTZ,6E,,,,GCR,1000,70,56,45,45,45,45,,
BBI,VTZ,6E,,,,GCR,1000,63,50,40,40,40,40,,
BDQ,VTZ,6E,,,,GCR,1000,63,50,40,40,40,40,,
BLR,VTZ,6E,,,,GCR,1000,50,40,32,32,32,32,,
BOM,VTZ,6E,,,,GCR,1000,55,44,35,35,35,35,,
CCJ,VTZ,6E,,,,GCR,1000,55,44,35,35,35,35,,
CCU,VTZ,6E,,,,GCR,1000,55,44,35,35,35,35,,
CJB,VTZ,6E,,,,GCR,1000,52,41,33,33,33,33,,
COK,VTZ,6E,,,,GCR,1000,52,41,33,33,33,33,,
DED,VTZ,6E,,,,GCR,1000,55,44,35,35,35,35,,
DEL,VTZ,6E,,,,GCR,1000,55,44,35,35,35,35,,
DIB,VTZ,6E,,,,GCR,1000,55,44,35,35,35,35,,
DMU,VTZ,6E,,,,GCR,1000,100,100,100,100,100,100,,
GAU,VTZ,6E,,,,GCR,1000,55,44,35,35,35,35,,
GOI,VTZ,6E,,,,GCR,1000,59,48,38,38,38,38,,
HYD,VTZ,6E,,,,GCR,1000,41,33,26,26,26,26,,
IDR,VTZ,6E,,,,GCR,1000,55,44,35,35,35,35,,
IMF,VTZ,6E,,,,GCR,1000,55,44,35,35,35,35,,
IXA,VTZ,6E,,,,GCR,1000,51,41,33,33,33,33,,
IXB,VTZ,6E,,,,GCR,1000,51,41,33,33,33,33,,
IXC,VTZ,6E,,,,GCR,1000,70,56,45,45,45,45,,
IXJ,VTZ,6E,,,,GCR,1000,70,56,45,45,45,45,,
IXM,VTZ,6E,,,,GCR,1000,56,46,38,38,38,38,,
IXR,VTZ,6E,,,,GCR,1000,51,41,33,33,33,33,,
IXZ,VTZ,6E,,,,GCR,1000,65,55,45,45,45,45,,
JAI,VTZ,6E,,,,GCR,1000,70,56,45,45,45,45,,
LKO,VTZ,6E,,,,GCR,1000,70,56,45,45,45,45,,
MAA,VTZ,6E,,,,GCR,1000,56,46,38,38,38,38,,
NAG,VTZ,6E,,,,GCR,1000,51,41,33,33,33,33,,
PAT,VTZ,6E,,,,GCR,1000,51,41,33,33,33,33,,
PNQ,VTZ,6E,,,,GCR,1000,51,41,33,33,33,33,,
RPR,VTZ,6E,,,,GCR,1000,51,41,33,33,33,33,,
SXR,VTZ,6E,,,,GCR,1000,70,56,45,45,45,45,,
TRV,VTZ,6E,,,,GCR,1000,51,41,33,33,33,33,,
UDR,VTZ,6E,,,,GCR,1000,70,56,45,45,45,45,,
VNS,VTZ,6E,,,,GCR,1000,70,56,45,45,45,45,,
