Sl.No,Awb No,Flight,Origin,Dest.,Shipper,Agent,Awb Date,Prod Type,Rate Class,Commodity,Pkts,Act. Wt.,Charge Wt.,Rate,Freight,Awb DC,To pay,FSC,FAC,Val,Unit,Deunit,xray,Tsp in,Tsp out,Do charge,Docs,Service,Nform,Other charge,Other DC,Misc Chg.,Handling,Awb DA,Total,Tt tax,Grand tt,Addl. Tsp
12,00419873,6E 395,BOM,CCU,TRACKON COURIERS PVT. LTD.,INDEX LOGISTIC  PVT LTD,03/03/2017,PP,gcr,CONSOL,4,58.0,58.000,55.00,1000.00,0.00,0.00,0.00,0.00,0.00,0.00,0.00,0.00,0.00,0.00,0.00,0.00,0.00,0.00,0.00,0.00,0.00,0.00,0.00,1000.00,150.00,1150.00,0.00
43,00423209,6E 124,BOM,DEL,TRACKON COURIERS PVT. LTD.,INDEX LOGISTIC  PVT LTD,10/03/2017,PP,gcr,CONSOL,17,328.0,328.000,29.00,9512.00,0.00,0.00,0.00,0.00,0.00,0.00,0.00,0.00,0.00,0.00,0.00,0.00,0.00,0.00,0.00,0.00,0.00,0.00,0.00,9512.00,1427.00,10939.00,0.00
248,00420574,6E 321,BOM,GAU,TRACKON COURIERS PVT. LTD.,INDEX LOGISTIC  PVT LTD,07/03/2017,PP,gcr,CONSOL,5,49.0,49.000,65.00,3185.00,0.00,0.00,0.00,0.00,0.00,0.00,0.00,0.00,0.00,0.00,0.00,0.00,0.00,0.00,0.00,0.00,0.00,0.00,0.00,3185.00,478.00,3663.00,0.00
591,00425017,6E 321,BOM,GAU,TRACKON COURIERS PVT. LTD.,INDEX LOGISTIC  PVT LTD,18/03/2017,PP,gcr,CONSOL,10,147.0,147.000,81.00,1000.00,0.00,0.00,0.00,0.00,0.00,0.00,0.00,0.00,0.00,0.00,0.00,0.00,0.00,0.00,0.00,0.00,0.00,0.00,0.00,1000.00,150.00,1150.00,0.00
612,00425300,6E 395,BOM,CCU,TRACKON COURIERS PVT. LTD.,INDEX LOGISTIC  PVT LTD,19/03/2017,PP,gcr,CONSOL,5,39.0,39.000,55.00,1000.00,0.00,0.00,0.00,0.00,0.00,0.00,0.00,0.00,0.00,0.00,0.00,0.00,0.00,0.00,0.00,0.00,0.00,0.00,0.00,1000.00,150.00,1150.00,0.00
716,00428254,6E 363,BOM,CJB,TRACKON COURIERS PVT. LTD.,INDEX LOGISTIC  PVT LTD,24/03/2017,PP,gcr,CONSOL,7,140.0,140.000,35.00,4900.00,0.00,0.00,0.00,0.00,0.00,0.00,0.00,0.00,0.00,0.00,0.00,0.00,0.00,0.00,0.00,0.00,0.00,0.00,0.00,4900.00,735.00,5635.00,0.00
717,00428258,6E 5153,BOM,CCU,TRACKON COURIERS PVT. LTD.,INDEX LOGISTIC  PVT LTD,24/03/2017,PP,gcr,CONSOL,7,70.0,70.000,44.00,3080.00,0.00,0.00,0.00,0.00,0.00,0.00,0.00,0.00,0.00,0.00,0.00,0.00,0.00,0.00,0.00,0.00,0.00,0.00,0.00,3080.00,462.00,3542.00,0.00
718,00428266,6E 178,BOM,PAT,TRACKON COURIERS PVT. LTD.,INDEX LOGISTIC  PVT LTD,25/03/2017,PP,gcr,CONSOL,3,55.0,55.000,36.00,1980.00,0.00,0.00,0.00,0.00,0.00,0.00,0.00,0.00,0.00,0.00,0.00,0.00,0.00,0.00,0.00,0.00,0.00,0.00,0.00,1980.00,297.00,2277.00,0.00
